000000133;100 работ тут;;191304775; ; ;Основной договор
;"ООО ""100 работ тут""";;;; ; 
000000209;3 Фазы;;192196145; ;220015, г.Минск, ул.Гурского, д.32, каб.401-Б;Публичный договор № 1 от 12.01.15
;"ООО ""3 Фазы""";;;;220015, г.Минск, ул.Гурского, д.32, каб.401-Б;"р/с № 3012135950004        в ЗАО ""БелСвиссБанк"", г.г.Минск"
000000078;ABB Global Marketing;;102363687; ;220020, Минск, пр. Победителей, 89, корпус 3, офис 413;Публичный договор № 1 от 01.07.2013г.
;"Представительство ""ABB Global Marketing"" (ОАЭ)";;;;220020, Минск, пр. Победителей, 89, корпус 3, офис 413;"р/с № 3024020316513        в ""Приорбанк"" Открытое акционерное общество, г.г.Минск"
000000035;Polontech sp. z.o.o.;; ; ;Варшава, Польша;Основной договор
;Polontech sp. z.o.o.;;;;Варшава, Польша; 
000000068;Schneider Electric Industries;;101178177;236-96-23;220007, г.Минск, ул.Московская, д.22-9;Публичный договор № 1 от 12.01.15
;"Представительство ""Schneider Electric Industries S.A.S."" (Франция) в РБ";;;;220007, г.Минск, ул.Московская, д.22-9;"р/с № 3021000771014        в ОАО ""Банк БелВЭБ"", г.г.Минск"
000000323;Schneider Electric IT Logistics Europe;; ; ; ;Публичный договор № 1 от 12.01.2015г.
;Schneider Electric IT Logistics Europe;;;; ; 
000000225;Аброникс;;691438454; ; ;Договор
;"ООО ""Аброникс""";;;; ;"р/с № 3012028413013        в ""Приорбанк"" Открытое акционерное общество, г.г.Минск"
000000126;Абсолют Сенсор;;191352728; ;220028, г.Минск, ул.Физкультурная, 26А;Публичный договор № 1 от 01.07.13
;"ООО ""Абсолют Сенсор""";;;;220028, г.Минск, ул.Физкультурная, 26А;"р/с № 3012052610007        в ЗАО ""БелСвиссБанк"", г.г.Минск"
000000149;Абсолют Сенсор Групп;;192187415; ;220028, г.Минск, ул.Физкультурная, 26А;Публичный договор № 1 от 01.07.13
;"ООО ""Абсолют Сенсор Групп""";;;;220028, г.Минск, ул.Физкультурная, 26А;"р/с № 3012134240005        в ЗАО ""БелСвиссБанк"", г.г.Минск"
000000217;Аванта и К;;690819635; ;"220050, г.Минск, ул.Свердлова, 26 Салон оптики ""Времена года""";Публичный договор № 1 от 01.07.13г.
;"ЗАО ""Аванта и К""";;;;222827, Минская обл., Пуховичский р-н, г.Марьина Горка, ул.Спасателей, д.2, комн.328;"р/с № 3012142320018        в ЗАО ""Минский транзитный банк"", г.г.Минск"
000000238;АвентелТехно;;691459679; ;223053, Минская обл., Минский р-н, д.Боровляны, ул.40лет Победы, д.27/1, пом.7;Публичный договор № 2 от 01.07.13
;"ООО ""АвентелТехно""";;;;223053, Минская обл., Минский р-н, д.Боровляны, ул.40лет Победы, д.27/1, пом.7;"р/с № 3012206256008        в ЗАО ""Альфа-Банк"", г.г.Минск"
000000307;Авилюкс;;190500097; ;220040, г.Минск, ул.Некрасова, 5-907А;Публичный договор № 1 от 12.01.2015г.
;"ОАО ""Авилюкс""";;;;220040, г.Минск, ул.Некрасова, 5-907А;"р/с № 3012005011018        в ""Приорбанк"" Открытое акционерное общество, г.г.Минск"
000000321;Автодиллер-Агро;;192343439; ;220141, г.Минск, ул.Ф.Скорины, д.52, к.1-3, комн.33 (3 этаж);Публичный договор № 2 от 12.01.15г.
;"ООО ""Автодиллер-Агро""";;;;220141, г.Минск, ул.Ф.Скорины, д.52, к.1-3, комн.33 (3 этаж);"р/с № 3012450690023        в ОАО ""Белинвестбанк"", г.г.Минск"
000000161;АВТОМАТИКАЦЕНТР;;191087188; ;220125, г.Минск, пр.Независимости, 185, пом.19, офис 3;Публичный договор № 1 от 01.07.13
;"ООО ""АВТОМАТИКАЦЕНТР""";;;;220125, г.Минск, пр.Независимости, 185, пом.19, офис 3;"р/с № 3012034990013        в ОАО ""Банк Москва-Минск"", г.г.Минск"
000000342;АГИР Энерго;;191685517; ;220036, г.Минск, пер.Северный, д.13, произв.-административный корпус № 4, каб.14;Публичный договор № 1 от 01.08.2015г.
;"ООО ""АГИР Энерго""";;;;220036, г.Минск, пер.Северный, д.13, произв.-административный корпус № 4, каб.14;"р/с № 3012126730011        в ЗАО ""Банк ВТБ (Беларусь)"", г.220007, гюМинск, ул.Московская, 14"
000000092;Агро-Мотоль;;200074532; ;225822, Брестская обл., Ивановский р-н, агрогородок Мотоль, пл.Ленина, 1а;Публичный договор № 2 от 01.07.13
;"ОАО ""Агро-Мотоль""";;;;225822, Брестская обл., Ивановский р-н, агрогородок Мотоль, пл.Ленина, 1а;"р/с № 3012230380021        в Полесское отделение ОАО ""Белагропромбанк"" в г.Пинске, г.г.Пинск"
000000229;Агроинтрейд;;191210472; ;220119, г.Минск, а/я 179;Публичный договор № 1 от 12.01.15
;"ООО ""Агроинтрейд""";;;;г.Минск, ул.Якубова, д.80, пом.11Н;"р/с № 3012015486011        в ""Приорбанк"" Открытое акционерное общество, г.г.Минск"
000000353;Агропарк-М;;101430466; ;220019, г.Минск, 4-й пер.Монтажников, 5/2;Публичный договор № 2 от 12.01.2015г.
;"ОДО ""Агропарк-М""";;;;220053, г.Минск, ул.Сморговский тракт, 7-93;"р/с № 3012003470014        в ОАО ""Банк Москва-Минск"", г.г.Минск"
000000300;Агроцепи;;191654635; ;220037, г.Минск, ул.Багратиона, д.58, к.17;Публичный договор № 2 от 12.01.15г.
;"Частное предприятие ""Агроцепи""";;;;220037, г.Минск, ул.Багратиона, д.58, к.17;"р/с № 3012138510018        в ЗАО ""Минский транзитный банк"", г.г.Минск"
000000050;Аделен;;191357929; ;220073, г.Минск, ул.Гусовского, д.4, пом.308;Публичный договор № 1 от 01.07.2013
;"ООО ""Аделен""";;;;220073, г.Минск, ул.Гусовского, д.4, пом.308;"р/с № 3012205270014        в ЗАО ""Альфа-Банк"", г.г.Минск"
000000352;АДИСЕМА-М;;192150308; ;220073, г.Минск, ул.Скрыганова, 6, оф.2124;Публичный договор № 1 от 12.01.2015г.
;"ЧПУП ""АДИСЕМА-М""";;;;220073, г.Минск, ул.Скрыганова, 6, оф.2124;"р/с № 3012065190013        в ОАО ""Банк Москва-Минск"", г.г.Минск"
000000349;АДИТЕХ-ПЛЮС;;690329706; ;220021, г.Минск, ул.Омельянюка, 20;Публичный договор № 1 от 12.01.2015г.
;"ООО ""АДИТЕХ-ПЛЮС""";;;;220021, г.Минск, ул.Омельянюка, 20;"р/с № 3012039380012        в ОАО ""Франсабанк"", г.г.Минск"
000000299;АИРВАРМ;;192197432; ;220102, г.Минск, ул.Байкальская, д.62, к.1, пом.1а;Публичный договор № 1 от 12.01.2015г.
;"ООО ""АИРВАРМ""";;;;220102, г.Минск, ул.Байкальская, д.62, к.1, пом.1а;"р/с № 3012000080331        в ОАО ""Белгазпромбанк"", г.г.Минск"
000000303;АЙ ЭМ СИ КОМПЬЮТЕРС;;190201732; ;220072, г.Минск, пр.Независимости, д.68, к.108;Публичный договор № 1 от 12.01.2015г.
;"ООО ""АЙ ЭМ СИ КОМПЬЮТЕРС""";;;;220072, г.Минск, пр.Независимости, д.68, к.108;"р/с № 3012030070005        в ЗАО ""БелСвиссБанк"", г.г.Минск"
000000008;АйПи Тел Ком;;190243375; ;220013,г. Минск,ул.П.Бровки,16;Договор №4043 от 27.04.2011г.   дата возникновения обязательства :  27.04.11
;"ООО ""АйПи ТелКом""";;;;220013 г. Минск,ул.П.Бровки,16;"р/с № 3012262520014        в Филиал ОАО ""Белагропромбанк"" - Минская городская дирекция, г.г.Минск"
000000153;Аквалит;;100261990; ;220037, г.Минск, пер.Козлова, 6;Публичный договор № 1 от 12.01.15
;"ЗАО ""Аквалит""";;;;220037, г.Минск, пер.Козлова, 6;"р/с № 3012700870010        в ОАО ""Технобанк"", г.г.Минск"
000000106;Аккомдрев;;101161594; ;220053, г.Минск, ул.Орловская, 40, пом.2;Договор
;"ЗАО ""Аккомдрев""";;;;220053, г.Минск, ул.Орловская, 40, пом.2;"р/с № 3012001885048        в ОАО ""Банк БелВЭБ"", г.г.Минск"
000000191;Активные технологии;;690277669; ; ;Договор
;"ООО ""Активные технологии""";;;; ;"р/с № 3012004553008        в ЗАО ""БелСвиссБанк"", г.г.Минск"
000000193;Алварис;;391476740; ;211444, Витебская обл., г.Новополоцк, ул.Я.Коласа, 20а, п.2, ком.1;Публичный договор № 2 от 12.01.15
;"ЧУП по оказанию услуг ""АЛВАРИС""";;;;211444, Витебская обл., г.Новополоцк, ул.Я.Коласа, 20а, п.2, ком.1;"р/с № 3012124408012        в ЦБУ №202 ОАО ""БПС - Сбербанк"" г. Новополоцк, г.г.Новополоцк"
000000003;Алексейчик Яков Яковлевич;; ; ;г. Минск,ул.первомайская,д.20,кв.100;Основной договор
;Алексейчик Яков Яковлевич, паспорт № -Мр1252969;;;;г. Минск,ул.Первомайская,д.20,кв.100; 
000000305;Альтпром;;691308213; ;220015, г.Минск, ул.Гурского, 1а;Публичный договор № 1 от 12.01.2015г.
;"ООО ""Альтпром""";;;;"Минская обл., Минский р-н, район д.Богатырево, производств. здание ЧУП ""УСВ"", каб.5";"р/с № 3012487190013        в ЗАО ""Банк ВТБ (Беларусь)"", г.220007, гюМинск, ул.Московская, 14"
000000083;АРВАС;;100082152; ;223035, Минский р-н, п.Ратомка, ул.Парковая, 10;Публичный договор № 1 от 01.07.13
;"СООО ""АРВАС""";;;;220028, г.Минск, ул.Маяковского, д.115, кю408;"р/с № 3012205130015        в ОАО ""Белинвестбанк"", г.г.Минск"
000000220;АРГУС СИТИ;;190861139; ; ;Основной договор
;"ООО ""АРГУС СИТИ""";;;; ;"р/с № 3012012607037        в ОАО ""Белорусский народный банк"", г.г.Минск"
000000322;Арлайн;;690705288; ; ;Договор
;"ООО ""Арлайн""";;;; ;"р/с № 3012021953001        в ЗАО ""БелСвиссБанк"", г.г.Минск"
000000211;АрмаТехКомплект;;192155565; ;220055, г.Минск, проезд Масюковщина, д.4, пом.9, каб.408А;Публичный договор № 1 от 12.01.15
;"ЧТУП ""АрмаТехКомплект""";;;;220055, г.Минск, проезд Масюковщина, д.4, пом.9, каб.408А;"р/с № 3012131990000        в ЗАО ""БелСвиссБанк"", г.г.Минск"
000000204;Арматон;;191518998; ;220024, г.Минск, ул.Бабушкина, 25-50;Публичный договор № 1 от 01.07.2013г.
;"ООО ""Арматон""";;;;220024, г.Минск, ул.Бабушкина, 25-50;"р/с № 3012037573016        в ""Приорбанк"" Открытое акционерное общество, г.г.Минск"
000000088;Арт Бокс Групп;;191836900; ; ;Основной договор
;"ООО ""Арт Бокс Групп""";;;; ;"р/с № 3012425970003        в ОАО ""Белорусский народный банк"", г.г.Минск"
000000291;Атава;;100081618; ;220006, г.Минск, ул.Денисовская, 47, офис 1;Публичный договор № 1 от 12.01.2015г.
;"УП ""АТАВА""";;;;220006, г.Минск, ул.Денисовская, 47, офис 1;"р/с № 3012042760013        в ЗАО ""Минский транзитный банк"", г.г.Минск"
000000260;АтомСпецКрепеж;;191267489; ;223050, Минская обл., Минский р-н, п.Сухорукие, ул.Базовская, 1а, офис 24-25;Публичный договор № 1 от 01.07.13
;"ЗАО ""АтомСпецКрепеж""";;;;223050, Минская обл., Минский р-н, п.Сухорукие, ул.Базовская, 1а, офис 24-25;"р/с № 3012158559012        в ОАО ""БПС - СберБанк"", г.г.Минск"
000000224;Аура Эллады;;191019851; ;220029, г.Минск, ул.Куйбышева, д.29, комн.1Н;Публичный договор № 1 от 01.07.2013г.
;"ООО ""Аура Эллады""";;;;"220086, г.Минск, ул.Калиновского, д.55, к.01""С""";"р/с № 3012029330017        в ЗАО ""Минский транзитный банк"", г.г.Минск"
000000070;Балтаком Электроникс;;191765335; ;220104, г.Минск, ул.Лынькова, 27, к.6;Публичный договор № 1 от 01.07.13
;"Иностранное частное предприятие ""БАЛТАКОМ Электроникс""";;;;220104, г.Минск, ул.Лынькова, 27, к.6;"р/с № 3012022289006        в ЗАО ""БелСвиссБанк"", г.г.Минск"
000000042;БАСФ;;191772182; ;220073, г.Минск, 1-ый Загородный пер., д.20, пом.6;Публичный договор № 2 от 12.01.2015
;"ИООО ""БАСФ""";;;;220073, г.Минск, 1-ый Загородный пер., д.20, пом.6;"р/с № 3012027993013        в ""Приорбанк"" Открытое акционерное общество, г.г.Минск"
000000091;БГУ;;101117830; ; ;Основной договор
;"ГУО ""Институт бизнеса и менеджмента технологий"" БГУ";;;; ;"р/с № 3015740098013        в ОАО ""Белинвестбанк"", г.г.Минск"
000000275;Безопасность и экология;;190526800; ;220113, г.Минск, ул.Мележа, д.1, пом.№ 1201;Публичный договор № 1 от 12.01.15г.
;"ООО ""Безопасность и экология""";;;;220113, г.Минск, ул.Мележа, д.1, пом.№ 1201;"р/с № 3012008114013        в ""Приорбанк"" Открытое акционерное общество, г.г.Минск"
000000067;Бел.универсальная тов.биржа;;190542056; ;220099, г.Минск, ул.Казинца, д.2, к.200;Публичный договор № 1 от 01.07.13
;"ОАО ""Белорусская универсальная товарная биржа""";;;;220099, г.Минск, ул.Казинца, д.2, к.200;"р/с № 3012000005914        в ОАО ""АСБ Беларусбанк"", г.г.Минск"
000000313;Белагромаш;;100026463; ;220036, г.Минск, ул.К.Либкнехта, 68;Публичный договор № 2 от 12.01.15г.
;"ОАО ""Белагромаш""";;;;220036, г.Минск, ул.К.Либкнехта, 68;"р/с № 3012200400011        в Филиал ОАО ""Белагропромбанк"" - Минская городская дирекция, г.г.Минск"
000000143;БЕЛГРАНТА;;190983250; ;220136, г.Минск, ул.Одоевского, 52/110;Публичный договор № 1 от 01.07.13
;"Частное предприятие ""БЕЛГРАНТА""";;;;220136, г.Минск, ул.Лобанка, 22/101;"р/с № 3012212800019        в ЗАО ""Минский транзитный банк"", г.г.Минск"
000000131;БелЕвроТрубПласт;;190638721; ;220020, г.Минск, пр.Победителей, 89, корп.3, пом.5;Публичный договор № 1 от 12.01.15
;"СООО ""БелЕвроТрубПласт""";;;;220020, г.Минск, пр.Победителей, 89, корп.3, пом.5;"р/с № 3012104462010        в ОАО ""БПС - СберБанк"", г.г.Минск"
000000121;Белинтегра;;100130911; ;220124, г.Минск, ул.Лынькова, 63, пом.31;Публичный договор № 1 от 12.01.15
;"ЗАО ""БЕЛИНТЕГРА""";;;;220124, г.Минск, ул.Лынькова, 63, пом.31;"р/с № 3012009681011        в ""Приорбанк"" Открытое акционерное общество, г.г.Минск"
000000221;Белйодобром;;190252937; ;222215, Минская обл., Смолевичский р-н, а/г Слобода, ул.Оршанская, 15;Публичный договор № 2 от 01.07.13г.
;"УП ""Белйодобром""";;;;222215, Минская обл., Смолевичский р-н, а/г Слобода, ул.Оршанская, 15;"р/с № 3012105249014        в ОАО ""БПС - СберБанк"", г.г.Минск"
000000056;Белкопиртех;;191611136; ; ;Основной договор
;"Частное предприятие ""Белкопиртех""";;;; ;"р/с № 3012712670013        в ОАО ""Белинвестбанк"", г.г.Минск"
000000254;Беллис;;100083399; ;220029, г.Минск, ул.Красная, 7Б;Договор №01092014 от 01.09.14
;"ОАО ""Испытания и сертификация бытовой и промышленной продукции ""БЕЛЛИС""";;;;220029, г.Минск, ул.Красная, 7Б;"р/с № 3012002219015        в ""Приорбанк"" Открытое акционерное общество, г.г.Минск"
000000086;Белорусская сеть телекоммуника;;190579561; ; ;Основной договор
;"ЗАО ""Белорусская сеть телекоммуникаций""";;;; ;"р/с № 3012000008328        в ОАО ""АСБ Беларусбанк"", г.г.Минск"
000000043;Белпочта;;101015738; ; ;Основной договор
;"РУП ""Белпочта""";;;; ; 
000000104;Белпромэнергоэффект;;191286950; ;220113, г.Минск, а/я 321;Договор № 24-10-13 от 24.10.13
;"ООО ""Белпромэнергоэффект""";;;;220113, г.Минск, ул.Я.Коласа, пом.810;"р/с № 3012000052952        в ОАО ""Белгазпромбанк"", г.г.Минск"
000000116;БелСервисЭМКА;;101347893; ;220007, г.Минск, ул.Фабрициуса, 8-50;Публичный договор № 1 от 01.07.13г.
;"ООО ""БелСервисЭМКА""";;;;220007, г.Минск, ул.Фабрициуса, 8-50;"р/с № 3012740883016        в Отделение  № 539 ОАО ""Белинвестбанк"", г.г.Минск"
000000064;Белснабконтракт;;190443787; ;220125, г.Минск, ул.Городецкая, 44,неж.пом.№ 3;Публичный договор № 1 от 12.01.15
;"ООО ""Белснабконтракт""";;;;220125, г.Минск, ул.Городецкая, 44,неж.пом.№ 3;"р/с № 3012022343001        в ЗАО ""БелСвиссБанк"", г.г.Минск"
000000222;Белтелекабель;;400424686; ;220075, г.Минск, ул.Селицкого, 21, кор.5;Публичный договор № 1 от 01.07.13г.
;"СЗАО ""Белтелекабель""";;;;220075, г.Минск, ул.Селицкого, 21, кор.5;"р/с № 3012005286016        в ""Приорбанк"" Открытое акционерное общество, г.г.Минск"
000000120;Белтелеком;;102302797; ; ;Основной договор
;"Филиал ""Минская городская телефонная сеть"" РУП ""Белтелеком""";;;; ;"р/с № 3012365320123        в Филиал N 529 ""Белсвязь"" ОАО ""АСБ Беларусбанк"" в г.Минске, г.г.Минск"
000000271;БЕЛТЕПЛОМАШСТРОЙ;;190526229; ;220018, г.Минск, ул.Шаранговича, 19-227;Публичный договор № 1 от 12.01.15
;"ЗАО ""БЕЛТЕПЛОМАШСТРОЙ""";;;;220018, г.Минск, ул.Шаранговича, 19-227;"р/с № 3012230500027        в ОАО ""Белинвестбанк"", г.г.Минск"
000000205;БелТермотехника;;191298529; ;220025, г.Минск, ул.Скрипникова, д.21, пом.1Н;Публичный договор № 1 от 01.07.13г.
;"ООО ""БелТермотехника""";;;;220025, г.Минск, ул.Скрипникова, д.21, пом.1Н;"р/с № 3012612293014        в ""Приорбанк"" Открытое акционерное общество, г.г.Минск"
000000338;БЕЛТЕХВЕС;;101144561; ;220024, г.Минск, ул.Стебенева, д.20, к.213, 215;Публичный договор № 1 от 12.01.2015г.
;"НПООО ""БЕЛТЕХВЕС""";;;;220024, г.Минск, ул.Стебенева, д.20, к.213, 215;"р/с № 3012000001847        в Филиал N 1 ОАО ""Белгазпромбанк"", г.г.Минск"
000000054;Белтехком;;200061970; ;225001, Брестская обл., Брестский р-н, Чернинский с/совет, 2 км на запад от дер.Черни;Публичный договор № 2 от 12.01.2015
;"ООО ""Белтехком""";;;;225001, Брестская обл., Брестский р-н, Чернинский с/с;"р/с № 3012790151308        в Филиал N 100 - Брестское областное управление ОАО ""АСБ Беларусбанк"", г.г.Брест"
000000018;Белтранстон;;101497632; ;г. Минск, пр.Независимости,63. ком6;Основной договор
;"ООО ""Белтранстон""";;;;г. Минск,пр.Независимости,63 ком.6;"р/с № 3012000256027        в ОАО ""Банк БелВЭБ"", г.г.Минск"
000000297;Белшинторгсервис;;101203471; ;220035, г.Минск, ул.Тимирязева, 46В литер А2/К, каб.5;Публичный договор № 2 от 12.01.2015г.
;"ООО ""Белшинторгсервис""";;;;220035, г.Минск, ул.Тимирязева, 46В литер А2/К, каб.5;"р/с № 3012341850015        в ОАО ""Белинвестбанк"", г.г.Минск"
000000134;Белэлектротехприбор;;101454516; ;223053, Минский р-н, пос.Боровляны, ул.40 лет Победы, 27/4-720;Публичный договор № 1 от 01.07.13г.
;"ОДО ""Белэлектротехприбор""";;;;220037, г.Минск, ул.Багратиона, 58-16а;"р/с № 3012702220017        в ОАО ""Технобанк"", г.г.Минск"
000000318;Белэнергосетьпроект;;100230521; ;220037, г.Минск, 1-ый Твердый пер., 5;Публичный договор № 1 от 12.01.15г.
;"РУП ""Белэнергосетьпроект""";;;;220037, г.Минск, 1-ый Твердый пер., 5;"р/с № 3012102672017        в ОАО ""БПС - СберБанк"", г.г.Минск"
000000156;Беттерман;;191698056; ;220125, г.Минск, ул.Гинтовта, д.1, пом.5;Публичный договор № 1 от 12.01.15г.
;"ИООО ""ОБО Беттерман""";;;;220125, г.Минск, ул.Гинтовта, д.1, пом.5;"р/с № 3012025024014        в ""Приорбанк"" Открытое акционерное общество, г.г.Минск"
000000279;Бимтэк;;191795371; ;223053, Минский р-н, д.Боровая, д.1, главный корпус, к.406;Публичный договор № 1 от 12.01.15
;"ЧТУП ""Бимтэк""";;;;223053, Минский р-н, д.Боровая, д.1, главный корпус, к.406;"р/с № 3012071283008        в ЗАО ""БелСвиссБанк"", г.г.Минск"
000000065;Биоарсенал;;690835687; ;220052, г.Минск, ул.Я.Брыля, 30, а/я19;Публичный договор № 2 от 01.07.13
;"Частное предприятие ""БИОАРСЕНАЛ""";;;;222201, Минская обл., г.Смолевичи, ул.Торговая, 10, к.14;"р/с № 3012166053005        в ОАО ""Банк БелВЭБ"", г.г.Минск"
000000213;БИТ Электро;;190606261; ;220096, г.Минск, а/я 10;Публичный договор № 1 от 12.01.2015г.
;"ООО ""БИТ Электро""";;;;220096, г.Минск, ул.Ташкентская, 6А-311;"р/с № 3012132590001        в ОАО ""Технобанк"", г.г.Минск"
000000157;БМЕ-Дизель;;808000755; ;220021, г.Минск, ул.Центральная, 3а;Публичный договор № 1 от 01.07.13
;"ООО ""БМЕ-Дизель""";;;;220021, г.Минск, ул.Центральная, 3а;"р/с № 3012011225016        в ""Приорбанк"" Открытое акционерное общество, г.г.Минск"
000000247;Бомен;;100206644; ;220034, г.Минск, ул.Берестянская, 12А, ком.4;Публичный договор № 1 от 01.07.13
;"ООО ""Бомен""";;;;220034, г.Минск, ул.Берестянская, 12А, ком.4;"р/с № 3012000004225        в Филиал N 510 ОАО ""АСБ Беларусбанк"" в г.Минске, г.г.Минск"
000000185;Бонком;;100045404; ;220075, г.Минск, ул.Инженерная, 27а;Публичный договор № 1 от 12.01.15г.
;"ООО ""Бонком""";;;;220073, г.Минск, ул.Харьковская, д.58, пом.4;"р/с № 3012201680016        в Филиал ОАО ""Белагропромбанк"" - Минская городская дирекция, г.г.Минск"
000000248;БПЛэлектро;;590984939; ;231286, Гродненская обл., г.Лида, ул.Качана, 1, офис 4;Публичный договор № 1 от 01.07.13
;"ООО ""БПЛэлектро""";;;;231286, Гродненская обл., г.Лида, ул.Качана, 1, офис 4;"р/с № 3012143218007        в ОАО ""Банк БелВЭБ"", г.г.Минск"
000000288;БПЦ Инжиниринг Бел;;192285168; ;220030, г.Минск, пр.Независимости, 11, корп.2, ком.429;Публичный договор № 1 от 12.01.15г.
;"Сервисное унитарное предприятие ""БПЦ Инжиниринг Бел""";;;;220030, г.Минск, пр.Независимости, 11, корп.2, ком.429;"р/с № 3012026543810        в ОАО ""Белинвестбанк"", г.г.Минск"
000000152;Бренди;;191331983; ; ;Договор
;"ООО ""Бренди""";;;; ;"р/с № 3012056800002        в ЗАО ""БелСвиссБанк"", г.г.Минск"
000000105;Брокер биржевой логистики;;191692137; ;220099, г.Минск, ул.Казинца, д.2, ком.406;Публичный договор № 2 от 01.07.2013г.
;"ООО ""Брокер биржевой логистики""";;;;220099, г.Минск, ул.Казинца, д.2, ком.406;"р/с № 3012024299013        в ""Приорбанк"" Открытое акционерное общество, г.г.Минск"
000000023;Бумпромпак;;812000354; ; ;Договор  №270212 от 27.02.2012г.   дата возникновения обязательства :  27.02.12
;"ООО ""Бумпромпак""";;;; ;"р/с № 3012301457015        в ""Приорбанк"" Открытое акционерное общество, г.г.Минск"
000000290;БЭС-Электро;;191873924; ;220073, г.Минск, ул.Гусовского, 2а, 2 этаж, пом.11;Публичный договор № 1 от 12.01.15г.
;"Частное предприятие ""БЭС-Электро""";;;;220073, г.Минск, ул.Гусовского, 2а, 2 этаж, пом.11;"р/с № 3012059020014        в ОАО ""Банк Москва-Минск"", г.г.Минск"
000000316;ВАН-97;;101233410; ;220113, г.Минск, ул.Мележа, д1, пом.1016;Публичный договор № 2 от 12.01.15г.
;"ОДО ""ВАН-97""";;;;220113, г.Минск, ул.Мележа, д1, пом.1016;"р/с № 3012013140011        в ЗАО ""Минский транзитный банк"", г.г.Минск"
000000016;Васин Андрей Вячеславович;; ; ; ;Основной договор
; ;;;; ; 
000000155;Вебком Медиа;; ; ; ;Договор
;"Частное предприятие ""Вебком Медиа""";;;; ;"р/с № 3012041450012        в ОАО ""Банк Москва-Минск"", г.г.Минск"
000000190;Вектор Технологий;;191250454; ;220125, г.Минск, ул.Шафарнянская, 18, 3 этаж;Публичный договор № 1 от 01.07.13
;"Частное предприятие ""Вектор Технологий""";;;;220092, г.Минск, ул.Б.Берута, 16-3/72;"р/с № 3012000056033        в ОАО ""Белгазпромбанк"", г.г.Минск"
000000072;Велком;;101528843; ; ;Основной договор
;"ИП ""Велком""";;;; ;"р/с № 3012202410089        в ""Приорбанк"" Открытое акционерное общество, г.г.Минск"
000000350;Вертру-С;;690814077; ;222161, Минская обл., г.Жодино, ул.Сухогрядская, 3, корп.2, к.203;Публичный договор № 1 от 12.01.2015г.
;"Частное предприятие ""Вертру-С""";;;;222161, Минская обл., г.Жодино, ул.Сухогрядская, 3, корп.2, к.203;"р/с № 3012158251017        в ОАО ""БПС - СберБанк"", г.г.Минск"
000000265;Вече-светотехника;;500164180; ;230027, г.Гродно, ул.Сов.Пограничников, 114;Публичный договор № 1 от 01.07.13
;"ТП ООО ""ВЕЧЕ-СВЕТОТЕХНИКА""";;;;230027, г.Гродно, ул.Сов.Пограничников, 114;"р/с № 3012140382008        в ОАО ""Банк БелВЭБ"", г.г.Минск"
000000226;Вико-Техно;;191559167; ; ;Договор
;"Частное торговое унитарное предприятие ""Вико-Техно""";;;; ;"р/с № 3012000571778        в ОАО ""Белгазпромбанк"", г.г.Минск"
000000241;ВИЛО БЕЛ;;190523403; ;220035, г.Минск, ул.Тимирязева, д.67, пом.175, оф.1101;Публичный договор № 1 от 12.01.15
;"ИООО ""ВИЛО БЕЛ""";;;;220035, г.Минск, ул.Тимирязева, д.67, пом.175, оф.1101;"р/с № 3012004889010        в ""Приорбанк"" Открытое акционерное общество, г.г.Минск"
000000148;Витмедиасервис;;391300652; ; ;Договор
;"Частное предприятие ""Витмедиасервис""";;;; ;"р/с № 3012074730011        в ЗАО ""Минский транзитный банк"", г.г.Минск"
000000061;Вода Славная;;691163303; ; ;Договор о поставке от 05.09.13
;"ООО ""Вода Славная""";;;; ;"р/с № 3012026331012        в ""Приорбанк"" Открытое акционерное общество, г.г.Минск"
000000032;Вхипстудио;;191688598; ; ;Договор №02/12-19 от 12.06.2012г.
;"ООО ""Вхипстудио""";;;; ;"р/с № 3012052083009        в ЗАО ""БелСвиссБанк"", г.г.Минск"
000000296;ГАЗПРОМ ТРАНСГАЗ БЕЛАРУСЬ;;100219778; ;220040, г.Минск, ул.Некрасова, д.9;Публичный договор № 1 от 12.01.2015г.
;"ОАО ""ГАЗПРОМ ТРАНСГАЗ БЕЛАРУСЬ""";;;;220040, г.Минск, ул.Некрасова, д.9;"р/с № 3012000564671        в ОАО ""Белгазпромбанк"", г.г.Минск"
000000081;Гидробурсервис;;690702488; ;220118, г.Минск, ул.Крупской, 19/2Н, оф.1;Публичный договор № 1 от 01.07.13
;"ООО ""ГИДРОБУРСЕРВИС""";;;;223021, Минский р-н, 500 м восточнее д.Богатырево, 0 (г/3кп), ком.229;"р/с № 3012008693717        в ОАО ""Белинвестбанк"", г.г.Минск"
000000103;Гирсам-Систем;;192006248; ;220114, г.Минск, ул.Кедышко, 26б, оф.103;Публичный договор № 1 от 01.07.13
;"ООО ""Гирсам-Систем""";;;;220114, г.Минск, ул.Кедышко, 26б, оф.103;"р/с № 3012120140005        в ЗАО ""БелСвиссБанк"", г.г.Минск"
000000339;ГПЗ Белтрейдинг;;192315819; ;220037, г.Минск, пер.Козлова, д.7г, оф.618;Публичный договор № 2 от 12.01.2015г.
;"ТУП ""ГПЗ Белтрейдинг""";;;;220037, г.Минск, пер.Козлова, д.7г, оф.618;"р/с № 3012767010009        в ОАО ""Белорусский народный банк"", г.г.Минск"
000000154;Грайз;;100834241; ;220028, г.Минск, ул.Маяковского, д.127/1-38;Публичный договор № 1 от 12.01.15г.
;"ОДО ""Грайз""";;;;220028, г.Минск, ул.Маяковского, д.127/1-38;"р/с № 3012005546017        в ""Приорбанк"" Открытое акционерное общество, г.г.Минск"
000000362;Гродно Азот;;500036524; ;230013, г.Гродно, пр.Космонавтов, 100;Договор № 01072015-А07 от 01.07.2015г.
;"ОАО ""Гродно Азот""";;;;230013, г.Гродно, пр.Космонавтов, 100;"р/с № 3012126728019        в ОАО ""БПС - СберБанк"", г.г.Минск"
000000010;ГУ МФ по г. Минску;;101530339; ; ;Основной договор
;ГУ МФ по г. Минску;;;; ;"р/с № 3602101000527        в Филиал N 514 ОАО ""АСБ Беларусбанк"" в г.Минске, г.г.Минск"
000000146;Дарвейт;;191180878; ;	223053, Минский р-н, д. Боровляны, ул.40 лет Победы 17-31;Публичный договор № 1 от 01.07.13
;"ООО ""ДАРВЕЙТ""";;;;220036, г.Минск, ул.Западная, д.13, каб.460;"р/с № 3012906820015        в ОАО ""Белинвестбанк"", г.г.Минск"
000000073;Деловая сеть;;101541870; ; ;Основной договор
;"СП ООО ""Деловая сеть""";;;; ;"р/с № 3012006190013        в ""Приорбанк"" Открытое акционерное общество, г.г.Минск"
000000038;Деловые системы связи;;191611654; ; ;Основной договор
;"ООО ""Деловые системы связи""";;;;г.Минск, ул.П.Бровки, 8а;"р/с № 3012100020184        в ЗАО ""РРБ-Банк"", г.г.Минск"
000000263;Деметрикс-М;;191763983; ;220121, г.Минск, ул.Матусевича, 33, здание ВОС, комн.9;Публичный договор № 1 от 01.07.13г.
;"ООО ""Деметрикс-М""";;;;220121, г.Минск, ул.Матусевича, 33, здание ВОС, комн.9;"р/с № 3012067713003        в ЗАО ""БелСвиссБанк"", г.г.Минск"
000000306;ДеНаКом;;691776029; ;223053, Минский р-н, д.Боровляны, ул.40 лет Победы, 23/А-80;Публичный договор № 1 от 12.01.15
;"ООО ""ДеНаКом""";;;;223053, Минский р-н, д.Боровляны, ул.40 лет Победы, 23/А-80;"р/с № 3012000583883        в ОАО ""Белгазпромбанк"", г.г.Минск"
000000169;ДУНКАН-СЕРВИС ЗАПАД;;190501037; ;220070, г.Минск, ул.Щербакова, 6-12;Публичный договор № 1 от 01.07.13
;"ООО ""ДУНКАН-СЕРВИС ЗАПАД""";;;;223062, Минская обл., Минский р-н, пос.Обчак, АПК к.6;"р/с № 3012204455003        в ЗАО ""Альфа-Банк"", г.г.Минск"
000000277;ДюанГрупп;;191843321; ;220024, г.Минск, ул.Асаналиева, д.27, 3 этаж, ком.5;Публичный договор № 1 от 12.01.2015г.
;"Частное торговое унитарное предприятие ""ДюанГрупп""";;;;220024, г.Минск, ул.Асаналиева, д.27, 3 этаж, ком.5;"р/с № 3012018430010        в ОАО ""Банк Москва-Минск"", г.г.Минск"
000000075;Евроавтоматика ФиФ;;509618749; ;231300, г.Лида, ул.Минская, 18а;Публичный договор № 1 от 12.01.2015г.
;"СООО ""Евроавтоматика ФиФ""";;;;231300, г.Лида, ул.Минская, 18а;"р/с № 3012610908011        в ""Приорбанк"" Открытое акционерное общество, г.г.Минск"
000000341;Евролайт;;190454425; ;220024, г.Минск, ул.Кижеватого, 86А;Публичный договор № 1 от 12.01.2015г.
;"ООО ""Евролайт""";;;;220024, г.Минск, ул.Кижеватого, 86А;"р/с № 3012000061204        в ОАО ""Белгазпромбанк"", г.г.Минск"
000000132;Европровод;;191382353; ;220136, г.Минск, ул.Притыцкого, д.105, пом.370;Публичный договор № 1 от 01.07.13г.
;"ООО ""Европровод""";;;;220136, г.Минск, ул.Притыцкого, д.105, пом.370;"р/с № 3012018903817        в ОАО ""Белинвестбанк"", г.г.Минск"
000000346;Евроталер;;190997431; ;223049, Минская обл., Минский р-н, а/г Щомыслица, ул.Кирюникова, 6-20;Публичный договор № 1 от 12.01.2015г.
;"ЗАО ""Евроталер""";;;;223049, Минская обл., Минский р-н, а/г Щомыслица, ул.Кирюникова, 6-20;"р/с № 3012000072961        в ОАО ""Белгазпромбанк"", г.г.Минск"
000000356;Еврофлагбай;;192491826; ; ;Договор
;"ООО ""Еврофлагбай""";;;; ;"р/с № 3012038055012        в ""Приорбанк"" Открытое акционерное общество, г.г.Минск"
000000176;ЕвроЭнергоСервис;;191000799; ;220035, г.Минск, ул.Тимирязева, 65-222Б;Публичный договор № 1 от 01.07.13
;"СООО ""ЕвроЭнергоСервис""";;;;220035, г.Минск, ул.Тимирязева, 65-222Б;"р/с № 3012012265017        в ""Приорбанк"" Открытое акционерное общество, г.г.Минск"
000000310;Завод ЭТОН;;300008266; ;211162, г.Новолукомль, Витебская обл., ул.Панчука, д.7;Договор № 14042015 от 14.04.2015г.
;"ООО ""Завод ЭТОН""";;;;211162, г.Новолукомль, Витебская обл., ул.Панчука, д.7;"р/с № 3012118790013        в Отделение ОАО ""БПС - Банк"" в г.Новолукомле, г.г.Новолукомль"
000000017;"ЗАО ""1000 мелочей";;100029184; ;220012,г. Минск,пл.Калинина,1;Основной договор
;"ЗАО ""1000 мелочей""";;;;220012,г. Минск,пл. Калинина,1;"р/с № 3012563430024        в ОАО ""Белинвестбанк"", г.г.Минск"
000000019;"ЗАО ""Логойский тракт""";;100220042; ; ;Основной договор
;"ЗАО ""Логойский тракт""";;;; ; 
000000006;"ЗАО ""Триоль""";;100850742;290-42-19;220088,г. Минск,ул.Азгура,1;Договор займа от 13.07.2011г.   дата возникновения обязательства :  13.07.11
;"Закрытое акционерное общество ""Триоль""";;;;220088 г. Минск,ул.Азгура,1;"р/с № 3012167118004        в ОАО ""Белвнешэкономбанк"". Минское отделение 4, г.г.Минск"
000000312;ИГУР;;200001265; ;224016, г.Брест, ул.Оржоникидзе, 39;Публичный договор № 1 от 12.01.2015г.
;"Торгово-производственное унитарное частное предприятие ""ИГУР""";;;;224016, г.Брест, ул.Оржоникидзе, 39;"р/с № 3012500048010        в ""Приорбанк"" Открытое акционерное общество, г.г.Минск"
000000268;ИКСПРАЙД;;491066955; ;246050, г.Гомель, ул.Речицкая, 1А, пом.314;Публичный договор № 2 от 01.07.13
;"ЧУП по оказанию услуг ""ИКСПРАЙД""";;;;246050, г.Гомель, ул.Речицкая, 1А, пом.314;"р/с № 3012800023266        в ОАО ""Белгазпромбанк"", г.г.Минск"
000000219;Инвет;;300062307; ;211640, Витебская обл., Верхнедвинский р-н, а/г. Бигосово, ул.Заводская, 1;Публичный договор № 2 от 12.01.15г.
;"ОАО ""Инвет""";;;;211640, Витебская обл., Верхнедвинский р-н, а/г. Бигосово, ул.Заводская, 1;"р/с № 3012043640618        в Филиал N 214 ОАО ""АСБ Беларусбанк"" в г.Новополоцке, г.г.Новополоцк"
000000046;Инновац.энергетические техноло;;191868661; ;220033, г.Минск, пер.4-ый Радиаторный, д.8, ком.204;Публичный договор № 1 от 12.01.2015
;"ООО ""Инновационные энергетические технологии""";;;;220033, г.Минск, пер.4-ый Радиаторный, д.8, ком.204;"р/с № 3012071023008        в ЗАО ""БелСвиссБанк"", г.г.Минск"
000000058;Интербелтрейд;;101333870; ;220124, г.Минск, а/я 99;Публичный договор №1 от 12.01.2015
;"ООО ""ИНТЕРБЕЛТРЕЙД""";;;;220093, г.Минск, 3-ий Путепроводный пер., д.19, к.1;"р/с № 3012721890011        в ОАО ""Технобанк"", г.г.Минск"
000000173;ИНТЕРКОМ;;500526374; ;231721, Гродненская обл., Гродненский р-н, д.Чеховщина;Публичный договор № 2 от 12.01.15
;"ПООО ""ИНТЕРКОМ""";;;;231721, Гродненская обл., Гродненский р-н, д.Чеховщина;"р/с № 3012401870029        в ОАО ""Технобанк"" Региональное управление № 4, г.г.Гродно"
000000034;Информ.издат.центр по нал;;190819036;269-19-19, факт269-19-43;220005, г.Минск,пр.Машерова,7-123;Основной договор
;"РУП ""Информационно-издательский цент по налогам и сборам""";;;;220005 г. Минск, пр. Машерова,7-123;"р/с № 3012104977013        в ОАО ""БПС - СберБанк"", г.г.Минск"
000000024;"ИП ""Шоркин А.П.";;190521837; ; ;Счет 1201-6С01 от 01.03.2012г.
;ИП Шоркин А.П.;;;; ;"р/с № 3013064060019        в ЗАО ""Минский транзитный банк"", г.г.Минск"
000000326;ИП Балыкина Людмила Вячеславовна;;790695323; ;213826, Могилевская обл., г.Бобруйск, ул.Гоголя, д.166, каб.216;Публичный договор № 2 от 07.07.15г.
;ИП Балыкина Людмила Вячеславовна;;;;213826, Могилевская обл., г.Бобруйск, ул.Гоголя, д.166, каб.216;"р/с № 3013113359009        в ОАО ""Банк БелВЭБ"", г.г.Минск"
000000037;ИП Бахматова Е.В.;; ; ; ;Основной договор
;ИП Бахматова Е.В.;;;; ; 
000000208;ИП Бондаренко А.Л.;;690808560; ;222161, г.Жодино, пр.Мира, 3-29;Договор купли-продажи № 1 от 02.03.15г.
;ИП Бондаренко Александр Леонтьевич;;;;222161, г.Жодино, пр.Мира, 3-29;"р/с № 3013008131977        в Филиал N 616 ОАО ""АСБ Беларусбанк"" в г.Жодино, г.г.Жодино"
000000022;ИП Васин Андрей Владиславович;;190956665; ;220010 г.Минск, ул. Сторожевская,д.8, кв.478;Договор займа №28-02-12   дата возникновения обязательства :  28.02.12
;ИП Васин Андрей Владиславович;;;;220010 г. Минск,ул. Сторожевская, д.8,кв.478;"р/с № 3013604940017        в Филиал ОАО ""Белагропромбанк"" - Минская городская дирекция, г.г.Минск"
000000059;ИП Дейнека Вадим Анатольевич;;191273549;+375299206519, +375256838633;220090, г.Минск, ул.Восточная, 168, к.34;Основной договор
;ИП Дейнека Вадим Анатольевич;;;;220090, г.Минск, ул.Восточная, 168, к.34;"р/с № 3013045550018        в ОАО ""Банк Москва-Минск"", г.г.Минск"
000000287;ИП Диесперов Александр Юрьевич;;192373993; ; ;Договор № 1 от 19.01.15г.
;ИП Диесперов Александр Юрьевич;;;; ;"р/с № 3013036043012        в ""Приорбанк"" Открытое акционерное общество, г.г.Минск"
000000276;ИП Дубровская Елена Валентиновна;;191168211; ; ;Основной договор
;ИП Дубровская Елена Валентиновна;;;; ;"р/с № 3013002758006        в ЗАО ""БелСвиссБанк"", г.г.Минск"
000000329;ИП Ивановский Алексей Александрович;;101464717; ; ;Договор
;ИП Ивановский Алексей Александрович;;;; ;"р/с № 3013098020009        в ЗАО ""БелСвиссБанк"", г.г.Минск"
000000007;ИП Козека М.В.;;190793739;267--50-37;220086,г. Минск,ул.Калиновского,д.54,к.3,кв51;Договор №12/04 от 12.04.2011г.   дата возникновения обязательства :  19.04.11
;Индивидуальный предприниматель Козека М.В.;;;;220086,г. Минск,ул.Калиновского,д.54,к3,кв.51;"р/с № 3013025104018        в ""Приорбанк"" Открытое акционерное общество, г.г.Минск"
000000115;ИП Костюк Евгений Владимирович;;191316994; ; ;Основной договор
;ИП Костюк Евгений Владимирович;;;; ;"р/с № 3013054720008        в ЗАО ""БелСвиссБанк"", г.г.Минск"
000000015;ИП Оцебрик Игорь Акимович;;191612293; ; ;Договор №19 от 12.11.2011г.   дата возникновения обязательства :  04.01.12
;ИП Оцебрик Игорь Акимович;;;; ;"р/с № 3013072890008        в ЗАО ""БелСвиссБанк"", г.г.Минск"
000000044;ИП Поклад Валерий Олегович;; ; ; ;Основной договор
;ИП Поклад Валерий Олегович;;;; ; 
000000255;ИП Попкович К.А.;;192244853; ; ;Договор №15.09.2014-1
;ИП Попкович К.А.;;;; ;"р/с № 3013095633008        в ЗАО ""БелСвиссБанк"", г.г.Минск"
000000301;ИП Разахацкий Дмитрий Сергеевич;;191628913; ; ;Договор б/н от 09.02.15
;ИП Разахацкий Дмитрий Сергеевич;;;; ;"р/с № 3013913940013        в ОАО ""Технобанк"", г.г.Минск"
000000159;ИП Рачицкий А.С.;;691575537; ;220123, г. Минск, ул. Старовиленская, д.97, кв.199;Публичный договор № 2 от 01.07.13
;ИП Рачицкий А.С.;;;;223013, Минский р-н, д.Русиновичи, д.50б;"р/с № 3013012497410        в ОАО ""Евроторгинвестбанк"", г.г.Минск"
000000031;ИП Хрол Е.В.;;190701331; ; ;Сч.ф.№1-05/06 от 05.06.2012г.
;ИП Хрол Елена Владимировна;;;; ;"р/с № 3013008851014        в ""Приорбанк"" Открытое акционерное общество, г.г.Минск"
000000147;ИП Шабуня Владимир Альбинович;;100753761; ;220047, г.Минск, ул.Герасименко, 3-11;Основной договор
;ИП Шабуня Владимир Альбинович;;;;220047, г.Минск, ул.Герасименко, 3-11;"р/с № 3013013400010        в Филиал N 511 ОАО ""АСБ Беларусбанк"" в г.Минске, г.г.Минск"
000000111;ИП Шалашова Виктория Альбертов;;191405090; ; ;Основной договор
;ИП Шалашова Виктория Альбертовна;;;; ;"р/с № 3013744230013        в ОАО ""Белинвестбанк"", г.г.Минск"
000000215;Иста Митерингсервис;;100338436; ;220034, г.Минск, ул.З.Бядули, 12;Публичный договор № 1 от 12.01.2015г.
;"Иностранное унитарное предприятие ""ИСТА МИТЕРИНГСЕРВИС""";;;;220034, г.Минск, ул.З.Бядули, 12;"р/с № 3012704010010        в ОАО ""Технобанк"", г.г.Минск"
000000243;ИСЭЛ;;100758669; ;220116, г.Минск, пр.Дзержинского, 69, к.2, пом.59, каб.1;Публичный договор № 1 от 01.07.13
;"ЗАО ""ИСЭЛ""";;;;220116, г.Минск, пр.Дзержинского, 69, к.2, пом.59, каб.1;"р/с № 3012201261001        в ЗАО ""Альфа-Банк"", г.г.Минск"
000000057;Кантавир;;691456192; ;220037, г.Минск, ул.Передовая, 15, оф.326;Публичный договор № 2 от 01.07.2013
;"ООО ""Кантавир""";;;;220037, г.Минск, ул.Передовая, 15, оф.326;"р/с № 3012153325010        в ОАО ""БПС - СберБанк"", г.г.Минск"
000000186;Катрабел;;800010003; ;220070, г.Минск, ул.Чеботарева, 14;Публичный договор № 1 от 01.07.13г.
;"ООО ""Катрабел""";;;;220070, г.Минск, ул.Чеботарева, 14;"р/с № 3012104964013        в ОАО ""БПС - СберБанк"", г.г.Минск"
000000160;Квадротерм;;290488157; ;224024, г.Брест, ул.Инженерная, д.19, кв.146;Публичный договор № 1 от 01.07.13
;"ООО ""Квадротерм""";;;;224024, г.Брест, ул.Инженерная, д.19, кв.146;"р/с № 3012501720018        в ""Приорбанк"" Открытое акционерное общество, г.г.Минск"
000000246;Квитки бел;;191295928; ; ;Договор
;"ИООО ""Квитки бел""";;;; ;"р/с № 3012046640009        в ЗАО ""БелСвиссБанк"", г.г.Минск"
000000286;Кизельманн Бел;;192309243; ;220118, г.Минск, ул.Машиностроителей, д.29, оф.313;Публичный договор № 2 от 12.01.15г.
;"ООО ""Кизельманн Бел""";;;;220118, г.Минск, ул.Машиностроителей, д.29, оф.313;"р/с № 3012035057013        в ""Приорбанк"" Открытое акционерное общество, г.г.Минск"
000000125;Кипер Трэйд;;191271638; ;220036, г.Минск, ул.Западная, 7а, корп.3, офис 1;Публичный договор № 1 от 01.07.13
;"ООО ""Кипер Трэйд""";;;;220036, г.Минск, ул.Западная, 7а, корп.3, офис 1;"р/с № 3012063190015        в ОАО ""Банк Москва-Минск"", г.г.Минск"
000000236;КМК Гранд Плюс;;191108805; ;220125, г.Минск, ул.Городецкая, 40, оф.4;Публичный договор № 2 от 01.07.2013г.
;"ООО ""КМК Гранд Плюс""";;;;220125, г.Минск, ул.Городецкая, 40, оф.4;"р/с № 3012028795018        в ""Приорбанк"" Открытое акционерное общество, г.г.Минск"
000000095;"Компания ""МегаТехИндустрия""";;191766584; ;220024, г.Минск, ул.Кижеватого, 86, к.211 АЛК;Публичный договор № 1 от 12.01.15г.
;"ООО ""Компания ""МегаТехИндустрия""""";;;;220075, г.Минск, ул.Промышленная, 1, пом.1, каб.14/Т;"р/с № 3012022519008        в ЗАО ""БелСвиссБанк"", г.г.Минск"
000000188;Компания ТЭКНА;;191697141; ;220015, г.Минск, а/я 101;Публичный договор № 1 от 12.01.2015г.
;"ООО ""Компания ТЭКНА""";;;;220121, г.Минск, ул.Матусевича, 33, каб.406/2;"р/с № 3012133540012        в ЗАО ""Минский транзитный банк"", г.г.Минск"
000000077;Компания Ультра;;191416775; ;220056, г.Минск, ул.Стариновская, д.23, пом.1;Публичный договор № 1 от 01.07.2013г.
;"ООО ""Компания Ультра""";;;;220056, г.Минск, ул.Стариновская, д.37, пом.5Н;"р/с № 3012038820019        в ЗАО ""БТА банк"", г.г.Минск"
000000332;Конвент;;300543307; ;211440, г.Новополоцк, ул.Парковая, 5-1;Публичный договор № 1 от 12.01.2015г.
;"ООО ""Конвент""";;;;211440, г.Новополоцк, ул.Парковая, 5-1;"р/с № 3012007380015        в Филиал N 214 ОАО ""АСБ Беларусбанк"" в г.Новополоцке, г.г.Новополоцк"
000000194;Консул;;200534611; ;224020, г.Брест, ул.Высокая, 18/1;Публичный договор № 2 от 12.01.15
;"ЗАО ""Консул""";;;;224020, г.Брест, ул.Высокая, 18/1;"р/с № 3012205160010        в Филиал ОАО ОАО ""Белагропромбанк"" - Брестское областное управление, г.г.Брест"
000000223;Контакт-электро;;500030832; ;230029, г.Гродно, ул.Горького, 72-418;Публичный договор № 1 от 01.07.13г.
;"Общество с ограниченной ответственностью ""Контакт-электро""";;;;231716, Гродненская обл., Гродненский р-н, д.Луцковляны, ул.Юбилейная, 6;"р/с № 3012000007551        в Филиал N 400 - Гродненское областное управление ОАО ""АСБ Беларусбанк"", г.г.Гродно"
000000281;КопиксПринт;;691461733; ;220040, г.Минск, ул.М.Богдановича, д.155;Договор оказания услуг № 109-4 от 28.01.2015г.
;"ООО ""КопиксПринт""";;;;220060, Минский р-н, Новодворский с/с, 10-й км Могилевского шоссе-2;"р/с № 3012026392019        в ""Приорбанк"" Открытое акционерное общество, г.г.Минск"
000000177;Копосэлектро;;101502800; ;220002, г.Минск, ул.Кропоткина, д.91, оф.1;Публичный договор № 1 от 01.07.13
;"Иностранное унитарное предприятие ""Копосэлектро""";;;;220002, г.Минск, ул.Кропоткина, д.91, оф.1;"р/с № 3012225800019        в ОАО ""Белинвестбанк"", г.г.Минск"
000000168;КПД-сервис;;191378625; ;220068, г.Минск, а/я 73;Публичный договор № 1 от 01.07.13
;"ООО ""КПД-сервис""";;;;220034, г.Минск, ул.Чапаева, 3-111;"р/с № 3012020177012        в ""Приорбанк"" Открытое акционерное общество, г.г.Минск"
000000278;КПСР Групп;;192341451; ;220073, г.Минск, ул.Бирюзова, 4, к.207;Публичный договор № 1 от 01.07.13г.
;"Частное предприятие ""КПСР Групп""";;;;220073, г.Минск, ул.Бирюзова, 4, к.207;"р/с № 3012038700013        в ОАО ""Франсабанк"", г.г.Минск"
000000036;Крэзисервис;;100788756; ;220138, г.Минск, ул.Корвата, 61;Публичный договор № 1 от 12.01.15г.
;"ООО ""Крэзисервис""";;;;220138, г.Минск, ул.Корвата, 61;"р/с № 3012201380013        в Ф-л ОАО ""Белагропромбанк""-Минская Городская Дирекция, г.г. Минск, ул. Чернышевского ,10а"
000000239;КС электро;;190412729; ;220138, г.Минск, ул.Карвата, д.61;Публичный договор № 1 от 12.01.2015г.
;"ОДО ""КС электро""";;;;220125, г.Минск, ул.Городецкая, д.3, пом.174а;"р/с № 3012015963013        в ""Приорбанк"" Открытое акционерное общество, г.г.Минск"
000000108;Ласбелснаб;;191553250; ;220074, г.Минск, а/я 142;Публичный договор № 1 от 01.07.13
;"Частное торговое унитарное предприятие ""Ласбелснаб""";;;;220036, г.Минск, Бетонный проезд, д.13, ком.8;"р/с № 3012020741015        в ""Приорбанк"" Открытое акционерное общество, г.г.Минск"
000000171;Лебак;;100519228; ;220034, г.Минск, ул.Платонова, 15-33;Публичный договор № 1 от 01.07.13
;"ООО ""Лебак""";;;;220034, г.Минск, ул.Платонова, 15-33;"р/с № 3012014743016        в ""Приорбанк"" Открытое акционерное общество, г.г.Минск"
000000317;Легир Плюс;;691131119; ;220131, г.Минск, ул.Гало, д.131;Публичный договор № 1 от 12.01.15г.
;"ООО ""Легир Плюс""";;;;223229, Минская обл., Червенский р-н, Смиловичский с/с, д.Кулики, ул.Садовая, 5а, к.1;"р/с № 3012220906002        в ЗАО ""Альфа-Банк"", г.г.Минск"
000000137;Ледбел;;691432060; ;220015, г.Минск, ул.Пономаренко, д.34, пом.5Н;Публичный договор № 1 от 12.01.15
;"Частное предприятие ""Ледбел""";;;;Минский р-н, Горанский с/с, р-н д.Новоселье, кап.строение №600\с-79978;"р/с № 3012032150018        в ОАО ""Франсабанк"", г.г.Минск"
000000142;Лекадастрой;;191766145; ;220028, г.Минск, ул.Вильямса, д.45, каб.32;Публичный договор № 1 от 01.07.13
;"ООО ""Лекадастрой""";;;;220028, г.Минск, ул.Вильямса, д.45, каб.32;"р/с № 3012286600004        в ОАО ""Белорусский народный банк"", г.г.Минск"
000000135;Летра;;191300422; ;220057, г.Минск, ул.Фогеля, д.7, к.159а;Публичный договор № 1 от 12.01.15
;"ООО ""Летра""";;;;220057, г.Минск, ул.Фогеля, д.7, к.159а;"р/с № 3012104450019        в ОАО ""БПС - СберБанк"", г.г.Минск"
000000358;Логистикойл;;191512152; ;220007, г.Минск, ул.Володько, д.18, к.206-г;Публичный договор № 1 от 12.01.2015г.
;"Унитарное предприятие ""Логистикойл""";;;;220007, г.Минск, ул.Володько, д.18, к.206-г;"р/с № 3012024917002        в ЗАО ""БелСвиссБанк"", г.г.Минск"
000000039;Лукойл;; ; ; ;Основной договор
;"ИООО ""Лукойл Белоруссия""";;;; ; 
000000163;Мадиол;;690712293; ;220116, г.Минск, пр.Дзержинского, 131, пом.648;Публичный договор № 1 от 12.01.2015г.
;"Частное предприятие ""Мадиол""";;;;220116, г.Минск, пр.Дзержинского, 131, пом.648;"р/с № 3012016259016        в ""Приорбанк"" Открытое акционерное общество, г.г.Минск"
000000308;Макском-МН;;190224975; ;220024, г.Минск, ул.Асаналиева, д.27, ком.1;Публичный договор № 1 от 12.01.15г.
;"ООО ""Макском-МН""";;;;220024, г.Минск, ул.Асаналиева, д.27, ком.1;"р/с № 3012007341002        в ЗАО ""Идея Банк"", г.г.Минск"
000000187;МАСТЕР-ПЛЮС;;600248010; ;222310, г.Молодечно, ул.Виленская, 36;Публичный договор № 1 от 12.01.15г.
;"ОДО ""МАСТЕР-ПЛЮС""";;;;222310, г.Молодечно, ул.Виленская, 36;"р/с № 3012202190015        в Филиал N 601 ОАО ""АСБ Беларусбанк"" в г.Молодечно, г.г.Молодечно"
000000345;Мегаснаб;;190949570; ;220015, г.Минск, ул.Пономаренко, 43а, каб.326;Публичный договор № 1 от 12.01.15
;"ООО ""Мегаснаб""";;;;220015, г.Минск, ул.Пономаренко, 43а, каб.326;"р/с № 3012029750011        в ОАО ""Банк Москва-Минск"", г.г.Минск"
000000063;Мегатрон М;;190454106; ;220017, г.Минск, ул.Матусевича, 69, пом.2Н;Публичный договор № 1 от 01.07.13
;"ООО ""Мегатрон М""";;;;220108, г.Минск, ул.Казинца, 83, к.1;"р/с № 3012026930013        в ОАО ""Франсабанк"", г.г.Минск"
000000066;Механический завод;;600542830; ;222310, г.Молодечно, ул.Великий Гостинец, 67, к.6;Публичный договор № 1 от 12.01.15
;"ООО ""Механический завод""";;;;222310, г.Молодечно, ул.Великий Гостинец, 67, к.6;"р/с № 3012125554011        в ОАО ""БПС - СберБанк"", г.г.Минск"
000000051;МИГ;;100013207; ;220007, Минск, ул.Левкова, 20;Публичный договор № 1 от 01.07.2013
;"ОДО ""МИГ""";;;;220002, Минск, а/я 96, пр.Машерова, 25;"р/с № 3012200600016        в ОАО ""Белинвестбанк"", г.г.Минск"
000000170;Минсккоммунтеплосеть;;100185328; ;220049, г.Минск, ул.Волгоградская, д.12;Публичный договор № 1 от 12.01.2015г.
;"УП ""Минсккоммунтеплосеть""";;;;220049, г.Минск, ул.Волгоградская, д.12;"р/с № 3012014391362        в Филиал N 514 ОАО ""АСБ Беларусбанк"" в г.Минске, г.г.Минск"
000000028;Минскэкспо;;100094846; ;220035, г.Минск, ул.Тимирязева, 65, оф.703;Публичный договор № 1 от 01.07.13
;"ЗАО ""Минскэкспо""";;;;220035, г.Минск, ул.Тимирязева, 65, оф.703;"р/с № 3012001530016        в ОАО ""Банк БелВЭБ"", г.г.Минск"
000000253;Мион-сервис;;192181167; ;220024, г.Минск, ул.Стебенева, 12, ком.502;Публичный договор № 1 от 01.07.13
;"ООО ""Мион-сервис""";;;;220024, г.Минск, ул.Стебенева, 12, ком.502;"р/с № 3012013603718        в ОАО ""Белинвестбанк"", г.г.Минск"
000000309;Могилевхимволокно;;700117487; ;212035, г.Могилев-35;Публичный договор № 2 от 12.01.15г.
;"ОАО ""Могилевхимволокно""";;;;212035, г.Могилев-35;"р/с № 3012023757916        в Филиал N 700 - Могилевское областное управление ОАО ""АСБ Беларусбанк"", г.г.Могилев"
000000337;Могилевэнерго ф-л Энергоремонт;;700007066; ;212008, г.Могилев, ул.Кулибина, 9;Публичный договор № 1 от 12.01.2015г.
;"Филиал РУП ""Могилевэнерго"" Энергоремонт";;;;212008, г.Могилев, ул.Кулибина, 9;"р/с № 3012119335190        в ОАО ""БПС - СберБанк"", г.г.Минск"
000000351;Модультек;;490419181; ;246042, г.Гомель, ул.Достоевского, 1Ф;Публичный договор № 2 от 12.01.2015г.
;"ООО ""Модультек""";;;;246042, г.Гомель, ул.Достоевского, 1Ф;"р/с № 3012160230013        в ОАО ""БПС - СберБанк"", г.г.Минск"
000000128;МТ Технологии;;190959013; ;220040, г.Минск, ул.Некрасова, д.5, офис 906;Публичный договор № 1 от 01.07.13
;"ОДО ""МТ Технологии""";;;;220040, г.Минск, ул.Некрасова, д.5, офис 906;"р/с № 3012207730019        в ЗАО ""Абсолютбанк"", г.г.Минск"
000000198;МЭЗ им.В.И. Козлова;;100211261; ;220037, г.Минск, ул.Уральская, 4;Договор 13042015 от 15.04.15
;"ОАО ""Минский электротехнический завод им. В.И. Козлова""";;;;220037, г.Минск, ул.Уральская, 4;"р/с № 3012100828010        в ОАО ""БПС - СберБанк"", г.г.Минск"
000000112;МЭР;;190095029; ;223058, Минский р-н, д.Лесковка, ул.Лесная 2А;Публичный договор № 1 от 01.07.13
;"ООО ""МЭР""";;;;220040, г.Минск, ул.Некрасова, д.28, офис 13Н;"р/с № 3012009623513        в Отделение  № 535 ОАО ""Белинвестбанк"", г.г.Минск"
000000098;Навигатор;;500523189; ;230003, г.Гродно, Скидельское шоссе, 20;Публичный договор № 2 от 01.07.13г.
;"ООО ""Научно-производственная компания ""Навигатор""";;;;230003, г.Гродно, Скидельское шоссе, 20;"р/с № 3012126953015        в ОАО ""БПС - СберБанк"", г.г.Минск"
000000052;Нац.центр интеллектуальной соб;;190310695; ; ;Основной договор
;"Государственное учреждение ""Национальный центр интеллектуальной собственности""";;;; ; 
000000189;Некст Техникс;;691387888; ;223053, Минская обл., Минский р-н, д.Боровляны, а/я 11;Публичный договор № 2 от 01.07.13г.
;"Частное предприятие ""Некст Техникс""";;;;223053, Минская обл., Минский р-н, д.Боровляны, ул.40 лет Победы, 27/4-35,изол.пом.35;"р/с № 3012002028005        в Филиал N 614 ОАО ""АСБ Беларусбанк"" в г.Минске, г.г.Минск"
000000202;НИКИМТ-Атомстрой;; ; ; ;Публичный договор № 1 от 01.07.2013г.
;Акционерное общество «Научно-исследовательский и конструкторский институт монтажной технологии - Атомстрой»;;;;127410, г.Москва, Алтуфьевское шоссе, д.43, стр.2; 
000000267;НИПЕКС;;100086913; ;220035, г.Минск, ул.Тимирязева, 65-304А;Публичный договор № 1 от 01.07.13
;"ЗАО ""НИПЕКС""";;;;220035, г.Минск, ул.Тимирязева, 65-304А;"р/с № 301210971018         в ОАО ""БПС - СберБанк"", г.г.Минск"
000000122;НПП Белэнергокип;;191090953; ;220131, г.Минск, 1-ый Измайловский пер., д.51, к.33;Публичный договор № 1 от 01.07.13г.
;"ООО ""НПП Белэнергокип""";;;;220131, г.Минск, 1-ый Измайловский пер., д.51, к.33;"р/с № 3012000110016        в ЗАО ""БИТ-Банк"", г.220035, г.Минск, пр.Машерова, 76А, пом.3"
000000327;НьюАпекс;;191184526; ;220140, г.Минск, ул.Притыцкого, 79, 6-ой этаж, пом.9;Публичный договор № 2 от 12.01.15г.
;"ООО ""НьюАпекс""";;;;220140, г.Минск, ул.Притыцкого, 79, 6-ой этаж, пом.9;"р/с № 3012032160001        в ЗАО ""БелСвиссБанк"", г.г.Минск"
000000184;Нэтком;;191060376; ;220125, г.Минск, пр.Независимости, 185, пом.19, офис 4;Публичный договор № 1 от 12.01.2015г.
;"ООО ""НЭТКОМ""";;;;220125, г.Минск, пр.Независимости, 185, пом.19, офис 4;"р/с № 3012034160016        в ОАО ""Банк Москва-Минск"", г.г.Минск"
000000164;Овердрайв-электро;;191315439; ;220068, г.Минск, ул.Каховская, 37, комн.3;Публичный договор № 1 от 01.07.13
;"ООО ""Овердрайв-электро""";;;;220068, г.Минск, ул.Каховская, 37, комн.3;"р/с № 3012220982013        в ЗАО ""Альфа-Банк"", г.г.Минск"
000000216;Олди свет;;191039087; ;220056, г.Минск, ул.Героев 120-й дивизии, 3а, оф.417;Договор № 10092014 от 10.09.14
;"ЧТУП ""Олди свет""";;;;220056, г.Минск, ул.Героев 120-й дивизии, 3а, оф.417;"р/с № 3012029003015        в ""Приорбанк"" Открытое акционерное общество, г.г.Минск"
000000252;Оливер;;100172845; ;220118, г.Минск, ул.Машиностроителей, д.29, пом.116, комн.12;Публичный договор № 1 от 12.01.2015г.
;"ООО ""Оливер""";;;;220118, г.Минск, ул.Машиностроителей, д.29, пом.116, комн.12;"р/с № 3012001208014        в ""Приорбанк"" Открытое акционерное общество, г.г.Минск"
000000026;"ООО ""Измет""";;690325966; ;220026 г. Минск,проезд Подшипниковый,9 оф.21;Счет-договор №2172 от 17.04.2012г.
;"ООО ""Измет""";;;;220026,г. Минск,проезд Пошипниковый,9 оф21; 
000000004;"ООО ""Хостер Бай""";;191101193; ;220005,г. Минск.ул.В.Хоружей.1а,этаж6,комн.22;Договор публичный возмездного оказания услуг9сч.ф. №5679 от 04.05.2011г.)   дата возникновения обязательства :  11.05.11
;"ООО ""Хостер Бай""";;;;220005,г. Минск,ул.В.Хоружей,1а. этаж 6.ком.22;"р/с № 3012003739009        в ЗАО ""БелСвиссБанк"", г.г.Минск"
000000340;Опатов;;190207304; ;220034, г.Минск, ул.Платонова, д.15, оф.39;Публичный договор № 1 от 12.01.2015г.
;"УП ""ОПАТОВ""";;;;220034, г.Минск, ул.Платонова, д.15, оф.39;"р/с № 3012006503017        в ""Приорбанк"" Открытое акционерное общество, г.г.Минск"
000000009;Отраслевые порталы;;191306977;310-43-25;220013,г.Минск,ул.П.Бровки,8а,оф.59;Договор 1/05 от 01.05.2011г.   дата возникновения обязательства :  01.05.11
;"ООО ""Отраслевые порталы""";;;;220013 г.Минск,ул.П.Бровки,8а. оф.59;"р/с № 3012105674012        в ОАО ""БПС - СберБанк"", г.г.Минск"
000000302;Отраслевые форумы;;191321925; ;220012, г.Минск, ул.Чернышевского, 10а-803б;Публичный договор № 1 от 12.01.15г.
;"ООО ""Отраслевые форумы""";;;;220012, г.Минск, ул.Чернышевского, 10а-803б;"р/с № 3012029053004        в ЗАО ""БелСвиссБанк"", г.г.Минск"
000000001;Писчиков Дмитрий Александрович;; ; ;г. Минск.ул.Я.Мавра.д.54,кв.52.;Основной договор
;Писчиков Дмитрий Александрович, паспорт № -МР2567984;;;;г.Минск.ул.Я.Мавра 54-52; 
000000227;ПК ЭнергоДизель;;691767368; ;220138, Минск, ул. Геологическая д 87Г, пом 7, оф.106А;Публичный договор № 1 от 01.07.13г.
;"ООО ""ПК ЭнергоДизель""";;;;220138, Минск, ул. Геологическая д 87Г, пом 7, оф.106А;"р/с № 3012015801017        в ОАО ""Банк Москва-Минск"", г.г.Минск"
000000129;ПластЛайн;;690593344; ;220024, г.Минск, ул.Серова, 1, к.336;Публичный договор № 1 от 01.07.13г.
;"ООО ""ПластЛайн""";;;;220024, г.Минск, ул.Серова, 1, к.336;"р/с № 3012035320024        в ЗАО ""БелСвиссБанк"", г.г.Минск"
000000101;ПЛК-СИСТЕМЫ;;101446545; ;220072, г.Минск, ул.П.Бровки, 19, ком.438;Публичный договор № 1 от 01.07.13
;"ООО ""ПЛК-СИСТЕМЫ""";;;;220072, г.Минск, ул.П.Бровки, 19, ком.438;"р/с № 3012709250013        в ОАО ""Белинвестбанк"", г.г.Минск"
000000053;ПлутонЭнергоПром;;190491607; ;220022, г.Минск, ул.Шаранговича, д.55, пом.1-Н;Публичный договор № 1 от 01.07.2013
;"СООО ""ПлутонЭнергоПром""";;;;220022, г.Минск, ул.Шаранговича, д.55, пом.1-Н;"р/с № 3012006926920        в ЗАО ""РРБ-Банк"", г.г.Минск"
000000231;Подшипник-про;;191734808; ;220075, г.Минск, ул.Свислочская, д.39-2, каб.27;Публичный договор № 2 от 01.07.2013г.
;"ООО ""Подшипник-про""";;;;220075, г.Минск, ул.Свислочская, д.39-2, каб.27;"р/с № 3012000063710        в ОАО ""Белгазпромбанк"", г.г.Минск"
000000166;Поликрафт;;101350701; ; ;Договор
;"ООО ""Поликрафт""";;;; ;"р/с № 3012102622012        в ОАО ""БПС - СберБанк"", г.г.Минск"
000000283;ПолимерТеплоЭнерго;;690655572; ;222852, Минская обл., Пуховичский р-н, Дукорский с/с, 3 цех окраски металлоконструкци;Публичный договор № 1 от 12.01.2015г.
;"ООО ""ПолимерТеплоЭнерго""";;;;222852, Минская обл., Пуховичский р-н, Дукорский с/с, 3 цех окраски металлоконструкци;"р/с № 3012141360013        в ЗАО ""Минский транзитный банк"", г.г.Минск"
000000141;Политроника;;190789508; ;220007, г.Минск, ул.Воронянского, д.50, к.331;Публичный договор № 1 от 12.01.15
;"ЧПУП ""Политроника""";;;;220007, г.Минск, ул.Воронянского, д.50, к.331;"р/с № 3012000583711        в ОАО ""Белинвестбанк"", г.г.Минск"
000000228;Представительство ИЭК Холдинг;;102379115; ;220125, г.Минск, ул.Шафарнянская, д.11, пом.62;Договор 94/25 от 06.08.14
;"Представительство ООО ""ИЭК ХОЛДИНГ"" в РБ (РФ)";;;;220125, г.Минск, ул.Шафарнянская, д.11, пом.62;"р/с № 3021165210016        в ОАО ""БПС - СберБанк"", г.г.Минск"
000000361;"Представительство ООО ""Аристон Термо Русь"" РФ";;102340324; ;220053, г.Минск, ул.Мирная, д.37Г. ком.5;Публичный договор № 1 от 12.01.2015г.
;"Представительство ООО ""Аристон Термо Русь"" РФ";;;;220053, г.Минск, ул.Мирная, д.37Г. ком.5;"р/с № 3021007180102        в ОАО ""Банк Москва-Минск"", г.г.Минск"
000000197;"Представительство ООО ""Грундфо";;102301706; ;220125, г.Минск, ул.Шафарнянская, 11-56;Публичный договор 1 от 12.01.15г.
;"Представительство ООО ""Грундфос""";;;;220125, г.Минск, ул.Шафарнянская, 11-56;"р/с № 3021002039000        в ""Приорбанк"" Открытое акционерное общество, г.г.Минск"
000000162;Принтаут;;191104389; ; ;Договор
;"Частное предприятие ""Принтаут""";;;; ;"р/с № 3012005337005        в ЗАО ""БелСвиссБанк"", г.г.Минск"
000000262;Природоохранные и энергосберегающие технологии;;800007034; ;220017, г.Минск, ул.Матусевича, 69, пом.2Н;Публичный договор № 1 от 12.01.2015г.
;"СП ""Природоохранные и энергосберегающие технологии"" ООО";;;;220017, г.Минск, ул.Матусевича, 69, пом.2Н;"р/с № 3012014601283        в Филиал N 514 ОАО ""АСБ Беларусбанк"" в г.Минске, г.г.Минск"
000000258;Промира;;691390594; ;223012, Минский р-н, г.п.Мачулищи, а/я 218;Публичный договор № 1 от 01.07.13
;"ООО ""Промира""";;;;"Минский р-н, г.п.Мачулищи, здание склада ИП ""Белтрансфер-Мед"", каб.33";"р/с № 3012029618019        в ""Приорбанк"" Открытое акционерное общество, г.г.Минск"
000000289;ПромусЭнерго;;807000069; ;220035, г.Минск, ул.Тимирязева, д.97, оф.21;Публичный договор № 1 от 12.01.15г.
;"ООО ""ПромусЭнерго""";;;;220035, г.Минск, ул.Тимирязева, д.65 Б, пом.714;"р/с № 3012019447008        в ЗАО ""БелСвиссБанк"", г.г.Минск"
000000096;ПронтоТелеком;;191528180; ;220073, г.Минск, ул.Ольшевского, 10-311;Публичный договор № 1 от 01.07.13г.
;"ЧТУП ""ПронтоТелеком""";;;;220136, г.Минск, ул.Лобанка, 14, к.120;"р/с № 3012133790019        в ЗАО ""Минский транзитный банк"", г.г.Минск"
000000049;Профатомстрой;;191701035; ;220028, г.Минск, ул.Балтийская, 2, 1Н;Публичный договор № 1 от 01.07.2013
;"ООО ""Профатомстрой""";;;;220028, г.Минск, ул.Балтийская, 2, 1Н;"р/с № 3012201080003        в ОАО ""Белорусский народный банк"", г.г.Минск"
000000206;Профессиональные сетевые систе;;190490917; ;220035, г.Минск, ул.Тимирязева, 65Б, оф.308;Публичный договор № 1 от 12.01.2015г.
;"ЗАО ""Профессиональные сетевые системы""";;;;220035, г.Минск, ул.Тимирязева, 65Б, ком.33Б;"р/с № 3012031560012        в ""Приорбанк"" Открытое акционерное общество, г.г.Минск"
000000084;"Птицефабрика ""Вишневка""";;790118808; ;213831, Могилевская обл., Бобруйский р-н, д.Вишневка;Публичный договор № 2 от 01.07.13г.
;"ЗАО ""Птицефабрика ""Вишневка""";;;;213831, Могилевская обл., Бобруйский р-н, д.Вишневка;"р/с № 3012110190014        в ОАО ""Банк Москва-Минск"", г.г.Минск"
000000090;ПТОснаб;;191699422; ;"220026, г.Минск, ул.Жилуновича, 2""Б"", ком.3";Публичный договор № 1 от 01.07.13г.
;"ЧТУП ""ПТОснаб""";;;;"220026, г.Минск, ул.Жилуновича, 2""Б"", ком.3";"р/с № 3012151870017        в ОАО ""БПС - СберБанк"", г.г.Минск"
000000359;Пуховичский комбинат хлебопродуктов;;600124787; ;222811, Минская обл., Пуховичский р-н, г.Марьина Горка, ул.Петра Гучка, 125;Договор 12102015 от 12.10.2015г.
;"ОАО ""Пуховичский комбинат хлебопродуктов""";;;;222811, Минская обл., Пуховичский р-н, г.Марьина Горка, ул.Петра Гучка, 125;"р/с № 3012062601613        в Филиал N 500 - Минское управление ОАО ""АСБ Беларусбанк"", г.г.Минск"
000000320;РайзЭнергоПром;;192250237; ;220036, г.Минск, ул.Волоха, 1, ком.111;Публичный договор № 1 от 12.01.2015г.
;"ООО ""РайзЭнергоПром""";;;;220036, г.Минск, ул.Волоха, 1, ком.111;"р/с № 3012096443009        в ЗАО ""БелСвиссБанк"", г.г.Минск"
000000325;Рапуль Бел;;690657322; ;223043, Минская обл., Минский р-н, Папернянский с/с, дер.Цнянка, ул.Рождественская,5а;Публичный договор № 2 от 12.01.2015г.
;"ИООО ""Рапуль Бел""";;;;223043, Минская обл., Минский р-н, Папернянский с/с, дер.Цнянка, ул.Рождественская,5а;"р/с № 3012028824019        в ""Приорбанк"" Открытое акционерное общество, г.г.Минск"
000000107;Релианс групп;;192042502; ;220131, г.Минск, а/я 531;Публичный договор № 1 от 01.07.13г.
;"ООО ""Релианс групп""";;;;220053, Минский р-н, д.Боровляны, ул.40 лет Победы, 19, 1 этаж, кабинет 1;"р/с № 3012043481001        в ЗАО ""Идея Банк"", г.г.Минск"
000000165;Риапресс;;100828324; ;220073, г.Минск, ул.Бирюзова, 10А, комн.504;Публичный договор № 1 от 01.07.13
;"ООО ""Риапресс""";;;;220073, г.Минск, ул.Бирюзова, 10А, комн.504;"р/с № 3012006397002        в ЗАО ""БелСвиссБанк"", г.г.Минск"
000000151;РИПК Минтруда и соцзащиты;;190370111; ; ;Договор
;РИПК Минтруда и соцзащиты;;;; ;"р/с № 3632104276019        в ОАО ""БПС - СберБанк"", г.г.Минск"
000000232;РИЧЕКО;;192238538; ;223053, Минский р-н, д.Боровляны, ул.40 лет Победы, 17, каб.31;Публичный договор № 1 от 12.01.2015г.
;"ООО ""РИЧЕКО""";;;;223053, Минский р-н, д.Боровляны, ул.40 лет Победы, 17, каб.31;"р/с № 3012000077142        в ОАО ""Белгазпромбанк"", г.г.Минск"
000000080;РККаБЕЛь;;190843947; ;220024, г.Минск, ул.Бабушкина, д.9, оф.408;Публичный договор № 1 от 01.07.13
;"ОДО ""РККаБЕЛь""";;;;220024, г.Минск, ул.Бабушкина, д.9, оф.408;"р/с № 3012903990010        в ОАО ""Белинвестбанк"", г.г.Минск"
000000195;РосБелПроем;;600500884; ;222304, Минская обл., г.Молодечно, ул.Галицкого, 14;Публичный договор № 1 от 12.01.15
;"ООО ""РосБелПроем""";;;;222310, Минская обл., г.Молодечно, ул.Л.Роменская, 161а;"р/с № 3012164043020        в ОАО ""Банк БелВЭБ"", г.г.Минск"
000000041;РРБ-Банк;; ; ; ;Основной договор
; ;;;; ; 
000000071;РСПБЕЛ;;191296858; ;220108, г.Минск, ул.Корженевского, 19, к.101;Публичный договор № 1 от 01.07.13
;"СООО ""РСПБЕЛ""";;;;220108, г.Минск, ул.Корженевского, 19, к.101;"р/с № 3012107526009        в ОАО ""Банк БелВЭБ"", г.г.Минск"
000000233;РТИмаркет;;391383457; ;210040, г.Витебск, ул.3-я Суражская, д.18, каб.1а;Публичный договор № 2 от 01.07.13
;"Частное торговое унитарное предприятие ""РТИмаркет""";;;;210040, г.Витебск, ул.3-я Суражская, д.18, каб.1а;"р/с № 3012201893014        в ""Приорбанк"" Открытое акционерное общество, г.г.Минск"
000000240;Рукавбай;;192252916; ;220075, г.Минск, ул.Свислочская, 39, оф.24;Публичный договор № 2 от 01.07.13
;"ООО ""Рукавбай""";;;;220036, г.Минск, ул.Западная, 13, к.684;"р/с № 3012726410002        в ОАО ""Белорусский народный банк"", г.г.Минск"
000000272;РУЭЛТА;;190606828; ;222310, Минская обл., г.Молодечно, ул.Виленская, д.40;Публичный договор № 1 от 01.07.13г.
;"СЗАО ""РУЭЛТА""";;;;222310, Минская обл., г.Молодечно, ул.Виленская, д.40;"р/с № 3012164995077        в ОАО ""Банк БелВЭБ"", г.г.Минск"
000000212;Санармабел;;190624382; ;220024, Минский р-н, п/у Колядичи, ул.Бабушкина, д.90, оф.203;Публичный договор № 1 от 01.07.13
;"ООО ""Санармабел""";;;;220024, Минский р-н, п/у Колядичи, ул.Бабушкина, д.90, оф.203;"р/с № 3012008180002        в ЗАО ""БелСвиссБанк"", г.г.Минск"
000000298;Сарди и Ко;;5078017104; ;141960, Московская обл., Талдомский р-н, пос.Запрудня, ул.Ленина, дом 1;Публичный договор № 2 от 12.01.2015г.
;"ООО ""Сарди и Ко""";;;;141960, Московская обл., Талдомский р-н, пос.Запрудня, ул.Ленина, дом 1;"р/с № 40702810500350001802 в ОАО ""Банк Москвы"", г.г.Москва"
000000324;СваркаСервисГрупп;;191182232; ;220014, г.Минск, пер.С.Ковалевской, д.54, к.1, ком.310;Публичный договор № 1 от 12.01.2015г.
;"ООО ""СваркаСервисГрупп""";;;;220014, г.Минск, пер.С.Ковалевской, д.54, к.1, ком.310;"р/с № 3012200530007        в ЗАО ""Альфа-Банк"", г.г.Минск"
000000113;СветКомплектТрейд;;191595419; ;220037, г. Минск, ул. Филимонова, 15, пом 8;Публичный договор № 1 от 12.01.2015г.
;"ООО ""СветКомплектТрейд""";;;;220037, г.Минск, ул.Филимонова, 15, пом.8;"р/с № 3012151042018        в ОАО ""БПС - СберБанк"", г.г.Минск"
000000117;Светодиодные технологии;;191309802; ;220053, г.Минск, Долгиновский тр., 39, пом.203-1;Публичный договор № 1 от 01.07.13г.
;"ЧТПУП ""Светодиодные технологии""";;;;220053, г.Минск, Долгиновский тр., 39, пом.203-1;"р/с № 3012237958021        в ОАО ""Белинвестбанк"", г.г.Минск"
000000124;"Светоприбор ОО ""БелТИЗ""";;100258222; ;220018, г.Минск, ул.Якубовского, 52;Публичный договор № 1 от 01.07.13г.
;"Унитарное предприятие ""Светоприбор"" ОО ""БелТИЗ""";;;;220018, г.Минск, ул.Якубовского, 52;"р/с № 3012007693617        в Центр банковских услуг №536 ОАО ""Белинвестбанк"", г.г. Минск"
000000328;СветТрейдингСервис;;691773895; ;223053, Минский р-н, п.Боровляны, ул.40 лет Победы, 14А-25;Публичный договор № 1 от 12.01.15г.
;"ООО ""СветТрейдингСервис""";;;;223053, Минский р-н, п.Боровляны, ул.40 лет Победы, 14А-25;"р/с № 3012035608013        в ""Приорбанк"" Открытое акционерное общество, г.г.Минск"
000000136;СветЭнергоТрейдинг;;691429632; ;223060, Минская обл., Минский р-н, д.Большой Тростенец, ул.Мирная, д.58, комн.10;Публичный договор № 1 от 12.01.15
;"ЧТУП ""СветЭнергоТрейдинг""";;;;223060, Минская обл., Минский р-н, д.Большой Тростенец, ул.Мирная, д.58, комн.10;"р/с № 3012055950016        в ОАО ""Банк Москва-Минск"", г.г.Минск"
000000330;Связьинвест;;100886904; ;220068, г.Минск, ул.Некрасова, 114, пом.60;Публичный договор № 1 от 12.01.2015г.
;"ОАО ""Связьинвест""";;;;220068, г.Минск, ул.Некрасова, 114, пом.60;"р/с № 3012000830019        в ОАО ""Банк Москва-Минск"", г.г.Минск"
000000119;Связьинвест производственный ф-л;;601073396; ;220068, г.Минск, ул.Некрасова, 114, пом.60;Публичный договор № 1 от 01.07.13
;"Производственный филиал ОАО ""Связьинвест""";;;;223043, Минский р-н, Папернянский с/с, район а/г Вишневка, комн.1;"р/с № 3012022620018        в ОАО ""Банк Москва-Минск"", г.г.Минск"
000000218;СелАгро;;190500694; ;220070, г.Минск, ул.Радиальная, 11а, АПК, комн.15;Публичный договор № 2 от 12.01.15г.
;"ООО ""СелАгро""";;;;220070, г.Минск, ул.Радиальная, 11а, АПК, комн.15;"р/с № 3012008102012        в ""Приорбанк"" Открытое акционерное общество, г.г.Минск"
000000045;Серчинг веб девелопмент;;191637549; ; ;Основной договор
;"ЧУП ""Серчинг веб девелопмент""";;;; ;"р/с № 3012145620018        в ЗАО ""Минский транзитный банк"", г.г.Минск"
000000230;Сетевые технологии;;690611937; ;220057, г.Минск, ул.Фогеля, д.7, к.250;Публичный договор № 1 от 01.07.13г.
;"ООО ""Сетевые технологии""";;;;220057, г.Минск, ул.Фогеля, д.7, к.250;"р/с № 3012027330013        в ОАО ""Банк Москва-Минск"", г.г.Минск"
000000355;Сиветра-Агро;; ; ;109389, г.Москва, 1-ый Институтский проезд, д.5, строение 1;Публичный договор № 2 от 12.01.2015г.
;"ООО ""Сиветра-Агро""";;;;109389, г.Москва, 1-ый Институтский проезд, д.5, строение 1; 
000000074;Скайиндастри;;191602781; ;"220090, г.Минск, Логойский тракт, 50, БЦ ""АКВАБЕЛ"", оф.337";Публичный договор № 1 от 12.01.2015г.
;"ООО ""Скайиндастри""";;;;г.Минск, ул.Славинского, 1;"р/с № 3012389970006        в ОАО ""Белорусский народный банк"", г.г.Минск"
000000114;СкайЭнерго;;191683741; ;220037, г.Минск, ул.Багратиона, 62, ком.2;Публичный договор № 1 от 01.07.13г.
;"ООО ""СкайЭнерго""";;;;220037, г.Минск, ул.Багратиона, 62, ком.2;"р/с № 3012049183000        в ЗАО ""БелСвиссБанк"", г.г.Минск"
000000295;СкайЭнерго Плюс;;192390030; ;220037, г.Минск, ул.Багратиона, д.62, комн.3;Публичный договор № 1 от 12.01.15г.
;"ООО ""СкайЭнерго Плюс""";;;;220037, г.Минск, ул.Багратиона, д.62, комн.3;"р/с № 3012106513005        в ЗАО ""БелСвиссБанк"", г.г.Минск"
000000196;СЛ-ком;;191139889; ;223035, Минский р-н, пос.Ратомка, ул.Минская, 24;Публичный договор № 1 от 01.07.13г.
;"ООО ""СЛ-ком""";;;;223035, Минский р-н, пос.Ратомка, ул.Минская, 24;"р/с № 3012324810023        в ЗАО ""Банк ВТБ (Беларусь)"", г.220007, гюМинск, ул.Московская, 14"
000000048;Слуцкий сыродельный комбинат;;600119098; ;223610, г.Слуцк, ул.Тутаринова, 14;Договор № 2 от 01.07.2013
;"ОАО ""Слуцкий сыродельный комбинат""";;;;223610, г.Слуцк, ул.Тутаринова, 14;"р/с № 3012200900032        в Отделение ОАО ""Белагропромбанк"" в г.Слуцке, г.г.Слуцк"
000000294;Смартикон;;191827058; ; ;Основной договор
;"Частное предприятие ""Смартикон""";;;; ;"р/с № 3012272126003        в ЗАО ""Альфа-Банк"", г.г.Минск"
000000259;Софтон Вэй;;192039653; ;220004, г.Минск, ул.Коллекторная, д.3а-10, каб.17;Договор 37УТ/2014 от 13.10.14
;"ООО ""Софтон Вэй""";;;;220004, г.Минск, ул.Коллекторная, д.3а-10, каб.17;"р/с № 3012214490010        в ЗАО ""Минский транзитный банк"", г.г.Минск"
000000047;Спецэлектроконструкция;;190706387; ;220075, г.Минск, пр.Партизанский, 178-305;Публичный договор № 1 от 12.01.2015г.
;"ЧУП ""СпецЭлектроКонструкция""";;;;220075, г.Минск, пр.Партизанский, 178-305;"р/с № 3012100553011        в ОАО ""БПС - СберБанк"", г.г.Минск"
000000110;Спортус;;191460166; ;Минская обл., Минский р-н, Петришковский с/с, д.Шубники, ул.Сказочная, д.2;Основной договор
;"Частное предприятие ""СПОРТУС""";;;;Минская обл., Минский р-н, Петришковский с/с, д.Шубники, ул.Сказочная, д.2;"р/с № 3012100020184        в ЗАО ""РРБ-Банк"", г.г.Минск"
000000344;Сталвиском;;191194104; ;220113, г.Минск, ул.Беды, д.45, оф.790;Публичный договор № 1 от 12.01.2015г.
;"ООО ""Сталвиском""";;;;220113, г.Минск, ул.Беды, д.45, оф.790;"р/с № 3012804430015        в Дирекция ОАО ""Белинвестбанк"" по Могилевской обл., г.г.Могилев"
000000269;Сталкер-медиа;;191099657; ; ;Договор
;"ООО ""Сталкер-медиа""";;;; ;"р/с № 3012180354009        в ОАО ""Банк БелВЭБ"", г.г.Минск"
000000335;СТАРКО Бел;;190681621; ;"220024, Минская обл., Минский р-н, п/у ""Колядичи"", ул.Бабушкина, 90-407";Публичный договор № 2 от 12.01.2015г.
;"ТУП ""СТАРКО Бел""";;;;"220024, Минская обл., Минский р-н, п/у ""Колядичи"", ул.Бабушкина, 90-407";"р/с № 3012015930017        в ""Приорбанк"" Открытое акционерное общество, г.г.Минск"
000000140;Стим-систем;;190823902;(017)210-01-60, 294-50-35;220064, г.Минск, ул.Каховская, 43-72;Публичный договор № 1 от 01.07.13
;"ЧТСУП ""Стим-систем""";;;;220064, г.Минск, ул.Каховская, 43-72;"р/с № 3012103226013        в ОАО ""БПС - СберБанк"", г.г.Минск"
000000127;Строка;;190829477; ;220107, г.Минск, пр.Партизанский, 75, офис 1;Публичный договор № 1 от 12.01.2015г.
;"ООО ""СТРОКА""";;;;220107, г.Минск, пр.Партизанский, 75, офис 1;"р/с № 3012020360015        в ЗАО ""Минский транзитный банк"", г.г.Минск"
000000130;СтудияГолд;;191508807; ;220104, г.Минск, ул.Лынькова, д.19, к.2, пом.7, ком.15;Публичный договор № 2 от 12.01.15г.
;"ООО ""СтудияГолд""";;;;220104, г.Минск, ул.Лынькова, д.19, к.2, пом.7, ком.15;"р/с № 3012205691013        в ЗАО ""Альфа-Банк"", г.г.Минск"
000000336;Сузорье;;300115741; ;211405, Витебская обл., г.Полоцк, 5-й Тросницкий пер., 45;Публичный договор № 2 от 12.01.2015г.
;"ООО ""Сузорье""";;;;211405, Витебская обл., г.Полоцк, 5-й Тросницкий пер., 45;"р/с № 3012210088012        в ""Приорбанк"" Открытое акционерное общество, г.г.Минск"
000000315;СЭС;;191780990; ;220089, г.Минск, ул.Уманская, 54, пом.6;Публичный договор № 1 от 12.01.2015г.
;"ООО ""Современные Энергосберегающие Системы""";;;;220089, г.Минск, ул.Уманская, 54, пом.6;"р/с № 3012000069466        в ОАО ""Белгазпромбанк"", г.г.Минск"
000000002;Таболевич Сергей Петрович;; ; ;г. Минск,ул.Берестянская,д.5,кв.29;Основной договор
;Таболевич Сергей Петрович, паспорт № -МР1900908;;;;г. Минск.ул.Берестянская 5-29; 
000000118;ТГР;;191559884; ;220045, г.Минск, ул.Я.Чечета, д.9, кв.123;Публичный договор № 1 от 12.01.2015г.
;"ЧПТУП ""ТГР""";;;;220045, г.Минск, ул.Я.Чечета, д.9, кв.123;"р/с № 3012146730019        в Филиал N 500 - Минское управление ОАО ""АСБ Беларусбанк"", г.г.Минск"
000000210;Тега-Строй;;191877136; ;220036, г.Минск, пер.Северный, 13, корп.2, офис 18;Публичный договор № 1 от 01.07.13г.
;"ООО ""Тега-Строй""";;;;220036, г.Минск, пер.Северный, 13, корп.2, офис 18;"р/с № 3012110510007        в ЗАО ""БелСвиссБанк"", г.г.Минск"
000000347;Текона-М;;190133403; ;220006, г.Минск, ул.Полевая, 24А, к.24;Публичный договор № 2 от 12.01.2015г.
;"ОДО ""Текона-М""";;;;220006, г.Минск, ул.Полевая, 24А, к.24;"р/с № 3012237970018        в ЗАО ""Банк ВТБ (Беларусь)"", г.220007, гюМинск, ул.Московская, 14"
000000363;Телинг групп;;191340935; ;220125, г.Минск, ул.Шафарнянская, д.11, пом.33, ком.1;Индивидуальный договор № 19102015 от 19.10.2015г.
;"ООО ""Телинг групп""";;;;220125, г.Минск, ул.Шафарнянская, д.11, пом.33, ком.1;"р/с № 3012020732011        в ""Приорбанк"" Открытое акционерное общество, г.г.Минск"
000000256;ТЕПЛОЭНЕРГОМОНТАЖ;;700408010; ;212030, г.Могилев, пер.Коммунистический, 9А;Публичный договор № 1 от 01.07.13
;"ЧУП ""ТЕПЛОЭНЕРГОМОНТАЖ""";;;;212030, г.Могилев, пер.Коммунистический, 9А;"р/с № 3012430611019        в Дирекция ОАО ""Белинвестбанк"" по Могилевской обл., г.г.Могилев"
000000203;Теплоэнергосвязь;;101552085; ; ;Договор
;"Унитарное предприятие ""Теплоэнергосвязь""";;;; ;"р/с № 3012706700016        в ОАО ""Белинвестбанк"", г.г.Минск"
000000266;ТЕПЛОЭНЕРГОТОРГ;;190853170; ;223060, Минский р-н, Новодворский с/с, р-н д.Б.Стиклево, д.40/2-30, оф.61, БЦ S.UNION;Публичный договор № 1 от 12.01.2015г.
;"ООО ""ТЕПЛОЭНЕРГОТОРГ""";;;;Минский р-н, Щомыслицкий с/с, 16-9;"р/с № 3012226300013        в ЗАО ""Минский транзитный банк"", г.г.Минск"
000000094;ТермоБрест;;200020142; ;224014, г.Брест, ул.Смирнова, 66;Публичный договор № 1 от 12.01.2015г.
;"СП ""ТермоБрест"" ООО";;;;224014, г.Брест, ул.Смирнова, 66;"р/с № 3012120809019        в ОАО ""БПС - СберБанк"", г.г.Минск"
000000192;Термохаус;;690718582; ;"223017, Минский р-н, пос.Гатово, АБК ОАО ""МПКО""";Публичный договор № 1 от 12.01.2015г.
;"ООО ""Термохаус""";;;;"223017, Минский р-н, пос.Гатово, АБК ОАО ""МПКО""";"р/с № 3012104795019        в ОАО ""БПС - СберБанк"", г.г.Минск"
000000167;Терол;;191469163; ; ;Договор
;"ООО ""Терол""";;;; ;"р/с № 3012022555010        в ""Приорбанк"" Открытое акционерное общество, г.г.Минск"
000000139;ТЕХМАШ-ЭЛЕКТРО;;101381849; ;220118, г.Минск, ул.Шишкина, д.20, корп.1, пом.3Н, к.1;Публичный договор № 1 от 01.07.13
;"ЗАО ""ТЕХМАШ-ЭЛЕКТРО""";;;;220118, г.Минск, ул.Шишкина, д.20, корп.1, пом.3Н, к.1;"р/с № 3012107981019        в ОАО ""БПС - СберБанк"", г.г.Минск"
000000145;Технопластснаб;;191519315; ;220055, г.Минск, ул.Каменногорская, 47, офис 132;Публичный договор № от 01.07.13
;"ООО ""Технопластснаб""";;;;220055, г.Минск, ул.Каменногорская, 47, офис 132;"р/с № 3012183120017        в ЗАО ""Межторгбанк"". Региональное отделение по Могилевской области, г.г.Могилев"
000000100;Техношанс;;101103795; ;220124, г.Минск, ул.Лынькова, д.123, лит.А;Публичный договор № 1 от 01.07.13
;"ЗАО ""Техношанс""";;;;220124, г.Минск, ул.Лынькова, д.123, лит.А;"р/с № 3012055580015        в ЗАО ""Дельта Банк"", г.г.Минск"
000000138;ТЗС;;190619290; ;220108, г.Минск, ул.Корженевского, д.19, к.315;Публичный договор № 1 от 01.07.13
;"Унитарное предприятие ""ТЗС""";;;;220108, г.Минск, ул.Корженевского, д.19;"р/с № 3012107298005        в ОАО ""Банк БелВЭБ"", г.г.Минск"
000000245;Тикетпро;;191120757; ; ;Договор
;"ООО ""Тикетпро""";;;; ;"р/с № 3012776110016        в ОАО ""Паритетбанк"", г.г.Минск"
000000027;Товарищество собственников зда;;190813691; ;220013,г. Митнск,ул. П.Бровки ,8А;Договор №24 от 01.03.2012г.
;"Товарищество собственников здания по ул. П.Бровки 8 ""А""";;;; ;"р/с № 3015075140010        в Филиал N 529 ""Белсвязь"" ОАО ""АСБ Беларусбанк"" в г.Минске, г.г.Минск"
000000234;Топикс Агро;;691453813; ;220018, г.Минск, а/я 109;Публичный договор № 2 от 01.07.13
;"ООО ""Топикс Агро""";;;;Минская обл., Минский р-н, Ждановичский с/с, д.Тарасово, ул.Садовая, 17В-2, пом.11;"р/с № 3012034180011        в ""Приорбанк"" Открытое акционерное общество, г.г.Минск"
000000200;ТопКомплектТорг;;191552928; ;220103, г.Минск, а/я 73;Публичный договор № 1 от 01.07.2013г.
;"ООО ""ТопКомплектТорг""";;;;220103, г.Минск, ул.Кнорина, д.50, корп.25, каб.323;"р/с № 3012052420015        в ОАО ""Банк Москва-Минск"", г.г.Минск"
000000214;Торг-Электро;;690650249; ;220006, г.Минск, ул.Белорусская, 41, оф.12;Публичный договор № 1 от 12.01.15
;"Частное предприятие ""Торг-Электро""";;;;220006, г.Минск, ул.Белорусская, 41, оф.12;"р/с № 3012100009847        в ОАО ""Белгазпромбанк"", г.г.Минск"
000000207;"Торговый дом ""Атмос""";;190790691; ;220035, г.Минск, ул.Чехова, 3, оф.5, к.1;Публичный договор № 1 от 01.07.2013г.
;"ООО ""Торговый дом ""Атмос""""";;;;220035, г.Минск, ул.Чехова, 3, оф.5, к.1;"р/с № 301220683001         в Филиал  ЗАО ""Абсолютбанк"" ""Кредо"", г.г.Минск"
000000304;"Торговый дом ""МТИ-Электро""";;192442241; ;220112, г.Минск, ул.Янки Лучины, 10;Публичный договор № 1 от 12.01.2015г.
;"Частное предприятие ""Торговый дом ""МТИ-Электро""";;;;220112, г.Минск, ул.Янки Лучины, 10;"р/с № 3012157720007        в ЗАО ""БелСвиссБанк"", г.г.Минск"
000000079;Торимэкс;;100835051; ;223053,д.Боровляны, ул.40 лет Победы ,27/4 ,2 этаж Минский р-н;Публичный договор № 1 от 01.07.2013
;"СП ""Торимэкс"" ООО";;;;223053,д.Боровляны, ул.40 лет Победы ,27/4 ,2 этаж Минский р-н;"р/с № 3012200510015        в Филиал ОАО ""Белагропромбанк"" - Минская городская дирекция, г.г.Минск"
000000261;Травира;;691389533; ;220020, г.Минск, пр.Победителей, д.89, к.3, оф.401;Публичный договор № 2 от 01.07.13г.
;"Частное предприятие ""Травира""";;;;223053, Минская обл., Минский р-н, д.Боровляны, ул.Солнечная 1, к.3;"р/с № 3012000530019        в ЗАО ""Цептер Банк"", г.Минск"
000000040;Триовист;;190806803; ; ;Основной договор
;"ООО ""Триовист""";;;; ;"р/с № 3012022640010        в ЗАО ""Минский транзитный банк"", г.г.Минск"
000000331;ТС Автоматика(пр-во ТЕКО в РБ);;192407458; ;223043, Минский р-н, д.Чижовка, ул.Кольцевая, 2-1Г;Публичный договор № 1 от 12.01.2015г.
;"ЗАО ""Научно-производственная компания ""ТС Автоматика""";;;;223043, Минский р-н, д.Чижовка, ул.Кольцевая, 2-1Г;"р/с № 3012036716018        в ""Приорбанк"" Открытое акционерное общество, г.г.Минск"
000000319;ТуманТорг Производство;;191435971; ;220037, г.Минск, пер.Твердый 1-й, д.7, каб.22;Публичный договор № 2 от 12.01.15г.
;"ООО ""ТУМАНТОРГ ПРОИЗВОДСТВО""";;;;220037, г.Минск, пер.Твердый 1-й, д.7, каб.22;"р/с № 3012020253011        в ""Приорбанк"" Открытое акционерное общество, г.г.Минск"
000000244;Тут Бай медиа;;191104626; ; ;Договор
;"ООО ""Тут Бай медиа""";;;; ;"р/с № 3012003709000        в ЗАО ""БелСвиссБанк"", г.г.Минск"
000000249;Универсалимпэкс;;690713593; ; ;Договор
;"Частное предприятие ""Универсалимпэкс""";;;; ;"р/с № 3012065380014        в ЗАО ""БТА банк"", г.г.Минск"
000000012;"УП ""Надежные программы""";;100160363; ;220005 г. Минск ,ул.В.Хоружей,1а,6 этаж;Договор №U0511-83298 от 04.05.2011г.   дата возникновения обязательства :  01.06.11
;"УП ""Надежные программы""";;;;220005,г. Минск ул.В.Хоружей,1а,6 этаж;"р/с № 3012004700008        в ЗАО ""БелСвиссБанк"", г.г.Минск"
000000360;Уральский турбинный завод;;6673100680; ;620017, г.Екатеринбург, ул.Фронтовых бригад, 18, РФ;Публичный договор № 1 от 12.01.2015г.
;"ЗАО ""Уральский турбинный завод""";;;;620017, г.Екатеринбург, ул.Фронтовых бригад, 18, РФ;"р/с № 40702810413000001749 в ОАО ""Меткомбанк"", г.г.Каменск-Уральский"
000000343;"Ф-л ""ГРОДНОЭНЕРГО""";;500036458; ;230025, г.Гродно, ул.Молодежная, 2;Публичный договор № 1 от 12.01.2015г.
;"Ф-л  предприятие средств диспетчерского и технологического управления Гродненского республиканского унитарного предприятия электроэнергетики ""ГРОДНОЭНЕРГО""";;;;230025, г.Гродно, ул.Молодежная, 2;"р/с № 3012126576014        в ЦБУ №400 ОАО ""БПС - Сбербанк"" г. Гродно, г.г.Новополоцк"
000000005;Ф-л Белгосстраха по г. Минску;;101883943; ;220051 г.Минск,ул.Слободская,11;Основной договор
;Филиал Белгосстраха по г. Минску;;;;220051 г. Минск,ул. Слободская,11;"р/с № 3011524000148        в ОАО ""АСБ Беларусбанк"", г.г.Минск"
000000014;"Ф-л ОАО Белагропромбанк""";;101142900; ; ;Договор №2011/857 от 05.10.2011г.   дата возникновения обязательства :  05.10.11
;"Филиал ОАО ""Белагропромбанк""-Минская городская дирекция";;;; ;"р/с № 3812009630093        в Филиал ОАО ""Белагропромбанк"" - Минская городская дирекция, г.г.Минск"
000000354;Ф-Прибор;;192335389; ;220141, г.Минск, ул.Ф.Скорины, 54А, пом.15, к.309;Публичный договор № 1 от 12.01.2015г.
;"ООО ""Ф-Прибор""";;;;220141, г.Минск, ул.Ф.Скорины, 54А, пом.15, к.309;"р/с № 3012035450014        в ""Приорбанк"" Открытое акционерное общество, г.г.Минск"
000000311;Фабрика станков;;192385214; ;220018, г.Минск, ул.Шаранговича, 19, к.210;Публичный договор № 1 от 12.01.15г.
;"ООО ""Фабрика станков""";;;;220018, г.Минск, ул.Шаранговича, 19, к.210;"р/с № 3012901040021        в ОАО ""Белинвестбанк"", г.г.Минск"
000000334;Фанивек;;192203847; ;220089, г.Минск, ул.Железнодорожная, д.23, оф.27;Публичный договор № 1 от 12.01.2015г.
;"ООО ""Фанивек""";;;;220089, г.Минск, ул.Железнодорожная, д.23, оф.27;"р/с № 3012554100011        в ОАО ""Технобанк"", г.г.Минск"
000000280;ФеонБел;;192179656; ;220024, г.Минск, ул.Стебенева, 20, корп.2, оф.414;Публичный договор № 1 от 12.01.15г.
;"ООО ""ФеонБел""";;;;220099, г.Минск, ул.Брестская, д.34;"р/с № 3012032708017        в ""Приорбанк"" Открытое акционерное общество, г.г.Минск"
000000314;Фестальпине Аркада Запад;;190823930; ;220007, г.Минск, ул.Аэродромная, д.10, литер А 1-5/К;Публичный договор № 1 от 12.01.15г.
;"Иностранное торговое унитарное предприятие ""Фестальпине Аркада Запад""";;;;220007, г.Минск, ул.Аэродромная, д.10, литер А 1-5/К;"р/с № 3012018318014        в ""Приорбанк"" Открытое акционерное общество, г.г.Минск"
000000201;"Филиал ""Завод Энергооборудован";;401154759; ;246020, г.Гомель, ул.Барыкина, 168;Публичный договор № 1 от 01.07.2013г.
;"Филиал ""Завод Энергооборудование"" ОАО Белсельэлектросетьстрой";;;;246020, г.Гомель, ул.Барыкина, 168;"р/с № 3012112631019        в ОАО ""БПС - СберБанк"", г.г.Минск"
000000011;Фин. отдел Адм.Советского р-на;;100614142; ; ;Основной договор
;Финансовый отдел Админитстрации Совеского р-на;;;; ;"р/с № 3602945210528        в Филиал N 514 ОАО ""АСБ Беларусбанк"" в г.Минске, г.г.Минск"
000000179;Фисон;;500272251; ;231300, Гродненская обл., г.Лида, ул.Советская, 23а;Публичный договор № 2 от 12.01.15
;"ЗАО ""Фисон""";;;;231300, Гродненская обл., г.Лида, ул.Советская, 23а;"р/с № 3012610117017        в ""Приорбанк"" Открытое акционерное общество, г.г.Минск"
000000062;Франдеса;;290459104; ;225209, Брестская обл., Березовский р-н, 1;Публичный договор № 2 от 01.07.13
;"ООО ""Франдеса""";;;;225209, Брестская обл., Березовский р-н, 1;"р/с № 3012423700018        в РКЦ № 23 в г.Береза филиала ОАО ""Белагропромбанк"" - Брестское областное управление, г.г.Брест"
000000357;Хематекс;;600483775; ;"223017, Минская обл., Минский р-н, пос.Гатово, ОАО ""МПКО"", оф.501";Публичный договор № 1 от 12.01.2015г.
;"ООО ""Хематекс""";;;;"223017, Минская обл., Минский р-н, пос.Гатово, ОАО ""МПКО"", оф.501";"р/с № 3012110433017        в ОАО ""БПС - СберБанк"", г.г.Минск"
000000257;ХимВодоОчистка;;191583825; ;220113, г.Минск, ул.Лукьяновича 10, адм.корп.7, ком.603;Публичный договор № 1 от 01.07.13
;"Частное предприятие ""ХимВодоОчистка""";;;;220113, г.Минск, ул.Лукьяновича 10, адм.корп.7, ком.603;"р/с № 3012629690015        в ЗАО ""Трастбанк"", г.г.Минск"
000000097;Холтика Эверест;;192014063; ;220090, г.Минск, ул.Олешева, д.1, пом.316, оф.202;Публичный договор № 1 от 01.07.13г.
;"Частное предприятие ""Холтика Эверест""";;;;220090, г.Минск, ул.Олешева, д.1, пом.316, оф.202;"р/с № 3012061250016        в ОАО ""Банк Москва-Минск"", г.г.Минск"
000000150;Цветмет;;690236744; ;222160, Минская обл., г.Жодино, ул.Кузнечная, 26-15;Публичный договор № 1 от 01.07.13
;"Унитарное предприятие ""Цветмет""";;;;222160, Минская обл., г.Жодино, ул.Кузнечная, 26-15;"р/с № 3012143031011        в ЦБУ № 501 ОАО ""БПС-Сбербанк"", г.г.Жодино"
000000293;"Центр информационных технологий ""Биконсалт""";;190804719; ; ;Договор № 11 от 05.03.2015г.
;"Центр информационных технологий ""Биконсалт""";;;; ;"р/с № 3012009799118        в ""Приорбанк"" Открытое акционерное общество, г.г.Минск"
000000082;"Цифровая типография ""Колорадо""";;190632113; ; ;Основной договор
;"OOO ""Цифровая типография ""Колорадо""";;;; ;"р/с № 3012062240018        в ЗАО ""Минский транзитный банк"", г.г.Минск"
000000182;"Часовой завод ""Авангард""";;190245707; ; ;Договор
;"ОДО ""Часовой завод ""Авангард""";;;; ;"р/с № 3012032840008        в ОАО ""Технобанк"", г.г.Минск"
000000060;ЧинСофтБел;;191675847; ;220094, г.Минск, ул.Горовца, 32, помещение 130;Основной договор
;"ООО ""ЧинСофтБел""";;;;220094, г.Минск, ул.Горовца, 32, помещение 130;"р/с № 3012133810016        в ЗАО ""Минский транзитный банк"", г.г.Минск"
000000033;"ЧП ""Вебком медиа""";;190437288; ;220007, г. Минск, пер.Толстого,12-1;Договор №972012-К   дата возникновения обязательства :  02.09.12
;"ЧП ""Вебком медиа""";;;;220007,г. Минск, пер.Толстого,12-1;"р/с № 3012041450012        в ОАО ""Банк Москва-Минск"", г.г.Минск"
000000020;"ЧП ""Мисферо""";;191447948; ;220040, г. Минск.ул. Сурганова,88 пом.2;Счет договор №185Л   дата возникновения обязательства :  28.02.12
;"ЧП ""Мисферо""";;;;220040, г. Минск,ул. Сурганова,88, пом.2;"р/с № 3012055360013        в ОАО ""Банк Москва-Минск"", г.г.Минск"
000000021;"ЧП ""СВКомп плюс""";;191230739; ;г. Минск, ул. В.Хоружей,19. пом.4;Счет №295 от 28.02.2012г   дата возникновения обязательства :  28.02.12
;"Чп ""СВКомп плюс""";;;;г. Минск ул. В.Хоружей,189 пом.4;"р/с № 3012271019007        в ЗАО ""Альфа-Банк"", г.г.Минск"
000000030;"ЧТПУП ""Эконикбел""";;191180809; ; ;Основной договор
;"ЧТПУП ""Эконикбел""";;;; ;"р/с № 3012048720015        в ЗАО ""Минский транзитный банк"", г.г.Минск"
000000025;"ЧТУП ""Ультратек Ритейл""";;391262714; ; ;Счет №ИМЗ-000013 от 21.03.2012г.
;"ЧТУП ""Ультратек Ритейл""";;;; ;"р/с № 3012219110012        в ОАО ""Банк Москва-Минск"", г.г.Минск"
000000029;"ЧУП ""Кипиос""";;190552456; ; ;Основной договор
;"ЧУП ""Кипиос""";;;; ;"р/с № 3012014869001        в ЗАО ""БелСвиссБанк"", г.г.Минск"
000000144;"Щучинский завод ""Автопровод""";;500017371; ;231513, Гродненская обл., г.Щучин, ул.Советская, д.15;Договор 17012014 от 17.01.2014г.
;"ОАО ""Щучинский завод ""Автопровод""";;;;231513, Гродненская обл., г.Щучин, ул.Советская, д.15;"р/с № 3012127673017        в ЦБУ №406 ОАО ""БПС - Сбербанк"" г. Щучин, г.г.Щучин"
000000348;ЭДОН-92;;100152272; ;220033, г.Минск, ул.Судмалиса, д.26, оф.4б;Публичный договор № 2 от 12.01.2015г.
;"УП ""ЭДОН-92""";;;;220033, г.Минск, ул.Судмалиса, д.26, оф.4б;"р/с № 3012091360015        в ЗАО ""Минский транзитный банк"", г.г.Минск"
000000264;Эко Свет Центр;;191770468; ;233056, Минская обл., Минский р-н, Сеницкий с/с, д.Колядичи, ул.Лазурная, д.9, п.59;Публичный договор № 1 от 01.07.13г.
;"ООО ""Эко Свет Центр""";;;;233056, Минская обл., Минский р-н, Сеницкий с/с, д.Колядичи, ул.Лазурная, д.9, п.59;"р/с № 3012027782019        в ""Приорбанк"" Открытое акционерное общество, г.г.Минск"
000000282;Экоджет;;190933369; ;220047, г.Минск, ул.Герасименко, 1-338;Публичный договор № 1 от 12.01.2015г.
;"Частное предприятие ""Экоджет""";;;;220047, г.Минск, ул.Герасименко, 1-338;"р/с № 3012004137004        в ЗАО ""БелСвиссБанк"", г.г.Минск"
000000172;ЭкоМилк;;290473748; ;225710, Брестская обл., г.Пинск, ул.Калиновского, д.22;Публичный договор № 2 от 01.07.13
;"СООО ""ЭкоМилк""";;;;225710, Брестская обл., г.Пинск, ул.Калиновского, д.22;"р/с № 3012520659014        в ""Приорбанк"" Открытое акционерное общество, г.г.Минск"
000000199;Экспофорум;;100702781; ;220140, г.Минск, ул.Притыцкого, д.91, пом.432;Публичный договор № 1 от 01.07.2013г.
;"Выставочное унитарное предприятие ""Экспофорум""";;;;220021, г.Минск, ул.Челюскинцев, д.15, ком.2;"р/с № 3012006160016        в ОАО ""БПС - СберБанк"", г.г.Минск"
000000109;ЭлектроКабельКомплект;;191665291; ;220033, г.Минск, пр.Партизанский, 6Д, пом.3, ком.308в;Публичный договор № 1 от 01.07.13
;"ООО ""ЭлектроКабельКомплект""";;;;220033, г.Минск, пр.Партизанский, 6Д, пом.3, ком.308в;"р/с № 3012023496019        в ""Приорбанк"" Открытое акционерное общество, г.г.Минск"
000000093;Электромаркет;;190500865; ;"220121, г.Минск, ул.Притыцкого, 62, к.2, ком.106 ""В""";Публичный договор № 1 от 01.07.13г.
;"ООО ""Электромаркет""";;;;"220121, г.Минск, ул.Притыцкого, 62, к.2, ком.106 ""В""";"р/с № 3012019813013        в ""Приорбанк"" Открытое акционерное общество, г.г.Минск"
000000183;Электромаркетплюс;;190928874;(017) 394-44-81, -82, -83, -84, -85;220125, г.Минск, пр.Независимости, 177-24;Публичный договор № 1 от 01.07.13
;"Частное предприятие ""Электромаркетплюс""";;;;220125, г.Минск, пр.Независимости, 177-24;"р/с № 3012029727014        в ""Приорбанк"" Открытое акционерное общество, г.г.Минск"
000000180;Электросистемы;;101512685; ;220068, г.Минск, ул.Карастояновой, д.17, оф.1а;Публичный договор № 1 от 01.07.13
;"ОДО ""Электросистемы""";;;;220068, г.Минск, ул.Карастояновой, д.17, оф.1а;"р/с № 3012226060018        в ОАО ""Белинвестбанк"", г.г.Минск"
000000076;ЭлектроСпецМонтаж;;190406508; ;220036, г.Минск, ул.Р.Люксембург, 143-120;Публичный договор № 1 от 01.07.2013г.
;"УП ""ЭлектроСпецМонтаж""";;;;220036, г.Минск, ул.Р.Люксембург, 143-120;"р/с № 3012006757009        в ОАО ""Банк БелВЭБ"", г.г.Минск"
000000292;ЭлектроСтрим;;190680893; ;220125, г.Минск, а/я 64;Индивидуальный договор №24022015 от 24.02.2015г.
;"ООО ""ЭлектроСтрим""";;;;220125, Минская обл., Минский р-н, Боровлянский с/с, д.Копище, ул.Лопатина, д.6,пом.5;"р/с № 3012018770015        в ОАО ""Банк Москва-Минск"", г.г.Минск"
000000270;"Электротехническая компания ""ЭКНИС""";;190575885; ;220029, г.Минск, пр.Машерова, 17-506;Публичный договор № 1 от 12.01.15
;"ООО ""Электротехническая компания ""ЭКНИС""";;;;220029, г.Минск, пр.Машерова, 17-506;"р/с № 3012200581001        в ЗАО ""Альфа-Банк"", г.г.Минск"
000000055;ЭлектроХауз;;191125098; ;223053, Минский р-н, д.Боровая, 1, каб.229;Публичный договор № 1 от 01.07.2013
;"ООО ""ЭлектроХауз""";;;;220090, г.Минск, ул.Олешева, 5-1-17А;"р/с № 3012045790019        в ЗАО ""Минский транзитный банк"", г.г.Минск"
000000069;Элемер-Техно;;190766837; ;220024, г.Минск, ул.Стебенева, 20-2-215;Публичный договор № 1 от 12.01.2015г.
;"ООО ""Элемер-Техно""";;;;220024, г.Минск, ул.Стебенева, 20-2-215;"р/с № 3012000019161        в Филиал N 1 ОАО ""Белгазпромбанк"", г.г.Минск"
000000251;Элкотелеком;;190751103; ;220090, г.Минск, Логойский тракт 22а, оф.41, пом.2;Публичный договор №1 от 01.07.13
;"ООО ""ЭлкоТелеком""";;;;220090, г.Минск, Логойский тракт 22а, оф.41, пом.2;"р/с № 3012040370018        в ОАО ""Банк Москва-Минск"", г.г.Минск"
000000085;Элматрон;;100644758; ;220108, г.Минск, ул.Корженевского, 33, к.1;Публичный договор № 1 от 01.07.13г.
;"ЗАО ""Элматрон""";;;;220108, г.Минск, ул.Корженевского, 33, к.1;"р/с № 3012134670017        в ЗАО ""Банк ВТБ (Беларусь)"", г.220007, гюМинск, ул.Московская, 14"
000000158;Элос;;100036095; ;220024, г.Минск, ул.Кижеватого, 7, корп.2;Публичный договор № 1 от 12.01.15
;"УП ""Элос""";;;;220024, г.Минск, ул.Кижеватого, 7, корп.2;"р/с № 3012900460011        в ОАО ""Паритетбанк"", г.г.Минск"
000000285;Энекст;;191431991; ;220021, г.Минск, пер.Бехтерева, 10, пом.3402А;Публичный договор № 1 от 12.01.2015г.
;"ООО ""Энекст""";;;;220021, г.Минск, пер.Бехтерева, 10, пом.3402А;"р/с № 3012058110006        в ЗАО ""БелСвиссБанк"", г.г.Минск"
000000099;Энерго Ремонт Сервис;;790488399; ; 213823, РБ, Могилевская обл., г. Бобруйск, ул. Орловского, 25 «Б», корп. 5;Публичный договор № 1 от 01.07.13
;"ЗАО ""Энерго Ремонт Сервис""";;;; 213823, РБ, Могилевская обл., г. Бобруйск, ул. Орловского, 25 «Б», корп. 5;"р/с № 3012310610016        в ""Приорбанк"" Открытое акционерное общество, г.г.Минск"
000000178;Энергодар;;690525913; ;"220112, г.Минск, а/я 21 ООО ""Энергодар""";Публичный договор № 1 от 01.07.13
;"ООО ""Энергодар""";;;;223110, Минская обл., г.Логойск, ул.Победы, 80;"р/с № 3012343270013        в ОАО ""Белинвестбанк"", г.г.Минск"
000000237;ЭнергоМаяк;;191861641; ;220015, г.Минск, ул.Я.Мавра, 51-211;Договор № 09092014 от 09.09.2014г.
;"ООО ""ЭнергоМаяк""";;;;220015, г.Минск, ул.Я.Мавра, 51-211;"р/с № 3012551810014        в ОАО ""Технобанк"" Региональное управление № 4, г.г.Гродно"
000000175;ЭнергоСпецСнаб;;191364947; ;220004, г.Минск, пр.Победителей, 23, корп.1, оф.510;Публичный договор № 1 от 01.07.13
;"ЧТУП ""ЭнергоСпецСнаб""";;;;220004, г.Минск, пр.Победителей, 23, корп.1, оф.510;"р/с № 3012075850004        в ЗАО ""БелСвиссБанк"", г.г.Минск"
000000274;Энергостимул;;691171078; ;220035, г.Минск, ул.Тимирязева, 65, оф.404;Публичный договор № 1 от 01.07.2013г.
;"ООО ""Энергостимул""";;;;222410, Минская обл., Вилейский р-н, г.Вилейка, ул.Шубина 105, оф.1;"р/с № 3012918810015        в ОАО ""Паритетбанк"", г.г.Минск"
000000013;Энерком;;190454637; ; ;Основной договор
;"ООО ""Энерком""";;;; ;"р/с № 3012062040012        в Филиал N 529 ""Белсвязь"" ОАО ""АСБ Беларусбанк"" в г.Минске, г.г.Минск"
000000242;Энсбертех;;191326901; ;220012, г.Минск, ул.Чернышевского, 10, офис 62;Публичный договор № 1 от 01.07.13г.
;"ООО ""Энсбертех""";;;;220012, г.Минск, ул.Чернышевского, 10, офис 62;"р/с № 3012261650015        в Филиал ОАО ""Белагропромбанк"" - Минская городская дирекция, г.г.Минск"
000000174;ЭНЭЛТ КОМ;;191436738; ;220033, г.Минск, ул.Стрелковая, 14, каб.33;Публичный договор № 1 от 12.01.2015г.
;"ООО ""ЭНЭЛТ КОМ""";;;;220013, г.Минск, ул.Кульман, д.1, офис 29;"р/с № 3012050870016        в ОАО ""Банк Москва-Минск"", г.г.Минск"
000000087;Эра света;;691131295; ;220141, г.Минск, пр.Независимости, 172, комн.4;Публичный договор № 1 от 12.01.2015г.
;"ЧТУП ""Эра света""";;;;220141, г.Минск, пр.Независимости, 172, комн.4;"р/с № 3012028177014        в ""Приорбанк"" Открытое акционерное общество, г.г.Минск"
000000123;Эскатэл;;191852064; ;220024, г.Минск, ул.Асаналиева, д.27, 3эт.,к.5;Публичный договор № 1 от 12.01.2015г.
;"Частное производственно-торговое унитарное предприятие ""Эскатэл""";;;;220024, г.Минск, ул.Асаналиева, д.27, 3эт.,к.5;"р/с № 3012036600011        в ОАО ""Банк Москва-Минск"", г.г.Минск"
000000089;ЭССА;;300308780; ;210001, г.Витебск, ул.Революционная, д.20а;Публичный договор № 1 от 12.01.15г.
;"ОДО ""ЭССА""";;;;210001, г.Витебск, ул.Революционная, д.20а;"р/с № 3012200300019        в ОАО ""Технобанк"", г.г.Минск"
000000181;Эталон арматуры компани;;100755021; ;220014, г.Минск, ул.Попова, 26-10;Публичный договор № 1 от 12.01.2015г.
;"ООО ""Эталон арматуры компани""";;;;220014, г.Минск, ул.Попова, 26-10;"р/с № 3012034090017        в ОАО ""Франсабанк"", г.г.Минск"
000000250;Этонмаш-про;;691387982; ;223064, Минский р-н, ОПС Замосточье;Публичный договор №1 от 01.07.13
;"ООО ""Этонмаш-про""";;;;"223062, Минская обл., Минский р-н, д.Обчак, здание АПКЗАО ""Евроэкосервис"", кю4";"р/с № 3012036310014        в ОАО ""Франсабанк"", г.г.Минск"
000000102;ЮКАН и Ко;;191225555; ;220121, г.Минск, ул.Бельского, д.4, подъезд 3, к.6;Публичный договор № 2 от 12.01.2015г.
;"ООО ""ЮКАН и Ко""";;;;220121, г.Минск, ул.Бельского, д.4, подъезд 3, к.6;"р/с № 3012034300003        в ЗАО ""БелСвиссБанк"", г.г.Минск"
000000333;ЮКРГрупп;;691363304; ;222362, Минская обл., Воложинский р-н, а/г Доры, ул.Советская, д.5, ком.5;Публичный договор № 2 от 12.01.2015г.
;"ООО ""ЮКРГрупп""";;;;222362, Минская обл., Воложинский р-н, а/г Доры, ул.Советская, д.5, ком.5;"р/с № 3012263820011        в Филиал ОАО ""Белагропромбанк"" - Минское областное управление, г.г.Минск"
000000284;Юликом Плюс;;190635921; ;220114, г.Минск, ул.Тепличная, д.1, пом.4Н;Публичный договор № 2 от 12.01.2015г.
;"ООО ""Юликом Плюс""";;;;220114, г.Минск, ул.Тепличная, д.1, пом.4Н;"р/с № 3012000565742        в ОАО ""Белгазпромбанк"", г.г.Минск"
000000235;Яндекс;; ; ; ;Договор 26392/14 от 07.05.14г.
;"ООО ""Яндекс""";;;; ; 
