"v_contact_email","count"
"","2558"
" 0152 483021","1"
"10-syezd-sovetov@bizby.ru","2"
"117@7holmov.com","2"
"1327895@mail.ru","1"
"1415439@gmail.com","1"
"150657@mail.ru","4"
"1953733@mail.ru","3"
"1@interfeed.ru, 2760678@interfeed.ru","2"
"1@interfeed.ru? 2760678@interfeed.ru","1"
"1mpf@tut.by","1"
"1@utt.by","1"
"200-11-29","1"
"211@stotz.by","4"
"2162220@mail.ru","1"
"2223108@mail.ru","1"
"2253448@mail.ru","1"
"2481390@gmail.com","1"
"	2631571@mail.ru","1"
"2631571@mail.ru","1"
"2716403@mail.ru","1"
"2992152@mail.ru","3"
"3126867@mail.ru","1"
"3147@sardiko.ru","2"
"3266861@gmail.com","1"
"32zer@bk.ru","1"
"3373701@mail.ru","1"
"3402040@bk.ru","1"
"3470406@mail.ru","2"
"3681390@gmail.com","1"
"3681390@gmail.com, sales@belarus-tractor.com","2"
"3704000@mail.ru","1"
"+375 162 27-03-30","1"
"(+375 163) 41 76 67","1"
"+375 17 344-53-42","1"
"+375-177-73-24 57","1"
"375336169555@mail.ru","2"
"3s@tut.by","2"
"4040000_vitebsk.um.by@mail.ru","1"
"447262995@rambler.ru","1"
"4@beltank.ru, info@beltank.ru","1"
"5430099@mail.ru","2"
"5450183@mail.ru","2"
"5508080@list.ru","1"
"5553478@mail.ru","1"
"55k@tut.by","1"
"5648619@mail.ru","3"
"60185534509@mail.ru","1"
"6094020@gmail.com","1"
"6114458@rambler.ru","1"
"6121265@mail.ru","1"
"6204212@mail.ru","1"
"6228376@mail.ru","1"
"630555@rambler.ru","1"
"630555@rambler.ru, 3060835@mail.ru","2"
"6313997@tut.by","1"
"6333915@mail.ru","1"
"6363242@mail.ru","1"
"6443437@mail.ru","1"
"6448942@rambler.ru","2"
"6500774@inbox.ru","2"
"6502004@mirisan.by","1"
"6513828@tut.by","3"
"6648758@mail.ru","1"
"6660400@mail.ru, TenteBel@mail.ru","2"
"6669888@mail.ru","1"
"6670606@bk.ru","1"
"6714027@mail.ru","1"
"6766590@mail.ru","1"
"6766590@mail.ru, tehavto@tut.by","1"
"6786544@gmail.com","1"
"6786544@gmail.com, c_mb@tut.by","3"
"6930020@mail.ru","1"
"730081sbit@tut.by","3"
"7431103@mail.ru","7"
" 7472131@servolux.by","3"
"7577505@kolenkor.by","1"
"7666888@tut.by","1"
"7770096@tut.by","3"
"7948@list.ru","2"
"80162977450@mail.ru","2"
"80171344467@mail.ru","1"
"8-029-665-45-95","1"
"8533775@mail.ru","1"
"89127777805@mail.ru","1"
"891477774805@mail.ru","1"
"9628163237@mail.ru","1"
"9globus@mail.ru","1"
"9region2014@mail.ru","1"
"9region2014@mail.ru, 6341784@mail.ru","4"
"a2466s@mail.ru, akaton@mail.ru","1"
"a32652@yandex.ru","2"
"a4t1@mail.ru","1"
"a75164@mail.ru","2"
"a.ambrazheychik@grpp.by","1"
"abakanovich@gmail.com","2"
"ABGroup66@bk.RU","2"
"abs2011@bk.ru","1"
"a.butkevich@mvservice.by","2"
"ac@belagro.com","3"
"ac@belagro.com, ap.chernyi@belagro.com","1"
"accept_plast@mail.ru","6"
"acma@tut.by","3"
"adel@opem.by","1"
"adentina@mail.ru","3"
"adgo@mail.ru","1"
"adk@topixagro.com","3"
"admin@belhim.by","2"
"admin@ohota.by","2"
"admin@profplus.net","3"
"admin@usv.by","1"
"ad@onega.by","5"
"adoradobel@mail.ru","1"
"a.fanin@altfish.ru","1"
"a.gerasimchik@danprod.by","1"
"AGlushakov@veles-meat.by","3"
"agravis@yandex.ru","1"
"agrimatco.belarus@agrimatco-eu.com","2"
"agripo@mail.ru","1"
"agro1-stolin@brest.by","1"
"agrobalans@bk.ru","1"
"agrobrend-kompani@mail.ru","4"
"agrocepi@gmail.com","3"
"agrocomplect@tut.by","1"
"agrodah@mail.ru","3"
" agrodio.market@tut.by, diobyinfo@gmail.com","6"
"agrodor@tut.by","3"
"agrods@tut.by","2"
"agrodvs@tut.by","2"
"agrodvs@tut.by, agrodvs@yandex.ru, mail@agrodvs.by","1"
"agrodz2010@mail.ru","2"
"agroelitprodukt@rambler.ru","1"
"agrofiltr@tut.by","1"
"agrohelp2013@yandex.ru","4"
"agrokurs@mail.ru","1"
"agrolebedevo@tut.by","1"
"agroliprom@tut.by  ","2"
"agroluch@tut.by","1"
"agromarketing@tut.by","2"
"agromaschmarket@mail.ru","2"
"agromash07@yandex.ru","1"
"agromashrb@mail.ru","3"
"agromaster@agromaster.by","2"
"agromehpark@mail.ru","5"
"agromirgrupp@mail.ru","2"
"agromoch68@mail.ru","2"
"agro-m@tut.by","2"
"agro-obereg@yandex.ru","1"
"agrooilltc@gmail.com","2"
"agroplus-balans@bk.ru","2"
"agropp@tut.by","8"
"agroprod@tut.by  ","2"
"agroprom@open.by","1"
"agropromsila@mail.ru","1"
"agroremmotors@mail.ru","1"
"agro@riona.by","1"
"agrorussalproduct@mail.ru","1"
"agroselische@uschachi.apk.by","1"
"agrosemservis@tut.by","1"
"agroservis_ssk@tut.by","1"
"agrospost@mail.ru","2"
"agrostep2@mail.ru","3"
"agrostep@inbox.ru","2"
"agrostyle@list.ru","1"
"agrosvetl@tut.by","2"
"agrotehholding@gmail.com","1"
"agrotehnogarant@gmail.com","1"
"agroteplica@tut.by","1"
"agro@terol.by","3"
"agrotesta@gmail.com","2"
"agrotikajhuk@gmail.com","1"
"agrotika@yandex.ru","1"
"agrotika@ya.ru","1"
"agrotranzit@mail.ru","1"
"agrousadba-okolisa@tut.by","1"
"agrovedby@gmail.com","3"
"agrovetby@gmail.com","1"
"agrovetplus@telecom.by","1"
"agro-zaschita@mail.ru","2"
"aho_74@mail.ru","2"
"aitador_2004@tut.by","1"
"akaton@mail.ru","1"
"ak@btcvent.ru","3"
"akd_market@tut.by","4"
"a.kirko@siti.by","2"
"aksana.karavikava@partners.basf.com","1"
"aktes08@yandex.ru","1"
"a.kulinich@aquamin.by","1"
"a.kulinich@aquamin.by, belavtonik@mail.ru","1"
" akvilonavto@bel-shop.com","1"
"akvilonta@mail.ru","1"
"al35@tut.by","1"
"a.latyshev@repolimer.by","1"
"albitek@mail.ru","1"
"aleksandr.klimov@","1"
"aleksandr.klimov@servolux.by","1"
"alekseev.sash@yandex.by","1"
"aleksey_isaev_agro@mail.ru","1"
"alekstehno@tut.by","2"
"alekstehno@tut.by, aaalex@tut.by","1"
"aleks-z2@yandex.ru","2"
"aleshkewi4tatjana@tut.by","5"
"alesia.korbut@basf.com","7"
"alesia.korbut@basf.com, al.korbut@gmail.com","1"
"alexander.kurtsevich@sis.com.by","2"
"alexandriya-sbyt@mail.ru","5"
"alexandr.klimov@servolux.by","6"
"alexandrmtg@gmail.com","1"
"alexandr.pareniuc@alfa-nistru.com","1"
"alexeymarket@gmail.com","2"
"alex@himimport.by","1"
"alexin52@mail.ru","4"
"alex.malevich33@mail.ru","1"
"alexsandr@tehgidroimp.com","1"
"alextrade.by@gmail.com","1"
"alex.volma@mail.ru","1"
"alfa-bgm@mail.ru","3"
"alfapanel@mail.ru","1"
"alfaunion@mail.ru","2"
"alfaunion@mail.ru, armati.by@mail.ru","1"
"algar2000@mail.ru","1"
"a.lialiuha@elredy.by","2"
"alina.samodelova@mail.ru","7"
"alla735@mail.ru","1"
"alnikor@tut.by","1"
"alo3000@yandex.ru","1"
"alpine-oil@inbox.ru","2"
"altaj.menager@mail.ru","1"
"alvetta-plus@tut.by","1"
"alzmetal@mail.ru","1"
"AM3318@mail.ru","3"
"a-m71@mail.ru","1"
"a_mamro@mail.ru","2"
"amantreding@mail.ru","2"
"a.mariasov@sivetra-agro.ru","3"
"amkador_dz@mail.ru","1"
"amkodoragro@mail.ru","1"
"amkodor_dz@mail.ru","1"
"amksbyt@mail.ru","2"
"amvreklama@mail.ru","1"
"anastasia@agromir.by","1"
"anastasiya.kazhushka@syngenta.com","2"
"anastasiya.mikhalkevich@partners.basf.com","1"
"anbmail@mail.ru","1"
"andeikstroi@mail.ru","1"
"andrew.gricevich@istela.com","1"
"andrewrocks77@mail.ru","1"
"andrey@belpauer.com","1"
"andrey@kamabel.by","4"
"andrey.moraru@simbio.ru","1"
"andrey.poluektov@danone.com","1"
"andreyvdauto@gmail.com","1"
"angar@anga.ru","1"
"a-nikitin@soyz.by","1"
"anis2407@gmail.com","1"
"ankarimek@tut.by","2"
"ankiona777@mail.ru","2"
"anklav-d@mail.ru","1"
"anroxplus@gmail.com","1"
"anton@btcvent.ru","2"
"anton_georgievich@mail.ru","1"
"anvent@tut.by","1"
"anvitem.bel@gmail.com","1"
"anya@agrigo.ru","1"
"apitoks@mail.ru","1"
"apk.oborudovanie@gmail.com","2"
"apkservis@vitebsk.by","2"
"apricot-export@mail.ru","1"
"aps2011@bk.ru","3"
"aps2011@bk.ru, 6714027@mail.ru","1"
" aqualend@mail.ru","2"
"aquaprestigeplus@mail.ru","1"
"arditeh@mail.ru","3"
"Argamak-StudFarm@mail.ru","1"
"argitminsk@yandex.ru","1"
"argoproltd@gmail.com","1"
"arial_com@mail.ru","3"
"armnett@mail.ru","2"
"	aromaton18@mail.ru","1"
"arsenh13@rambler.ru","1"
"arsiplus@tut.by","1"
"ars-odo@yandex.ru","8"
"arsoy@tut.by","2"
"ars-rem2008@mail.ru","1"
"arston_01@mail.ru","1"
"artemenko@slavfood.by","2"
"artemenkov.pavel@rambler.ru","1"
"artemitc@gmail.com","4"
"artemkumpiak@mail.ru","1"
" artemov@tut.by","1"
" artemow@tut.by","3"
"arti-2005@yandex.ru","2"
"artmetplus@mail.ru","1"
"asha7771@mail.ru","2"
"as_minsk@mail.ru","2"
"ASS2012@list.ru","1"
"asv@zavodrti.ru","1"
"ate.ruslan@mail.ru","2"
"Atlantzkv@mail.ru","7"
"atmiveco@gmail.com","2"
"atp-07@mail.ru","2"
"atram7@mail.ru","1"
"atram7@mail.ru, atram7@bk.ru","1"
"atroschenkov@brestagro.com","2"
"atr_rad@tut.by","2"
"atrushkevich@belsnab.com, minsk@belsnab.com","7"
" ats@ats.by","2"
"at@varianta.by","2"
"autoeuroexpress@mail.ru","2"
"avantagebel@mail.ru","3"
"aviland@mail.ru","1"
"avi@netexpert.by","3"
"av@kirovets-tm.ru","1"
"avp78@tut.by","1"
"avproff@mail.ru","1"
"avtocomelena@mail.ru","2"
"avtodar@rambler.ru","3"
"avtogruzs@rambler.ru","1"
"avtolegioner@tut.by","3"
"avtologika10@mail.ru","4"
"	avtotex@mail.ru","1"
"avtotex@mail.ru","2"
"avtovelum@mail.ru","1"
"avtozp@gmail.com","2"
"b_agro@vitebsk.by","1"
"bapr.ild@gmail.com","2"
"barhleb@mail.ru","1"
"barvolno@rambler.ru","2"
"barzaia@bk.ru","1"
"barzaia@bk.ru, dogs@pitomnik.biz","1"
"Basak@izmeritel.org","1"
"basalaeva.n@criola.by","3"
"bazvlad@mail.ru","1"
"bb007@tut.by","1"
"bbkompany@yandex.by","2"
"bcz@mail.ru","1"
"bearings@luchllc.ru","2"
"bedin.m@bk.ru","1"
"belagrogarant@mail.ru","2"
"belagrogarant@mail.ru, agropolymya@gmail.com","1"
"belagroliga@tut.by","1"
"belagro@list.ru","1"
"bel.agro@mail.ru","1"
"belagromarket@mail.ru","5"
"belagro-omts@tut.by","3"
"belagrorost@tut.by, info@belagrorost.by","2"
"belagrosbit@mail.ru","4"
"belagrosbit@yandex.ru, mymixx@ya.ru","1"
"belagrovent@mail.ru","2"
"belama@inbox.ru","1"
"belanalitic","1"
"belanalitic-compani@mail.ru","1"
"belantatrend@mail.ru","1"
"belaruskali.office@kali.by","2"
"belarus_partner@mail.ru","6"
"belasi@mail.ru","2"
"belatim@mail.ru","1"
"belatim@mail.ru, atim_tech@mail.ru, unibel@belatim.by","2"
"belbakaleya26@tut.by, belbakaleya.marketing@gmail.com","2"
"belbio@mail.ru","1"
"belbiotehpro@gmail.com","2"
"Belchimset@tut.by","2"
"belcs-info@tut.by","1"
"beldem@beldem.ru","1"
"beldetali@tut.by","1"
"beldozameh@mail.ru","5"
"belfidagrokt@gmail.com","2"
"bel.hoz@mail.ru","1"
"belindustry@mail.ru","1"
"belinfoteks@inbox.ru","1"
"belintergen@tut.by","2"
"bel-int@mail.ru","1"
"beliodobrom1995@mail.ru, beliodobrom@solo.by","2"
"beliodobrom@solo.by","3"
"belis@tut.by","1"
"belkarolin@bk.ru","3"
"belkis2010@mail.ru","2"
"belkrist@bk.ru, bizneskrist@mail.ru","4"
"belmarket@brestselmash.by","1"
"belmashmet@gmail.com","2"
"belmatimex@gmail.com","1"
"belniio.market@mail.ru","1"
"bel_opt@rambler.ru","1"
"belplast@mail.ru","2"
"belplaywood@gmail.com","1"
"belportal2010@tut.by","1"
"belport@tut.by","1"
"belpozhstroy@mail.ru","1"
"belpozhtorg@mail.ru","2"
"belprofshina@yandex.ru","3"
"belpro@protein.by ","5"
"belpumps@mail.ru","2"
" belrenby@gmail.com, rennetproduct@gmail.com","1"
"belrosfintorg@mail.ru","1"
"belsanozon@mail.ru","1"
"belselhozsnab@gmail.com","2"
"belshina-agro@mail.ru","1"
"belspecagromash@gmail.com","2"
"belstal@bk.ru","2"
"belstrois@mail.ru","1"
"beltechgrand@mail.ru","1"
"beltechprivod@mail.ru","1"
"beltehavtoprom@mail.ru","1"
"beltrans2010@rambler.ru","2"
"beltransaudit@gmail.com","1"
"beltrufsmakinfo@gmail.com","3"
"belzernogrupp@tut.by","3"
"belzerno@list.ru","2"
"BenaM@mail.orbitel.bg, BenaM@yandex.ru","1"
"benda.sergei@yandex.ru","2"
"benko@maxivin.by","2"
"benzo.shop@mail.ru","1"
"bereza_kkz@rambler.ru","1"
"bereza_kkz@tut.by","4"
"berezapmk-3@mail.ru","2"
"berezatara@mail.ru","2"
"berezatara@mail.ru, berezatara@tut.by","6"
"berezatara@tut.by","2"
"berezino_product@tut.by","1"
"berezki@mail.gomel.by","2"
"bertsch@infonet.by","1"
"besi0n0kk@gmail.com","2"
"best.manager@gmail.com","2"
"best.manager@gmail.coom","1"
"betrufsmakinfo@gmail.com","1"
"bf-spartak@mogilev.by","2"
"bhpmarket@brest.by","1"
"bif@sml.by","1"
"biltong.by@mail.ru","2"
"bioprod@mail.ru","1"
"bislexy15@gmail.com","1"
"bitisagro@yandex.ru","1"
"biuro.warszawa@ursus.com.pl","1"
"bizneskrist@mail.ru","1"
"bke@topixagro.com","1"
"bkhp1@yandex.ru","3"
"bkhp_market@mail.ru","4"
"bkhp_market@mail.ru /8552091@gmail.com","1"
"bkpp@tut.by","4"
"blmstroy@mail.ru","2"
"blr@blrkomplekt.by, 6443437@mail.ru","1"
"bluegold@tut.by","2"
"bmi@agu.by, reklama@agu.by","1"
"bmilk@tut.by","2"
"	bmk2003@mail.ru","1"
"bmk2003@mail.ru","6"
"bmk2003@mail.ru, priem@bobrmk.by, ved-bmk@list.ru","1"
"bmk2003@mail.ru, ved-bmk@list.ru","1"
"bmpi@mail.ru","3"
"bmrz@tut.by","3"
"bmz@inbox.ru","3"
"bmzsbyt@yandex.ru","1"
"bolis79@mail.ru","1"
"bolis79@mail.ru, pro7dam@gmail.com","1"
"bonza@vitebsk.by","1"
"bonza@vitebsk.by, info@tehno.by","1"
"borimak2010@yandex.by","3"
"borimak_ko@mail.ru","3"
"borimak_ok@mail.ru","1"
"boris77793@gmail.com","3"
"borkhp@mail.ru","2"
"boss_666@tut.by","1"
"box@inthouse.by","2"
"boyko_oa@alivaria.by","1"
"braias@tut.by","1"
"brat@agu.by, bmi@agu.by, reklama@agu.by","2"
"bresthleb@yandex.by","2"
"bresthleb@yandex.ru","3"
"bresthleb@yandex.ru, info@bhp.by","5"
"brestmmp@tut.by","1"
"brestopt@rambler.ru","2"
"brestprom@gmail.com","4"
"brestras@tut.by","1"
"brestsortsemovosch@mail.ru","1"
"brest-teremok@mail.ru","2"
"brestteremok@mail.ru","1"
"bro.mzs@tut.by","2"
"brovar111@yandex.ru","1"
"brukish@tut.by","1"
"Bsales@hlebprom.gomel.by","4"
"bslaveni@tut.by","1"
"bsmash777@gmail.com","2"
"BSMash@mail.by","4"
"BSMash@mail.by, bsmash777@gmail.com","3"
"BSMash@mail.by, bsmash777@gmail.com, odionaelena@gmail.com","1"
"bsyr@mail.ru","4"
"bsz.09@mail.ru","2"
"bttminsk@mail.ru","1"
"bttreklama@mail.ru","1"
"btx07@mail.ru","1"
"budaservis@mail.ru","1"
"bujoragro@yandex.ru","3"
"bulbaland@inbox.ru","4"
"bumtara@bumtara.by","1"
"burak@acma.by","1"
"burvod@tut.by","1"
"bva@bva.by","3"
"bvp@bvp.by","2"
"bzn.bobruisk@mail.ru","3"
"bzn-marketing@mail.ru","1"
"bzrm@mail.ru","2"
"cargobrest@gmail.com","1"
"centerluxtrans@yandex.ru","2"
"cenunitec@gmail.com","3"
"chashniki-agro@mail.ru","1"
"cheeseland@mail.ru","4"
"chemicals@eurochem.ru","1"
"chempack@chempack.ru","1"
"chirec@tyt.by","1"
"chubayas@mail.ru","1"
"chymak@mozyr-svz.by","1"
"claas777@yahoo.com","1"
"com1900@yandex.ru","2"
"commerce@stesmol.com","3"
"company@belhol.by","1"
"contact@francegroup.org","1"
"costan2006@yahoo.it","1"
"cpirubg@umail.ru","1"
"cpirubsh@umail.ru","1"
"cpk_irina@mail.ru","1"
"criola@mail.ru","3"
"cruaton@gmail.com","1"
"daimang.info@by","1"
"daimang.info@mail.ru daimang@mail.ru","2"
"daimas-lida@mail.ru","1"
"dainty@dainty.by","3"
"dak2905@mail.ru","2"
"d-antuhevich@mail.ru","1"
"dashabns@gmail.com","2"
"david_hb@rambler.ru","2"
"Davydov_A_A@mail.ru","1"
"d.danilov@havier.by","2"
"dddddd.egorov@yandex.ru","2"
"ddmovska@organika.by","1"
"ddmowska@organika.by","1"
"dehterenok.a@van.by","3"
"delaval.zao@delaval.com","1"
"demenecagro@uschachi.apk.by","2"
"demenkov.oleg2011@yandex.by","1"
"demetra@1ak.ru","3"
"demetrix-m@mail.ru","2"
"denis@malikon.by","2"
"densher@tut.by","1"
"denzubovsky@falia.by","5"
"des@lidalkm.by","1"
"devagrosnab@tut.by","3"
"developer02@evipack.com","1"
"developer03@evipack.com","1"
"dexma@dexma.by","1"
"diamondfruit@dmf.by ","1"
"diana@kaufmann-trade.de","5"
"diana.kfh@fermer.by","3"
"dianita_4@mail.ru","1"
"dina_dragun@mail.ru","1"
"dina_dragyn@mail.ru","3"
"diobyinfo@gmail.com","1"
"d.iodo@kormir.by","2"
"diodo@kormir.by","1"
"dipkun@mail.ru","1"
"dir@dmx.by, demetrix-m@mail.ru","3"
"director@aminar.by, info@laminar.by","1"
"director@belogorie.by","1"
" director@bsf.by","1"
"director@bsf.by","1"
"director@laminar.by, info@laminar.by","4"
"director@milk.by","1"
"direktor@vitkpk.by","1"
"dir@lkombi.com","1"
"distribution@eurochem.ru","2"
"dividendagro@gmail.com","1"
"dizeltehnoresurs@tut.by","3"
"d.kienko@siti.by","4"
"dl6828029@gmail.com","1"
"dmitrii_gaiduk@mail.ru","3"
"dmitrii-stolin@mail.ru","2"
"dmitrik.21gazon@gmail.com","1"
"dmitrik.21gazon@mail.com","1"
"dmitri-stolin@mail.ru","1"
"dmitry.evsikov@basf.com","2"
"dmitrykutko7@gmail.com","1"
"dmitry@skratomka.by, birzha@skratomka.by","1"
"dntp@mail.ru","2"
"dogs@pitomnik.biz","1"
"dok2905@mail.ru","1"
"dokadiesel@tut.by","1"
"dokagsa2@tut.by","1"
"dom6@inbox.ru","1"
"dom-s-s@mail.ru","2"
"donomal555@gmail.com","2"
"dorkomteh@ya.ru","2"
"dorstar@tut.by","1"
"dostavka-ovoschey@yandex.by","3"
"dp.gimel@belagro.com","1"
"d-pol@list.ru","1"
"d_prest@econom.by","1"
"drgkkz@tut.by","3"
"DronovMG@mail.ru","1"
"drozdov-84@mail.ru","1"
"dsm9@mail.ru","3"
"d.s.mekdel@gmail.com","1"
"d.s.mendel@gmail.com","4"
"d.s.mendel@gmail.com; potapchuk@tut.by","3"
"dubagroservis@mail.ru","1"
"dusen1@yandex.by","1"
"duvas@tut.by","1"
"dvi1375@mail.ru","1"
"dvvz@tut.by","2"
"dzenisenka@yandex.ru","1"
"dzerzginskras@tut.by","1"
"e5824479@gmail.com","1"
"e7765355 ","1"
"e.bounce@francegroup.org","2"
"e.chendeva@balmiko.ru","1"
"ecoflora.by@mail.ru","2"
"econom100@yandex.ru","2"
"economagro@tut.by","1"
"economlux@mail.ru","3"
"eco.prom.panel@mail.ru","2"
"ecotei@mail.ru","1"
"ecstract@tut.by","1"
"e.dmitruk@vidistar.by","1"
"e.dolgii@krinitsa.by, marketing@krinitsa.by","1"
"edon92@mail.ru","1"
"egencies@kosher.by","2"
"egencies@kosher.by /info@koser.by/isra.smi@gmail.com","1"
"e.guzenko@igc.by","1"
"e@hvo.by","1"
"ei_8@econom.by","2"
"ekaterina.bissologroup@gmail.com","1"
"eko7960@yandex.ru","1"
"ekopremix@gmail.com","1"
"ekoragrupp@yandex.ru","1"
"ekovetfarm@mail.ru","1"
"elastotehnika@mail.ru","2"
"electrica2002@tut.by","2"
"electroautomat@mail.ru","1"
"elektroarsenal@tut.by","2"
"elektromaximum@gmail.com","2"
"elemash-com@yandex.ru","1"
"elena@bat.by","2"
"elena@bmik-aquapack.by, info@bmik-aquapack.by","1"
"elena.g@schetelig.by","1"
"elena.g@scheteling.by","1"
"elena.herasimenka@leipurin.com","1"
"elena-luchok@mail.ru","1"
"elena.polymya@gmail.com","2"
"elenasa11@mail.ru","1"
"elevplast@tut.by, sale@apsm.by","2"
"	elit-aroma@yandex.ru","1"
"elit-aroma@yandex.ru","1"
"Elitnaj_lochad@fermer.by","2"
"ellit-m@mail.ru","1"
"elma.vitebsk@tut.by","7"
"elskonservny@rambler.ru","1"
"eltk@mail.ru","1"
"elxert.company@gmail.com","1"
"elya_1981@tut.by","1"
"empireveka@mail.ru","7"
"emu@zepk.by","1"
"energoartis@mail.ru","2"
"	energospecsnab@mail.ru","2"
"energospecsnab@mail.ru","1"
"energoth@mail.ru","6"
"energy.minsk@mail.ru","1"
"energytm@newmail.ru","2"
"ermachenkov.vv@holodon.by","1"
"e.r.s@mail.ru","1"
"e.saltykova@bk.ru","1"
"e.saltykova@bk.ru, ","1"
"e.shulitskaja@bellakt.com","2"
"e.shulitskaja@bellakt.com, marketing@bellakt.com","1"
"eurocara@bk.ru","2"
"EuroChem-BMU@eurochem.ru","1"
"eurochem-volgakaliy@eurochem.ru","1"
"europican@gmail.com","1"
"eurotech2008@yandex.ru","1"
"evrop1@mail.ru","1"
"export@biocom.grodno.by","1"
"eydjen@inbox.ru","1"
"faraon-t@mail.ru","3"
"fariteks@land.ru ","3"
"farmagroservice@gmail.com","2"
"faun.bio@mail.ru","1"
"faun-sale@mail.ru, faun.bio@mail.ru, faun.bio2@tut.by","1"
"favit-marketing@rambler.ru","4"
"Fax_kdr@eurochem.ru","1"
"f.baranov@tut.by, a.furs2010@yandex.ru","2"
"fea.mdk.minsk@yandex.by","2"
"fedchenko@difa.by","1"
"fedichek@mqil.ru","1"
"Feleti- торговая марка","1"
"ferm64@mail.ru","2"
"ferm64@mail.ru, vasilek62@mail.ru","1"
"fertilizers@eurochem.ru","1"
"fh_alvimur@mail.ru","1"
"fhpol@sugar.by","1"
"fh_rechnoe_rb@mail.ru","1"
"fh_september@tut.by","1"
"filtrmash@mail.ru","3"
"finaces-consult@yandex.ru","1"
"finaeva@gsr.by","3"
"finances-consult@yandex.ru","2"
"findirector@pikant.by","1"
"firma@mactep.by, 2019413@mail.ru","5"
"fishloktyshi@gmail.com","3"
"fisonlida2015@gmail.com, fison_lida@mail.ru","1"
"fison_lida@mail.ru","10"
"fison_lida@mail.ru, fisonlida2015@gmail.com","1"
"flaxbelarus@gmail.com","2"
"flexoil@mail.ru","2"
"flybel_ri@mail.ru","1"
"fobos-ig@mail.ru","2"
"fomar@fomar.by","1"
"forwork6@gmail.com","1"
"fox.packaging.minsk@gmail.co","2"
"franc@makei.by","1"
"freidzinzon.v@gmail.com","1"
"freyer.bel@gmail.com","2"
"fruktoff@mail.ru","1"
"ftg@belshintorg.by","1"
"furgonmaster_1@mail.ru","1"
"fvm_2001@mail.ru","2"
"fxolshany@mail.ru","1"
"gac@gomelagro.com    ","2"
"galeart@tut.by","1"
"galeya@rambler.ru","1"
"gamma.vkusa@tut.by","3"
"gamz-86@mail.ru","5"
"gamz-86@mail.ru, alex_gamz@mail.ru","2"
"garantagro@yandex.ru","2"
"garant.com@tut.by","3"
"gastellovskoe@mail.ru","1"
"gavrilov@agroakademia.ru","1"
"gazarsenal@mail.ru","4"
"gazkontrakt@tut.by","3"
" gd@smolsteh.ru","2"
"gd@smolsteh.ru","1"
"ggs_company@mail.ru","1"
"gidroliz@mail.ru","2"
"gidrom1287@mail.ru","2"
"gidro@milena.by","5"
"gladysh@psv.by","1"
"glbagroadm@tut.by","1"
"glmkk_market@mail.ru","4"
"glp@kristal.by","2"
"glub_kkz_market@mail.ru","3"
"glubmk@tut.by","1"
"glubokoehleb@tut.by","1"
"glukashik@azot.com.by","1"
"gmk_mark@mail.ru","3"
"gmk_mark@mail.ru, gmk_mark@mkgomel.ru","1"
" gmk@tut.by","1"
"gmr-hors@tut.by","1"
"gmrz-hors@tut.by","3"
"gncsht@mail.ru","1"
"g.nikitin@mzdnepr.by","1"
"go@akvadiv.by","3"
"go@akvadiv.by, o.galimsky@akvadiv.by","1"
"gogli@mail.ru","1"
"golshany-zavod@mail.ru","2"
"gomelagro@yandex.ru","3"
"gomelhimtorg@tut.by","2"
"gomelmotor@rambler.ru","1"
"gomelmotor@rambler.ru-отправлять заявки","1"
"gomelwine@gmail.com","5"
"gorkilen@mail.ru","1"
"gorkimsz@tut.by","3"
"gorodovoy.by@tut.by","2"
"goryn1956@mail.ru","1"
"gosha505@gmail.com","1"
"gpplantarum@yandex.by","1"
"gradinar@unibox.by","1"
"grandst@tut.by","3"
"gras.priemnaya@gmail.com","1"
"grichik1958@yandex.by, faun-contact@mail.ru","2"
"grifagro@tut.by","1"
"grinkova74@mail.ru","3"
"grnvdpncxt@mail.grodno.by","1"
"grodnoagroinvest@tut.by","3"
"grodnohleb@mail.ru","2"
"grodno@list.ru","1"
"grsxt@tut.by, market@oblsht.by","1"
"gts-agro@mail.ru","1"
"guk@isuzutrucks.by","1"
"gulis.k@mail.ru","1"
"gurina@azot.com.by","1"
"gurski@bpi.by","1"
"gzvp@tut.by","2"
"haiduk@intercom.by","1"
"hairulloh_1990_9@mail.ru","1"
"hanna.rydkina@basf.com","5"
"hardmotors@mail.ru","1"
"harkova@zlatogor.by","1"
"harvist@iptel.by","1"
"hemateks@mail.ru","3"
"hemateksvet@mail.ru","1"
"henk@zzcoldstore.nl","1"
"hladagent-srv@tut.by","1"
"hladagent@tut.by","3"
"hlado2@mail.ru","1"
"hleb_commerc@mail.ru","1"
"hlebdar@mail.ru","2"
"hlebgrodnomarket@mail.ru","4"
"hlebnydvor@yandex.ru","2"
"hleb_sm@mail.ru","2"
"hl_stolin@rambler.ru","1"
"holliwood@mail.ru","1"
"holod@hig.by","2"
"holod@intercom.by","6"
"horbach@moroz.by","2"
"HoroschevAP@eurotorg.by","2"
"hren-optom@mail.ru","1"
"hr@premia.by","1"
"hzavod@tut.by","3"
"iadamchenko@gmail.com","1"
"idvornik@tut.by","1"
"ifedosov@helvet.ru","2"
"i.gabuniya@apsnyholding.com ","1"
"ignatichi.oao@gmail.com","3"
"ignatichi_oao@rambler.ru","2"
"igoshin_1998@list.ru","2"
"iisplus@mail.ru","1"
"i.kanash@convexintl.de","1"
"iklenits@tut.by","1"
"ilovo@rambler.ru","1"
"ilya.paukolas@buhlergroup.com","1"
"im@belagro.com, marketing@belagro.com, im@belagro.com","3"
"inbelby@tut.by","1"
"info@7holmov.com","1"
"info@agrofolio.by","3"
"info@agroholding.by","3"
"info@agroimport.biz ","1"
"info@agroin.by, kostyaskif@gmail.com ","4"
"info@agroin.by, kostyaskif@gmailcom ","1"
"info@agromash.by","2"
"info@agromilk.by","2"
"info@agromir.by","3"
"info@agropromsila.by","2"
"info@agrostyle.by","3"
"info@agrostyle.by, agrostyle@list.ru","1"
"info@agrovet31.ru","1"
"info@agrovita.by","2"
"info@agtoholding.by","1"
"info@akorim.by","3"
"info@akvadiv.by","1"
"info@akvilonavto.com","3"
"info@albion.by","1"
"info@alkid.com","2"
"info@alutech-doors.by","1"
"info@alvaris.by","2"
"info@alvaris.by, info@prihoda.by","2"
"info@ansvet.by","1"
"info@aobrt.by","2"
"info@arenaflowers.by","2"
"info@arvibelagro.by","1"
"info@asstor.by","1"
"info@autobis.org","4"
"info@autotm.by","2"
"info@balanstorg.ru","4"
"info@bas.by","4"
"info@belagrobaltic.by","1"
"info@belagrorost.by","1"
"info@belavtoshina.by","1"
"info@belcentro-i.by","4"
"info@beldairy.by","4"
"info@beldan.by","1"
"info@beleko.by","1"
"info@belholod.com","1"
"info@belkras.by","1"
"info@bel-sad.by","1"
"info@beltank.ru","2"
"info@beltitan.by","6"
"info@beluaz.by","1"
"info@belupack.by","3"
"info@belvet.by","1"
"info@bhp.by","2"
"info@bmik-aquapack.by","6"
"info@bmpp.by","1"
"info@bogdanov.org","1"
"info@broks.by","2"
" info@bsf.by     ","1"
"info@butb.by","5"
"info@butb.by, korol_sv@mail.ru","2"
"info@butb.by/korol_sv@mail.ru","4"
"info@chefs.by","1"
"info@chisty-svet.by","1"
"info@cushingplastic.by","2"
"info@danprod.by","2"
"info@detavi.com","1"
"infodetel@tut.by","2"
"info@dojusbelagrobaltic.by","1"
"info@dojusbelagrobaltic.by, aliaksei.yurchuk@dojusbelagrobaltic.by","6"
"info@dominiontransservice.by","1"
"info@edafos.by","2"
"info@efis.lt","1"
"info@ekt.by","1"
" info@eltrust.by, zakaz@eltrust.by","2"
" info@eltrust.by, zakaz@eltrust.by, igni@tut.by","4"
"info@endokrin.by","2"
"info@espacking.by ","2"
"info@fabikstil.com","1"
"info@fam.by","2"
"info@flyfishsoft.com","1"
"info@forjet.by","3"
"info@francemotors.by","1"
"info@frandesa.by, olga_t@frandesa.by","1"
"info@fritum.by","1"
" info@gaspadar.by, nmarket@gaspadar.by","2"
"info@globalagro.by","2"
"info@gms.by","5"
"info@greenton.by","1"
"info@gurtam.by","4"
"info@hpro.by","1"
"info@ilkomgroup.by","2"
"info@ilkomgroup.by, ccc.50@ilkomgroup.by","1"
"info@initor.by","5"
"info@interros.by","4"
"info@invet.by","3"
"info@invit.by","1"
"info@keapl.by","1"
"info@kins.by","2"
"info@konsigma.by","2"
"info@kormas.by","1"
"info@krion.by","1"
"info@kronos5.by","2"
"info@kv-partner.com","2"
"info-lak@tut.by","2"
"info@laminar.by","3"
"info@marketgroup.by","2"
"info@maxagro.by","2"
"info@meatprod.ru, sales@meatprod.ru","1"
"info@mecmargroup.org","2"
"info@megaprom.by","1"
"info@metizsnab.by","1"
"info@milkgroup.by","2"
"	info@miragro.by","1"
"info@miragro.by","1"
"info@mogilevtorg.by","1"
"info@montblanc.by","1"
"info@mtsp.by","1"
"	info@muka.by","2"
"info@neoforce.ru","2"
"info@newetalon.by","2"
"info@nikisbel.by","2"
"info@nusciencegroup.com","1"
"info@nvek.by","1"
"info@onzaauto.by","1"
"info@plemminsk.by","3"
"info@polifas.by","1"
"info@polifas.by, polifas@nsys.by","3"
"	info@polikonta.by","1"
"infopolimer07@mail.ru","1"
"info@polymya.by, polymya.ru@gmail.com","1"
"info@prihoda.by","1"
"info@prihoda.by, info@alvaris.by","1"
"info@prodexpo.by","1"
"Info.profstandart@gmail.com ","1"
"info@prom.by","1"
"info@rinaplastic.ru","1"
"info@rmz.by","1"
"info@rodolit.by","1"
" info@rosate.by","2"
"info@rustrak.by","2"
"info@sgteh.by","1"
"info@shtrih.by","1"
"info.silanta@mail.ru","2"
"info@sinergia.by","1"
"info@siti.by","2"
"info@smgroup.by","2"
"info@snabfood.by","1"
"info@snabfood.com","8"
"info@soyuz.by","2"
"info@stanlux.by","2"
"info@steeltech.by","2"
"info@stekra.by","2"
"info@stima.by","2"
"info@stroiagro.ru","1"
"info@sv-m.com","1"
"info@sv-velor.com","2"
"info@tekoagro.by","1"
"	infotelecom.by@gmail.com","2"
"info@tpi.by","2"
"info@tpi.by, tpi@tpi.by","2"
"info@tqm.by","1"
"info@tradelabel.by","2"
"info@travira.by","1"
"info@tsepi.by","6"
"info@turovmilk.by","4"
"info_usl@eurochem.ru","1"
"info@v8motors.by","2"
"info@vasilek.by,  ferm64@mail.ru","1"
"info@vastega.com","1"
"info@veles-torg.by","3"
"info@veselovka.by","1"
"info@vgdz.ru","1"
"info@vhp.by","1"
"info@vladimir-by.info","1"
"info@vmx.by","1"
"	info@voitto.by","2"
"info@xpride.by","2"
"info@yagodka.info","1"
"info@zapad.by","1"
"info@zapole.com","1"
"ingrid6813@mail.ru","1"
"inhard12@mail.ru","1"
"inna@onega.by, onega-group2007@yandex.ru ","1"
"inna.transport@mail.ru","1"
"inna@valdisagro.by","3"
"innocom-info@mail.ru","4"
"interros@bk.ru","3"
"interros@tut.by","1"
"intke@chlmz.ru /","1"
"intke@chlmz.ru/chlmz@chlmz.ru","2"
"intke@chlmz.ru /	orlov@chimz.ru","1"
"invet@vitebsk.by","6"
"ipba@tut.by","2"
"i.prytulenets@akvadiv.by","3"
"ira.metrasales@mail.ru","3"
"ireene2@tut.by","2"
"irina_mp@inbox.ru","1"
"irina_nik_st@tut.by, bsyr@mail.ru","1"
"iriskolor@gmail.com","1"
"ironline@mail.ru","1"
"ishmenev@zavodrti.ru","1"
"isra.smi@gmail.com, egencies@kosher.by /info@koser.by/","2"
"istercom2008@mail.ru","1"
"itec.agro@mail.ru","1"
"itec.agro@tut.by","2"
"iteraplast@gmail.com","2"
"ites.agro@mail.ru","2"
"i.traynev@sivetra-agro.ru","1"
"itsnord@yandex.ru | info@sever-its.ru","2"
"ivabaltebel@tut.by","1"
"ivada@tut.by","1"
"ivanova-ferma@mail.ru","1"
"ivanovoagro@tut.by","1"
"ivan.semashko@triple.by","1"
"ivkon.market@yandex.by","1"
"ivservis@list.ru","2"
"izmailova@volma.ru","2"
"j.alizarchyk@rapool.by","2"
"j.alizarchyk@rapool.by, o.myshkevich@rapool.by(в копию)","2"
"jankovskij.oleg2015@yandex.ru	","1"
"jivpromservice@yandex.ru","2"
"k1r0va@tut.by","1"
"kadavbovich@rambler.ru","2"
"kadex@mail.ru","2"
"Kadino2009@tut.by","1"
"k-agromash@mail.ru","2"
"kalinagro@mail.ru","1"
"kamkov@mehprofil.by","1"
"kantavir@tut.by","1"
"karalina.miasnikovich@partners.basf.com","1"
"kario@tut.by","1"
"karmas@tut.by","1"
"kartberg@mail.ru","4"
"kashpar@vetby.ru","2"
"kaskazi@mail.ru","3"
"kaspar104@mail.ru","1"
"katasan@mail.ru","2"
"katerina@klinotex.by","1"
"katerina@suzorie.com","4"
"katya@torgline.by","1"
"kav@dst.by","2"
"kavpack@mail.ru","3"
"kazakevich-81@mail.ru","1"
"kazak@valmax.by","3"
"kaza-yurij@tut.by","2"
"kbrmsz@gmail.com","2"
"kburdaeva@agrofeed.ru","2"
"kcprom@rambler.ru","1"
"kd@aisberg.od.ua","1"
"kd@korovka.by","2"
"kdv110974@yandex.by","3"
"kernoga.viktor@mail.ru","2"
"kerzikov@avanta.by","1"
"kfh_kutsaeva@mail.ru","1"
"kfh-zharsk@mail.ru","1"
"kfv@dst.by","1"
"khardex@gmail.com","1"
"khleb_orsha@vitebsk.by","1"
"khp52388@yandex.by","2"
"kh.pakusha@tut.by","3"
"khpmarket@tut.by","3"
"kinavto@tut.by","2"
"kirovsk.pk.marketing@mail.ru, kirovsk.pk.marketing@tut.by","3"
"Kirpichenko@chisty-svet.by","3"
"kiskad@tut.by","1"
"kkz_kom@mail.ru","3"
"klenovichi@mail.ru","2"
"klevko@unibox.by","3"
"klewica@tut.by","1"
"klim_khp@mail.ru","4"
"klimkhpmarket@gmail.com","2"
"klim_khp_sale@mail.ru","3"
"klimlvz86@mail.ru","1"
"klimlvz@tut.by","1"
"klon_by@mail.ru","1"
"klppz@minops.bks.by","1"
" kmk_grand@mail.ru, kmk_grand@tut.by","6"
" kmk_grand@tut.by, kmk_grand@mail.ru","1"
"kmk_marketing@mail.ru","4"
"kmkmarketing@rambler.ru","3"
"kobrinagromash@mail.ru","1"
"kobrinagromash@mail.ru, k_agromash@mail.ru","1"
"kobrinagromash@mail.ru, k_nagromash@mail.ru","1"
"kobrinhleb@gmail.com","1"
"kobrin_ras@mail.ru","3"
"kobrinskij_kluch@rambler.ru","1"
"koez@tut.by","1"
"kolagro@mail.ru","2"
"kolenchenko@hlebprom.gomel.by","1"
"kolesnichenko@intercom.by","2"
"koleso777@tut.by","2"
"kolesoplus@tut.by","2"
"kolos@mail.gomel.by","5"
"komarova151@yandex.ru","2"
"komarova 151@ya.ru","1"
"kombiagro@mail.ru","2"
"kombikorm@tut.by","1"
"komdirksbm@mail.ru","2"
"Komin59@mail.ru","1"
"komm.mez@tut.by ","1"
"konfarb@kk.by","3"
"koni-poni@fermer.by","1"
"konstantin@turneps.info","2"
"kontakt@wigol.by","2"
"kontraktp@mail.ru","2"
"kontraktp@mail.ru, kompromissagro@mail.ru","2"
"kontraktpol_1990@tut.by","1"
"kontraktpol-sait@tut.by","3"
"koptevka@mail.ru","3"
"kore@tut.by","1"
"korkhonai-nikholparvari-iskich@mail.ru","1"
"kormaserwis@tut.by","1"
"kormaserwis@tut.by, info@kormas.by","1"
" korneva.konsul@gmail.com","1"
"korol_sv@mail.ru","2"
"koronet.torg@mail.ru","1"
"koskro_grodno@mail.ru","1"
"Kosmin59@mail.ru","2"
"kostuchenko@belneftekhim.by","1"
"koters@tut.by","2"
"kotov@megaavto.by","2"
"koustaustroy.kst@yandex.ru","1"
"kovrigina_ov@alivaria.by","1"
"kovrik@zeo.ua","1"
"kozakov_1977@mail.ru","2"
"kpa318r@mail.ru","2"
"krama@shop.by","1"
"krasnoe201515@mail.ru","1"
"krasocskii@4net.info, misukevich@4net.info, vailapoff@rambler.ru , sveta@4net.info   ","2"
"kraun@tut.by","3"
"kredosd@mail.ru","1"
"kremko-agro@tut.by","2"
"krint@adsl.by","4"
"kriomarket@yandex.by","1"
"kripets@extraservice.by","2"
"krolikilux@fermer.by","1"
"kronos5@bk.ru","5"
"kronvet@mail.ru","1"
"kroshinSPK@mail.ru","3"
"krupskij@tut.by","1"
"kryshar_tr@mail.ru","4"
"krytogorye@mail.ru","1"
"ks@1logistik.ru","1"
"ks@albion.by","3"
"ksm@mail.grodno.by","1"
"ksup_mof@mail.ru","3"
"ks@wigol.by","1"
"ksypsof@mail.ru","2"
"kti_sma@mail.ru","1"
"ktisma@tut.by","2"
"ktusma@tut.by","1"
"kuh@lbtrade.by","1"
"kuk-lidkon@mail.ru","1"
"kutter2000@yandex.ru","1"
"kvalitetagro@mail.ru","1"
"la.bimeov@belagro.com","1"
"labkip@bk.ru / labkip@tut.by","1"
"labkip@bk.ru, labkip@tut.by","1"
"laboratoriya.filialasb@mail.ru","2"
"labteh@tyt.by","2"
"l.agri@mail.ru","3"
"la@kvip.by","1"
"lanitex@rambler.ru, zakaz@vodopady.by","1"
"lan@maz-man.com.by","1"
"l.apanovich@gmz2.by","1"
"la.pimenov@belagro.com","3"
"LA.Pimenov@belagro.com ","2"
" lavedis@mail.ru","2"
"lazer@selifontovo.by","2"
"	ldfgroup@tut.by","2"
"ldfgroup@tut.by","1"
"lebeckaja@azot.com.by","3"
"lemezaga@yandex.ru","1"
"leminvest@mail.ru","1"
"lemish@vicah.ru","1"
"lemish@vikah.ru","2"
"lenta@virma.by, rukava@virma.by, remni@virma.by","1"
"lenta@virma.by, rukava@virma.by, remni@virma.by, voinarovich@virma.by","2"
"Lenzavod@tut.by","4"
"leo-1966@mail.ru","2"
"leonpack@mail.ru","1"
"lera.putikova@jokey.by","1"
"leva_ice@mail.ru, leva_sbyt@mail.ru","4"
"lexert.company@gmail.com","1"
"l-export@tut.by","1"
"lezoli@rambler.ru","1"
"LHP5@MAIL.RU","1"
"liahmolzavod@tut.by","2"
"lida_hleb@tut.by","1"
"lidameat@mail.ru","6"
"lidamuka@mail.ru","3"
" lidkon@lidkon.by, lida_pk@bgp.by","3"
"lidselmash@inbox.ru","1"
"lidsm@mail.ru","1"
"lidsm@mail.ru, lidselmash@inbox.ru","2"
"linnik@vino61.ru","1"
"lionlyahovichi@tut.by","1"
"lioznoagro@tut.by","2"
"lisaalisa-vet@mail.ru","2"
"lishik@bva.by","1"
"litmeh-65@mail.ru","2"
"litviany-agro@tut.by","1"
"liza@plastil.by","1"
"lizkalis@mail.ru","2"
"lkz_marketing@tut.by","1"
"lncmilk@brest.by","2"
"lonax-auto@tut.by","1"
"lozuk@metall.ru","1"
"ltdvirtus@gmail.com","1"
"ltex.minsk@gmail.com","1"
"luda.belun@gmail.com","1"
"luda.bogush@gmail.com, fox.packaging.minsk@gmail.co","2"
"lugovtsova-m@khimvolokno.by, market@khimvolokno.by","7"
"lukasz.pismiok@elstar.com.pl","1"
"lukobel@tut.by","2"
"lukomlsbyt@yandex.by","1"
"lumina_ang@tut.by","2"
"luninets-agros@tut.by","1"
"lvjing0943@163.com","1"
"Lyninets-agros@tut.by","1"
"lyubov.golyakova@yandex.ru","2"
"mackey.yra@yandex.ru, mackey.yra@yandex.by","1"
"mackey.yura@yandex.ru, mackey.yura@yandex.by","2"
"madxd@mail.ru","1"
"magimix@mail.ru","1"
"mail@barsa.by ","4"
"mail@belagroservis.by","1"
"mail.-box@mail.ru","1"
"mail@idisa.by","2"
"mail@megaspec.ru","1"
"mail@sad.by","2"
"mail@sagrada.biz","4"
" mail@slavresurs.com, sales@slavresurs.com","4"
"mail@vdagro.by","1"
"makarevich.bkhp@mail.ru","3"
"malevich-natalya@mail.ru","3"
"malezi@rambler.ru","2"
"malikov@vicah.ru","3"
"mallder_21@mail.ru","2"
"malorita2007@yandex.ru","4"
"mal_rapt@tut.by","2"
"manager@holodplus.by","1"
"managerSTL@stomilsanok.by","1"
"manager-SULA2000@yandex.ru","1"
"managervirtusltd@gmail.com","1"
"manas11@yandex.ru","1"
"mankowichi@mail.ru","1"
"Mankowichi@tut.by","2"
"marbyttex@mail.ru","1"
"marc-invet@mail.ru, info@invet.by","1"
"maria2212@tut.by","1"
"maria.kellidi@kuehne-nagel.com","1"
"marilino4ka@yandex.by","1"
"mark111@inbox.ru","4"
"Mark1@kmkk.net","2"
"mark1@kmkk.net; Tata2007K@yandex.ru","1"
"Mark1@kmkk.net; Tata2007K@yandex.ru","2"
"marke@radamir.by","1"
"market53@pda.savushkin.by","2"
"market@agromash.by","4"
"market@alco.by","5"
"market@almier.by","1"
"market@belcard-grodno.com","2"
"market@belhim.by","2"
"market@b-k-s.by","1"
"market@brestbeer.by","3"
"market@brestmeat.by","2"
"market@brestmeat.by ","2"
"market@bztda.com, markettda@mail.ru","2"
"market@cheese.by","6"
"market@darida.by","1"
"market@elezer.by","1"
"market@endwest.by, ylianamex@rambler.ru","1"
"market@gaspadar.by","1"
"market@glubmk.by","2"
"market@gomelmilk.by","4"
"market@grodfood.by","3"
"market@grodfood.by, 2847163@mail.ru","1"
"market@grodno-khim.by","1"
"market@himzavod.by","1"
"market@ideal.by","1"
"marketing-1mpf@mail.ru","1"
"marketing@agd.by, saa@agd.by","3"
"marketing@agro.by","5"
"marketing_agroinvest@mail.ru","1"
"marketing@alfasklad.by","1"
"marketing@amkodor.by","1"
"marketing@belagro.com","1"
"marketing@belagro.com, im@belagro.com","1"
"marketing@belaruslift.com","3"
"marketing@belmilk.by","3"
"marketing@beluaz.by","5"
"marketing.bkpp@mail.ru","2"
"marketing@bmpp.by","1"
"marketing@bmpp.by, pavel_rynzak@mail.ru","1"
"marketingbpf@tut.by","2"
"marketing@brestbakaleya.com","2"
"marketing@brestvodka.com","4"
"marketing@carrierbel.by","1"
"marketing@cheese.by","3"
"marketing.drugba@tut.by","1"
"marketing.etanol@mail.ru","3"
"marketing@gelatin.by","1"
"marketing@gik.by","2"
"marketing@gjk.by","1"
"marketinggrz@mail.ru","3"
"marketing@gsr.by","1"
"marketing@icelida.by","1"
"marketing@ilmax.by","1"
"marketing@inolta.by","3"
"marketing@interpack.by","2"
"marketing@ivkon.by","1"
"marketing@klppz.by","2"
"marketingkmk@mail.ru","2"
"marketing@kommunarka.by","1"
"marketing_KPF@tut.by, market_kpf@tut.by ","2"
"marketing@krinitsa.by","3"
"marketingkxp@tut.by, marketing@pinskkxp.by","1"
"marketing.kz@inbox.ru","1"
"marketinglakokraska@gmail.com","1"
"marketing@lidskoe.by","8"
" marketing@lkombi.com","1"
"marketing@margarin.by","3"
"marketing@marketmaster.by","2"
"marketing@melnitsa.by","1"
"marketingmilk@rambler.ru","1"
"marketing@miragro.by","6"
"marketing.msz.1969@gmail.com","1"
"marketing_nhz@tut.by","1"
"marketing_nov_hleb@tut.by","1"
"marketing@oaotermoplast.by","1"
"marketingotdel@yandex.by","2"
"marketing@pal.by","5"
"marketing@pal.by, mironova@pal.by","5"
"marketing@pinskkxp.by","2"
"marketing.polotskoepivo@mail.ru","2"
"marketing@profi-agropark.by","2"
"marketing@promis.by","2"
"marketing@rmkk.by","5"
"marketing@rmkk.by ","1"
"marketing.selagro@gmail.com","1"
"marketing@sensor.by","1"
"marketing@servolux.by","2"
"marketing@slav.by","1"
"marketing@slodych.by","3"
"marketing@solway.by","2"
"marketing@starter.by","1"
"marketing@stomilsanok.by ","1"
"marketing@tabak.by","1"
"marketing@talanm.by","3"
"marketing@tanis.by","4"
"marketing@tehavto.com","1"
"marketing@travira.by","2"
"marketing-uc@mail.ru","2"
"marketing@ulicom.by","5"
"marketing@van.by","4"
"marketing@vitvodka.by, nmarket@vitvodka.by","2"
"marketing@wines.by","3"
"market@kamako.by","2"
"market@khimvolokno.by","2"
"market_khp@mail.ru","2"
"marketkhp@mail.ru","1"
"market@kompo.by","2"
"market@korovka.by, ved@korovka.by","1"
"market.korovka@mail.ru","2"
"market.kz@inbox.ru","3"
"market@lidkon.by","1"
"market@milk.by","5"
"market_milk@vitebskae.by ","2"
"market@miz.by","1"
"market@mmk.by","2"
"market.mmp@tut.by","1"
"market.moloko@mail.ru ","3"
"market@mozyrsalt.com","1"
"market@mozyr-svz.by","2"
"market@nasosprom.by","2"
"market_nastya@mail.ru","3"
"market@novovita.by","3"
"market@nzmi.by","2"
"market@oaompp.by","1"
"marketolog@profplus.net","3"
"market_optron@mail.ru","2"
"market@po-mmz.minsk.by","1"
"market@radamir.by ","1"
"market@rubikon.by","4"
"market@savushkin.by","2"
"market@skhp.by","4"
"market@skhp.by, sbyt@skhp.by","2"
"market@slhleb.by","2"
"market.slobodar@yandex.ru","1"
"market.slobodar@yandex.ru, market.slobodar@mail.ru","1"
"market@spartak.by","3"
"market@ssf.by","1"
"market_vinzavod@mail.ru","1"
"market@vitvodka.by, nmarket@vitvodka.by","1"
"market@vmk.by","6"
"market@vtt.by","2"
"market@zefir.by","4"
"market@zgw.by","1"
"market@zhivkorm.by","3"
"mark@torgline.by","3"
"mary@bpp.by","3"
"mashagro@tut.by","1"
"mashopt@tut.by","3"
"mashprom_@mail.ru, usenko60@smp.by","1"
"maslo@mogilev.by","1"
"masterdetalplus@gmail.com","3"
"masterklimattekhno@mail.ru","1"
"masterputz1@gmail.com","2"
"masterresurs@mail.ru","1"
"matres@tut.by","1"
"maxim.ab@mail.ru","1"
"maz76@inbox.ru","1"
"mazkovalvit@mail.ru","1"
"mcpetalon@gmail.com","1"
"medmin@yandex.ru","1"
"medno@mail.by","2"
"megacorpservice@mail.grodno.by","1"
"megakorp@mail.grodno.by","2"
"mehsbyt@gmail.com","3"
"mehtrans@brest.by","1"
"mehtranspin@mail.ru","1"
"meko$an@tut.by","2"
"mekosan@tut.by","3"
"melkij326@mail.ru","1"
"melzapchast@yandex.ru","1"
"metallist@mail.ru","1"
"metallistеа@mail.ru","2"
"metplast@lhv.brest.by","1"
"mgrylak@wilgafruit.pl","1"
"m.gubernya@mail.ru","2"
"mgwminsk@mail.ru","1"
"m.gybernya@mail.ru","3"
"mhlad1@tut.by","4"
"miasoprodukt_06@mail.ru","2"
"migg2244@gmail.com","1"
"milena.agro@tut.by","7"
"milida_sbyt@mail.lida.by","3"
"milkunionplus@tut.by","1"
"milor-auto@mail.ru","1"
"milto@santa.by","1"
"minagrosnab@tut.by","2"
"minkat@tut.by","2"
"minojty_rz@tut.by, minojty_rz@mailgov.by","6"
"minsk17@tut.by","1"
"minskagromash@inbox.ru","3"
"minskagroprommash@inbox.ru","1"
"minskagrotrans@telecom.by","1"
"minskalena@mail.ru","3"
"minsk@belsnab.com","1"
"minsk@cpsholod.ru","1"
"minsk.delaval@delaval.com","1"
"minsk@ltvberlin.de","1"
"minsk@maxipack.by","2"
"minsk@rustrak.by, sam@rustrak.by","1"
"minsk@stekra.by","1"
"mioriservis@yandex.ru","1"
"miory_kombi@tut.by","1"
"miorym@yandex.ru","2"
"mironenkode@mail.ru","3"
"mironova@pal.by","2"
"mirrusp@mail.ru","1"
"mirsladosty@yandex.ru","1"
"misuno@tut.by","1"
"m.kapelevich@yandex.ru","2"
"mkerzhner@agroferment.ru","1"
"mkk@mail.lida.by","4"
"mk-snov@tut.by","1"
"mks@telecom.by","2"
"mkt-snov@tut.by","1"
"m.lomonos@rapool.by","2"
"	m-mash1@yandex.ru","4"
"m-mash1@yandex.ru","1"
"m-mash.vlad@yandex.ru","1"
"mmdetal@mail.ru","3"
"mmm_gorpp@tut.by","1"
"mm-stolica@yandex.by","1"
"mmzpr@mail.ru","1"
"mns@rstock.by","1"
"modecor.bel@gmail.com","2"
"modelauto@tut.by","2"
"modultec@tut.by","3"
"m_of@tut.by","1"
"mogilevremzavod@mail.ru","3"
"mogilevsso@tut.by","3"
"moguntia@brest.by","3"
"molcom@mail.ru","2"
"molzpm@mail.ru","1"
"motol@brest.by","4"
"motor@altaydizel.by","1"
"motorovo@mail.ru","2"
"moving1@tut.by","1"
"mozyragros@tut.by","2"
"mozyrmmp@tut.by","1"
"mpniggi@facco.ru","3"
"mr.ek1980@mail.com","1"
"mr.ek1980@mail.ru","1"
"mrv@prodtovary.com","1"
"ms.azhela@mail.ru-личная","1"
"ms.azhela@mail.ru-личная, заявки на эту почту","1"
"msht_progr@mail.ru","1"
"msht_progr@mail.ru, msht_mts@mail.ru","1"
"msn@rstock.by","2"
"msso@list.ru","3"
"mszkomotd2012@yandex.ru","1"
"mtech@tut.by","1"
"mteh@tut.by","1"
"muka@mail.gomel.by","4"
"muka_mld@mail.ru","3"
"multbelstroi@mail.ru","1"
"muravievs@rosintech.com","2"
"mymixx@ya.ru","2"
"mzd.import@gmail.com","2"
"mzd.import@gmail.ru","2"
"mzd@tut.by","1"
"mzr-hz@mail.ru","2"
"mzvp@bk.ru","2"
"mzvp@rambler.ru","1"
"n270777@mail.ru","2"
"nadya.bobko@mail.ru","2"
"nahaenergetika@mail.ru","1"
"naladka@tut.by","1"
"nalad@tut.by","1"
"naligar@yandex.by","1"
"narayana-sad@mail.ru","1"
"nas90tya@gmail.com","1"
"nata8407@list.ru","1"
"natabtm@mail.ru","2"
"nata_krigina@mail.ru","1"
"natalia.k@data-by.by","3"
"nataliktm@mail.ru","1"
"nata@moroz.by","2"
"	nata@oils.by","1"
"nata@oils.by","2"
"nata@oils.by oils@oils.by","1"
"nata@oils.by, oils@oils.by","1"
"natoagro@mail.ru","1"
"nebolsina@khimvolokno.by","2"
"negoreloe@mail.ru","2"
"negoreloe_pchela@mail.ru","1"
"nemanoff2011@yandex.by","3"
"Nemov.Taras@avtodiller.by	","1"
"nevinazot@eurochem.ru","1"
"nikagro@mail.ru","5"
"nikisbel.marketing@gmail.com","1"
"nikisbel.marketing@gmail.com, yarosh@nikisbel.by,    info@nikisbel.by","3"
"nikitin@soyz.by","1"
"Nikolay.Rusak@sesvanderhave.com","1"
"n.kondratova@promis.by","2"
"n.kondratova@promis.by-высылать заявки","1"
"N.Lomako@mirisan.by","2"
"nmarket@gaspadar.by","1"
"nmarket@vitvodka.by","1"
"nnk@tut.by","1"
"novacia7@mail.ru","1"
"novacomtech@mail.ru","1"
"novacomteh@mail.ru","1"
"novik@pda.savushkin.by","1"
"	novogrudok_mdk@mail.ru","1"
"Novomoskovsk@eurochem.ru","1"
"NPO_Agroresurs@bigmir.net","1"
"n.polevaya@sssi.by","1"
"num@agu.by","1"
"num@agu.by, om@agu.by","1"
"nutritech.by@gmail.com","2"
"nvb@tut.by","1"
"oaoamkodor@mail.ru, reklama@amkodor.by","1"
"oaobras@apk.braslavy.by","1"
"oao_dobrica@agrominsk.by","1"
"oao-gras@mail.ru, oao-gras@nm.ru, gras.priemnaya@gmail.com","1"
"oao-gras@nm.ru, gras.priemnaya@gmail.com","2"
"oao_grickevichi@agrominsk.by","1"
"oao_holding@tut.by","1"
"oao_holding@yandex.by","1"
"oao.holding@yandex.by","1"
"oao-lan@mail.ru","1"
"oaoturov@mail.ru","1"
"oao_utes@mail.ru","4"
"oaoutes@tut.by","1"
"oao_velikopolie@agrominsk.by","3"
"oaovmk@gmail.com","1"
"oao_voshod@mail.ru","3"
"oblagroserv@tut.by","2"
"oblprod@mail.ru","2"
"obtorg@grelens.by","8"
"obtorg@rambler.ru","2"
"obtsvigun@mail.ru","1"
"obuhovicha@gmail.com","1"
"oc_mrz@mail.ru","2"
"odoakm@gmail.com","2"
"odoast@mail.ru","3"
"ofer@mkz.by","1"
"offer@mkz.by","4"
"office@aromatik.by","3"
"office@elo-pack.com","1"
"office@extraservice.by","8"
"office@giprovodhoz.by","1"
"office@izmeritel.org","1"
"office@klm-agro.by","2"
"office@kommunarka.by","1"
"office@wigol.by, kontakt@wigol.by","4"
"office@wt-jv.com","2"
"oficce@klm-agro.by","1"
"ofice@cb.by","1"
"ofice@klm-agro.by","1"
"ofice@sahar.by","1"
"o.konovalova@ingman.by","2"
"oksana","1"
"oksana.sharupskaya.volna@mail.ru","2"
"oksana_stimul-g@mail.ru","1"
"oksvasilyeva@gmail.com","2"
"oktsbyt@mail.ru","2"
"oktsbyt@mail.ru, ysivaya@mail.ru","1"
"okulichms-minsk@mail.ru","1"
"olandkar@mail.ru","3"
"oleg447808@gmail.com","3"
"oleg.koval@vestafood.by","1"
"oleg.nesvig@mail.ru","1"
"olemil-invest@mail.ru","1"
"olga@","1"
"olga@klinotex.by","1"
"	olga.nzvin2013@yandex.by","1"
"olga.nzvin2013@yandex.by","2"
"olga.pleshachkova@by.mahle.com","2"
"olga_t@frandesa.by","3"
"olga.toliarenok@frandesa.by, info@frandesa.by","11"
"olgovo@tut.by","2"
"oligos@tut.by","1"
"olnita_reklama@mail.ru","1"
"olsa_garden@tut.by","4"
"om3@mozyrsalt.com","2"
"om@agu.by","1"
"omark.lida@mail.ru","1"
"omkkmarket@tut.by","3"
"omr@babushkina.by, molcom@mail.ru","3"
"omr@beltepl.by","1"
"omtsbrest@mail.ru","1"
"omts_kbfil@brestmeat.by","1"
"om@vitvodka.by","2"
"o.myshkevich@rapool.by","1"
"oooagrofaktor@gmail.com","1"
"ooobluming@mail.ru","2"
"ooobonagro@mail.ru","1"
"ooo.cupline@yandex.ru","1"
"ooo-gras@nm.ru, gras.priemnaya@gmail.com","3"
"ooomkz@adsl.by ","2"
"ooomtech@mail.ru","2"
"ooo.pat2012@gmail.com","1"
"ooo_veldan@mail.ru","1"
"ooozazerka@tut.by","1"
"o.patsiuk@mail.ru","2"
"o.patsiuk@mail.ru, turgor-am@yandex.ru","1"
"opf@tut.by","2"
"opip2@belavtogas.by","2"
"optim.2009@mail.ru","1"
"optim3@tut.by","2"
"optorg@rambler.ru","1"
"opt.prodazhi@detavi.com","1"
"opttorg@rambler.ru","1"
"organic-producion@fermer.by","1"
"orp@mpz.com.by","3"
"orshaagro.sbit@mail.ru","1"
"orshaagro-sbit@mail.ru, oapm@list.ru","1"
"orsha.ptf@mail.by","2"
"ort@azot.com.by","3"
"oscons@mail.ru","2"
"oscons@mail.ru, shuan99@mail.ru","2"
"osipova@belal.by","1"
"osp@vanna.by","1"
"o_stanger@mail.ru","1"
"osthim@gmail.com","1"
"ostrikov@ya.ru","1"
"otdelplan@vitebskae.by","1"
"otrada@otrada.by","1"
"otrana@otrana.by","4"
"ovsianikova@mit.by","1"
"owm1977@gmail.com","3"
"oxana_marketing@mail.ru","2"
"oz-agro@mail.ru","6"
"oz-agro@tut.by","1"
"paklain@mail.ru","1"
"pal-ved@mail.ru","2"
"pamotors@yandex.ru","3"
"parkdisk@tut.by","1"
"partner6@dafor.ru","1"
"parts@wt-jv.com","1"
"	parts@wt-jv.com-заявки высылать на эту почту","1"
"pask@tut.by","2"
"pekut@tut.by","1"
"pellets@prosper.ru","1"
"pentyak@mail.ru","1"
"perekrestok.2007@mail.ru","1"
"peri_spb@mail.ru","2"
"pershai20081@yandex.ru","1"
"pet_invest@mail.ru","1"
"PFGomel@mail.ru","1"
"pfmog@tut.by","2"
"pf-snab2011@yandex.by","1"
"pgd@mozyrsalt.com, market@mozyrsalt.com","3"
"pgd@mozyrsalt.com, market@mozyrsalt.com, sales@mozyrsalt.com","1"
"pgradovich@mail.ru","1"
"pia-@tut.by","1"
"p.ignatovich@butb.by","2"
"pikant@pikant.by","1"
"pilips1976@yandex.by","3"
"pilipuk.dzhulia@yandex.ru","1"
"pilipuk.julia@yandex.ru","3"
"pinsk-agros@tut.by","1"
"pinsk-agro@tut.by","1"
"pinskhleb@tut.by","1"
"pinskvino@yandex.by","3"
"pinskvino@yandex.ru","2"
"pitomnik_kletsk@mail.ru	","4"
"pivin@tut.by","2"
"pivopol@tut.by","2"
"plahot@mail.ru","2"
"plan_mld@mail.ru","1"
"plsn@tut.by","1"
"plutosagro@telecom.by","1"
"pmk3@mail.ru","1"
"pmservis@yandex.ru","1"
"pmt06@rambler.ru","1"
"podolyakds@belshina.biz","1"
"podshibon@list.ru","1"
"pogruz2012@mail.ru","1"
"polhlebz@tut.by","3"
"polot99@mail.ru","6"
"polotsk_sbit@mail.ru, sales@polochanka.by","1"
"poluyanov@csb-system.ru","1"
"polymya.ru@gmail.com","2"
"postadmin@sohim.by","3"
"post@gomselmash.by","5"
"post@gomselmash.by, marketing@gomselmash.by","4"
"post@intermass.by","4"
"post_milk@rambler.ru","5"
"p.prakopchyk@convexintl.de","1"
"p.prakopchyk@convexintl.de; info@convexintl.de","1"
"p-pro@tut.by","2"
"ppsby@mail.ru","2"
"pr@dozaagro.com","1"
"presidenza@cibfea.com","1"
"pr@eurochem.ru","1"
"priemnayalapm@mail.ru","1"
"primbrest@mail.ru","1"
"pr_lidkon@mail.ru","3"
"procto_lexa@tut.by","5"
"prodexport@open.by","1"
"prodmashVRN@mail.ru","1"
"prod@yantapro.ru","1"
"promagrosnab@yandex.ru","1"
"promis@tut.by","2"
"prommash.spring@gmail.com","2"
"promo@bzrm.by","2"
"promsnabsys@tut.by","3"
"promtexresurs@mail.ru","1"
"promtexvet@mail.ru","1"
"promtsepi@tut.by","1"
"promv@mail.ru","2"
"promxolod@gmail.com","1"
"prosound@ivcavia.com, prosoundplus@rambler.ru","2"
"provit_snab@tut.by","1"
"prsolushion@gmail.com","2"
"psmrb@yandex.ru","3"
"pta-1983@mail.ru","2"
"ptushka_slutsk@mail.ru","2"
"public@longtrade.by","1"
"public@sxda.by","2"
"qncsht@brest.by","1"
"r00013049@mail.ru","1"
"radchenko@servolux.by","1"
"radiovolna.com.by@gmail.com","12"
"raiagroservis@mail.ru","2"
"raiagro@tut.by","2"
"raislava@gmail.com","1"
"rakhat@rakhat.kz","1"
"	ramtex@ramtex.by","1"
"ranitsamilk@mail.ru","3"
"rapinmarketing@gmail.com","4"
"rapszavod@yandex.ru","4"
" rasliny@tut.by","1"
"rasljachov@rambler.ru","1"
"rasnes@tut.by","2"
"ratsuk@mail.ru","1"
"rbg_brest@mail.ru","1"
"re4kiagro@mail.ru agrokombinat@mail.ru","1"
"re4kiagro@mail.ru, agrokombinat@mail.ru","1"
"reahim-minsk@mail.ru","3"
"realpackOO@mail.ru","1"
"rechica.himservis@mail.ru","1"
"rechizahleb-1@yandex.ru","1"
"red-sun@tut.by","2"
"regiondst@mail.ru","2"
"reklama021@gmail.com","3"
"reklama@agu.by","1"
"reklama@amkodor.by","1"
"reklama@aquatriple.by","1"
"reklama@belshina.net","3"
"reklama@brestbeer.by","1"
"reklama@darida.by","1"
"reklama@himzavod.by","1"
"reklama@hts.by","3"
"Reklama@incofood.net","1"
"reklama@kamako.by","1"
"reklama@kommunarka.by","3"
"reklama.mdk@mail.ru","4"
"reklama_milk@mail.ru","2"
"reklama@profi-agropark.by","7"
"reklama@zapagro.ru","1"
"rekl_vbpf@mail.ru","2"
"remezabelts@telecom.by","1"
"remkom-minsk@tut.by","1"
"remmotors@tut.by, agroremmotors@mail.ru","1"
"remontiryemvse@gmail.com","5"
"remontiryemvse@gmail.com, fibusauto@gmail.com","1"
"remsintez@rambler.ru","1"
"remtp@tut.by","3"
"rem_zavod@mail.ru","2"
"rennetproduct@gmail.com","1"
"report-123@mail.ru","1"
"r.gailius@malsena.lt","1"
"rialto-m@yandex.ru","1"
"	richstockby@gmail.com","1"
"richstockby@gmail.com","1"
"rimbat08@mail.ru","1"
"rkhp@tut.by","4"
"r.koptsiayev@gmail.com","2"
"rmzgru@tut.by","2"
"rmz-mts@mail.ru","1"
"rodolit@tut.by","1"
"Roghleb@mail.gomel.by","2"
"romanjuk@azot.com.by","3"
"roma_papernj@tut.by","1"
"root@leor.by","1"
"rosa-agro@yandex.ru","3"
"rosagropromtorg@tut.by","4"
"rosagroservis@vitebsk.by","1"
"rostokbio@gmail.com","1"
"rosyugopt@yandex.ru	","1"
"rotor-snab@mail.ru","1"
"rtimarket@inbox.ru","2"
"rti-plast@rti.by","1"
"rti-tehno@mail.ru","1"
"rubin.mikhail2012@yandex.ru","2"
"ruden.torg@mail.ru","1"
"rudom.istina2015@yandex.ru","1"
"rumb.by@mail.ru","1"
"rumin5@tut.by","1"
"rumino2008@tut.by","2"
"Rumino2008@tut.by","1"
"Rumino2008@tut.by, Seyanets@fermer.by","1"
"ruslan.dubovik@rivalsvarka.by","1"
"rus-meat@bk.ru","1"
"rvd@bpi.by","1"
"rvd-nzga2014@ya.ru","2"
"rzavod@tut.by","3"
"S18759272@yandex.ru","1"
"s6669888@mail.ru","2"
"saa@agd.by","1"
"sa@belagro.com","3"
"sa@belagro.com, ac@belagro.com, ap.chernyi@belagro.com","1"
"saggitt@mail.ru","3"
"saitra2011@mail.ru","1"
"sakavik@mail.ru","1"
"sakuraplast@mail.ru","1"
"sale@belarus-tractor.com, 2481390@gmail.com","2"
"sale@kieselmann.org","1"
"sales.academy@mail.ru","1"
"sales@agrostep.by","1"
"sales@bearing.by","3"
"sales@bearing.by, partinfo@mail.ru","1"
"sales@belarus-tractor.com","3"
"sales@belarus-tractor.com, 2481390@gmail.com","3"
"salesbelsyr@mail.ru","2"
"sales@danprod.by","1"
"sales@elemash.by","1"
"sale@sever.by","3"
"sales@fishopt.by","1"
"Sales.goldenfruit@gmail.com","1"
"sales@ic-el.ru","1"
"sales@kieselmannbel.by","3"
"sales@kieselmann.org","2"
"sales@realpack.by","1"
"sales@rosate.by, office@rosate.by","1"
"sales@rudakovo.by","1"
"sales@slavresurs.com","1"
"sales@sugar.by","3"
"sales@travira.by ","1"
"sales@vostoc.by","3"
"sale@vinzavod.by","2"
"sam@rustrak.by","2"
"s.anatoly@inbox.ru","3"
"sapronova@biovet.su","1"
"saroket@mail.ru","2"
"sasm2011@bk.ru","1"
"satpricep@yandex.ru","1"
"satriani82@mail.ru","2"
"satriani82@mail.ru, 6999017@mail.ru","1"
"saturn-agro@bk.ru","1"
"sav@belintervet.ru","1"
"sbit-krmz@yandex.ru","3"
"sbit-krmz@yandex.ru, krmz@tut.by","1"
"sbnkhp@mail.ru","1"
"sbt@oldmill.by","1"
"sbt-uksus@tut.by","2"
"	sbyt.hlebprom.grodno@gmail.com","5"
"sbyt.hlebprom.grodno@gmail.com","3"
"sbyt@minskhleb.by ","3"
"sbyt@rudakovo.by","2"
"sbytspartak@yandex.ru","2"
"sc65@mail.ru","2"
"Schavrovskaja@mail.ru","1"
"sdl555@yandex.by, osthim@gmail.com","1"
"s.dudarevich@idg.by,  44duda44@gmail.com","2"
"sec@kobrincheese.com","1"
"secretar@amazis.by","2"
"secretar@belmilk.by","1"
"secretar_bpf@tut.by","1"
"secretar@rubikon.by, commerce@rubikon.by","1"
"secretar@ulicom.by","3"
"selagro@tut.by","3"
"selhozdrog@tut.by","1"
"selhozremtehnika@tut.by","1"
"selmash@tut.by","4"
"selsnab@inbox.ru","2"
"sembeltrav@gmail.com","1"
"semena.kis@tut.by","1"
"semena_sluck@mail.ru","1"
"semenova@logist.by","2"
"semexbelarus@tut.by","2"
"sennoservis@mail.ru","1"
"seraya@valmax.by","4"
"sergeigerentinvest@mail.ru","1"
"sergejgerentinvest@mail.ru","1"
"sergey196011@gmail.com","1"
"serv2009@mail.ru","2"
"service@ulicom.by, marketing@ulicom.by","2"
"servis@vitebsk.by","5"
"SGavrilov@agroferment.ru","1"
"sh7@tut.by","5"
"SHANGAS1@MAIL.RU","2"
"shap.buh@mail.ru","1"
"sharkagrotex@yandex.ru","1"
"shaveyko@intercom.by","1"
"shaveyko@intercom.by, intercom_grodno@mail.ru","1"
"shepelkevich@rambler.ru","1"
"shina06@ list.ru, info@belavtoshina.by","1"
"shintex@mail.ru","6"
"Shkas@yandex.ru","2"
"shklovmaslo@tut.by","3"
"shpakovski@agrosb.by","2"
"shpmpf@mail.ru","4"
"shpol@sugar.by","4"
"shpol@sugar.by, sales@sugar.by","1"
"shrub_farm@mail.ru","1"
"shtepa1974@mail.ru","1"
"shuser78@mail.ru","1"
"shuser78@mail.ru, sergey@subaro.by","3"
"shyrkevich@rosintech.com","1"
"sibbio-bel@mail.ru","2"
"sig_bel@mail.ru","2"
"simonenok@mail.ru","1"
"sinid97@tut.by","1"
"skhp@tut.by","5"
"skidsugar@ssf.by","2"
"sklad@diapazontorg.by","1"
"	skyvent5@tut.by","1"
"slavbelstroy@gmail.com","1"
"slavgorodfood@gmail.com","3"
"slavproduct@mail.ru","3"
"slavproduct@mail.ru  slavproduct_gidra@mail.ru","1"
"slavproduct@mail.ru,  slavproduct_gidra@mail.ru","2"
"slavtan@tut.by","2"
"slav_technology@mail.ru","2"
"slmarket@tut.by","2"
"slsk.marketing@mail.ru","4"
"slutsk-len@tut.by","5"
"sm_borrti@mail.ru","1"
"smgsanteh@rambler.ru","1"
"smk.marketing@mail.ru","3"
"SMORGONAGS@yandex.ru","3"
"smorgon@skhp.by","2"
"smorgontractor@mail.ru","2"
"sms-agro@mail.ru","4"
"sn6150400@mail.ru","5"
"snabavtohays@mail.ru","2"
"snab@bzvsp.by","2"
"snab@bzvsp.by; bzvsp@mail.by","1"
"snab@bzvsp.by; bzvsp@mail.by; bvzsp@mail.ru","4"
"snab@bzvsp.by, bzvsp@mail.ru","2"
"snab@bzvsp.by; bzvsp@mail.ru","3"
"snabgenie_01@mail.ru","1"
"snabgorodok@tut.by","1"
"snabin@tut.by","3"
"Snabor@tut.by","2"
"snap777@tut.by","2"
"sni@albion.by","2"
"sni@albion.by, info@albion.by","2"
"	sn_ros@mail.ru","1"
"sn_ros@mail.ru","1"
"snytkina@valmax.by","1"
"soilzool@biobel.bas-net.by","1"
"soilzool@mail.ru -ее личная почта    soilzool@biobel.bas-net.by","1"
"sok_a7@mail","1"
"sok_a7@mail.ru","1"
"solonevichv@yandex.ru","1"
"solptf@mail.ru","1"
"sonar.2001@mail.ru, info@akvilonavto.com","5"
"sonar83@list.by","1"
"sonar83@list.ru","3"
"sortsemovosch@rambler.ru","1"
"Sovhozsr@rambler.ru","1"
"soyapro@yandex.ru","1"
"spar104@mail.ru","1"
"spartak11168.68@mail.ru","1"
"Specburcompany@yandex.by","2"
"speceurosbyt@mail.ru","1"
"spez_bel@tut.by","4"
" speztranslizing@gmail.com","2"
"speztranslizing@gmail.com","3"
"s.pilipuk@yandex.ru","3"
"spk010114@mail.ru","2"
"spkberesni@mail.ru","1"
"spk.golynka@mail.ru","1"
"spk-luk@tut.by","1"
"spk.rassvet-sbit@mail.ru","1"
"spk_uzdensky@mail.ru","1"
"Spmk2@tut.by","1"
"spm@mail.grodno.by","1"
"sso-2008-09@rambler.ru","1"
"s.sokolovski@flyfishsoft.com","1"
"ss@starco.by","2"
"sst-zavod@ngs.ru","1"
"stalfa@mail.ru","1"
"stalker_88@inbox.ru","4"
"stalprodukt-inv@mail.ru","3"
"stanki@mcz.by","1"
"stanki.mcz@yandex.ru","1"
"star19-08@mail.ru, info@keapl.by","1"
"startshina@mail.ru","1"
"stas.int@inbox.ru","1"
"STAS.INT@INBOX.RU","1"
"stavsky@jokey.by","1"
"stdkuban@mail.ru","1"
"steel_technology@tut.by","1"
"steklo@smk.by","1"
"stimul-brest@mail.ru","1"
"stokfer@mail.ru","2"
"stolstandart100@mail.ru","2"
"stomilbel@adsl.by","1"
"stroimontag94@inbox.ru","2"
"stroispec2003@mail.ru","3"
"studiagold@bk.ru","3"
"studiagold-vt@bk.ru ВРЕМЕННО","1"
"stv@bestpack.by","2"
"subtilis@subtilis.ru","1"
"sunseeds.minsk@gmail.com","2"
"super.rb2009@tut.by","2"
"Supertorg.by@gmail.com","2"
"sush.m819@gmail.com","2"
"sv@100den.by","2"
"s_v27@mail.ru","1"
"svetazar_LTD@mail.ru","3"
"Svetlana.Stasevich@sis.com.by","6"
"sweet-co@tut.by","1"
"sxd@tut.by","1"
"sxt375@tut.by","1"
"systp@rambler.ru","1"
"szhacnkin@gmail.com","1"
"Szhacnkin@gmail.com","2"
"szimovets@maschio.ru","1"
"tamara.bulah@slav.by","1"
"tanezhicy@agrominsk.by","1"
"tanzed@rambler.ru","1"
"tanzed@rambler.ru, karchmitkx@tut.by","1"
"taran@spartak.by, sbyt@spartak.by","1"
"tara_plus@inbox.ru","1"
"tars@open.by","2"
"tasakor82@mail.ru","2"
"tatiana.ekimenko@softservice.by","2"
"tatiana@oaompp.by","5"
"tauraszapad@mail.ru","2"
"tauraszapad@mail.ru, varlyha_pavel@mail.ru","3"
"tbels@mail.ru","3"
"tbt@tuapse.ru","1"
"td3@uniform.by ","2"
"td.arm@mail.ru","1"
"td.vayar@gmail.com","1"
"td.vayar@mail.com","1"
"technolog-m@mail.ru","1"
"techpf@mail.ru","1"
"techserv_@mail.ru","2"
"techtrade.egor@gmail.com","1"
"techtrade.irina@gmail.com","4"
"teh@agroholding.by","2"
"tehagrolad@tut.by","1"
"tehc.zahos@mail.ru","1"
"tehnikaagro@gmail.com","1"
"tehnodor@mail.ru","1"
"tehnolog@gidro.by","1"
"tehnolog_giulini@mail.ru","1"
"tehs.zahos@mail.ru","4"
"tekona@tut.by","4"
"tender@agromash.by","2"
"tender@technosklad.by","1"
"tender@technosklad.by, 220140@tut.by","1"
"TenteBel@mail.ru","2"
"tentexpress@tut.by","1"
"tenzodat@tut.by","2"
"teplica@mail.gomel.by","2"
"terratorg@gmail.com","4"
"texot@yandex.ru","2"
"tfs@mail.by","1"
"tgr2011@list.ru","1"
"tins02@mail.ru","1"
"tiragro2@tut.by","3"
"tiraspol-pmk@tut.by","1"
"tk_prod@mail.ru","1"
"tkz@tut.by","10"
"T_MM@TUT.BY","1"
"tokareva@agrofarmvrn.ru","1"
"tolagro@yandex.ru","2"
"tomashov@mail.ru","1"
"tomashov@mail.ru, nmminsk@mail.ru","2"
"topixagro@mail.ru","2"
"torg@7vetrov.by","1"
"torg@hleb-konditera.by","1"
"torg@keram.vitebsk.by","1"
"toshakaufman@gmail.com ","1"
"tov.kruk@mail.ru","1"
"tower@mail333.com","1"
"toyota@bpi.by","1"
"tpd@tut.by","1"
"tpi2014@bk.ru, info@tpi.by, tpi@tpi.by","3"
"tpi2014@bk.ru,-его, info@tpi.by, tpi@tpi.by","1"
"tps@neocm.com","1"
"tractorgrodno@mail.ru","1"
"tractoria@tut.by","2"
"trade@serviceprint.by","1"
"trade@sobru.com","1"
"transclimat@mail.ru","2"
"transebiz@gmail.com","1"
"trastimport@yandex.by","3"
"trekailo.nikita@bel-plast.com","2"
"triavto@tut.by","2"
"triem@tut.by","1"
"tripleagro@mail.ru","1"
"trivialplus@gmail.com","1"
"trucks.morozov@yandex.ru","1"
"trud12@tut.by","1"
"trukhanov@superpak.by","1"
"trukhanov@superpak.by, sales@superpak.by","1"
"trzdrog@gmail.com","1"
"t_stil@mail.ru","1"
"ttd.76@mail.ru","3"
"ttkomplex@mail.ru","1"
"ttp-tj@bk.ru","1"
"tuluzova@steklobel.com","2"
"turboprofby@gmail.com","2"
"turec_borkhp@mail.ru","2"
"turneps-servis1@rambler.ru","5"
"txk@tut.by","2"
"tynikov.s73@mail.ru","1"
"uaztut@mail.ru","2"
"uc-opt@mail.ru","3"
"uc-opt@mail.ru, shop1.united@gmail.com, shop@united-company.by","1"
"u.hlinski@convexintl.de","2"
"	ukan09@mail.ru","1"
"ukan09@mail.ru","1"
"uksp_goreckoe@tut.by","6"
"ultra7@tut.by","1"
"ultra.by@gmail.com","1"
"unadis@mail.ru","3"
"unatex@list.ru","2"
"unemana@tut.by","1"
"unibox@unibox.by","1"
"uniforma_by@mail.ru","3"
"unimetcom@yandex.by","4"
"unitape@mail.ru","1"
"uni_tent@mail.ru","1"
"up_petrics@yahoo.com","1"
"urbanovich.press@gmail.com, info@turovmilk.by","3"
"usenka60@smp.by","1"
"usenka@smp.by","1"
"usenko60@smp.by","1"
"ushachles@rambler.ru","1"
"ushagro@mail.ru","1"
"ushevichi@tut.by","3"
"utp1@bk.ru","2"
"u-t-t@tut.by","1"
"uvasya-u@mail.ru","2"
"uvn93@mail.ru","2"
"uzik90@gmail.com","1"
"vadim.tchaikovsky@tribute.by","1"
"vadimyatskiy@mail.ru","2"
"valandis@sagrada.biz","1"
"Valchuk.nadya@mail.ru","1"
"valerikmak@mail.ru","3"
"valerimak@mail.ru","1"
"vamaxtrade@gmail.com","4"
"vania_78@mail.ru","2"
"vanleo@tut.by","2"
"Vanya.Olenich.82@mail.ru","1"
"vara@vara.by","1"
"varlyha_pavel@mail.ru","2"
"vasilevskiyva@belshina.by","1"
"vasilishki_07@mail.ru","2"
"vat@vat.by","1"
"vbf@mail.ru","1"
"vbf@mail.ru- уточнить правильность почты","2"
"vbfsale@gmail.com","2"
"v.bozh@mail.ru","1"
"vbssale@gmail.com","1"
"vdras@vitebsk.by","2"
"vdv_market@vhp.by","1"
"vectorsil@yandex.ru","3"
"ved@belhim.by","3"
"ved-bmk@mail.ru","2"
"ved@milk.by","1"
"vek21pro@tut.by","1"
"vek21pro@tut.by, vek21pro@gmail.com","2"
"vek-tehnologij@mail.by","2"
"vek-tehnologij@mail.by, info@avtoinstrument.by","1"
"vendobel@yandex.ru","2"
"vent@alvaris.by","1"
"ventsfera@telegraf.by","1"
"venya94@yandex.by","1"
"verasen@tut.by","1"
"verba74@mail.ru","2"
"veres_grodno@tut.by","2"
"veronika@endvest.by","1"
"veronika@endwest.by","3"
"ves_gomel@mail.ru","2"
"vetinter@yandex.ru","1"
"vetmolagro@yandex.ru","1"
"vet-p@tut.by","3"
"vet@sts.anitex.by","2"
"vet@sts.anitex.by, ohana@sts.anitex.by","2"
"vetunif@mail.ru","1"
"vhp-ast@yandex.ru","1"
"vial02@mail.ru","2"
"vialpac@yandex.by","1"
"vialpak@yandex.ru ","3"
"viantinvest@gmail.com","2"
"vib-nv@yandex.ru","1"
"victor.kurakov@freor.lt","1"
"victorzhuikov@gmail.com","1"
"vigorinvest@tut.by","1"
"viktor.buran@mail.ru","6"
"viktoriya@agroprod.ru","1"
"vilenpak@mail.ru","1"
"vilka@tut.by","1"
"vipbox@tut.by","2"
"vip.provit@mail.ru","2"
"vip.tamazan@mail.ru","1"
"vishnevezkiagro@gmail.com","2"
"vishnevka46@mail.ru","1"
"vistoria_extraservice@mail.ru","2"
"vitagrimilk@mail.ru","1"
"vitagroline@mail.ru","1"
"vitalidok@yandex.ru","1"
"vitaliy@veles-torg.by","1"
"vitalshow@mail.ru","2"
"vitaly.gavrilov@bpp.by","1"
"vitaly.kachuk@syngenta.com","2"
"vitamin_produkt@tut.by","1"
"vitasol@borovsk.ru","1"
"vitbamarket@mail.ru","2"
"vitba_polotsk@mail.ru","1"
"vitebskoe-lukoshko-info@mail.ru","1"
"viterfood@mail.ru ","3"
"vitfalia@tut.by","1"
"vit@forjet.by","4"
"	vitkov@metaltech.by","1"
"vitkpk@tut.by","3"
"vitmk1@tut.by","1"
"vit.molo@gmail.com","2"
"vixanna@mail.ru","1"
"viza@hittour.by","2"
"v.kazak@tut.by","2"
"v.koleda@mail.ru, eurocara@bk.ru","1"
"vkrupenko@inbox.ru","3"
"vks_val@mail.ru","2"
"vkzavod@mail.ru","2"
"vlad-alf@tut.by","2"
"vlad@belagro.com","1"
"vladislav.tsur@gmail.com","1"
"vlanservis@tut.by","1"
"vmrz-marketing@mail.ru","3"
"vmsz@yancheese.by","1"
"vnk-minsk@mail.ru","2"
"vnk-minsk@mail.ru, venya94@yandex.by","2"
"vodarhleba2@tut.by","3"
"volat@list.ru","1"
"volgasik@tut.by","3"
"volgasik@tut.by\","1"
"volkhleb@tut.by","2"
"volodymyr.oliyarnyk@intramotion.com","1"
"volozhin-len@tut.by","2"
"vorihova@mail.ru","1"
"voronovich9@mail.ru","1"
"vp@belsvamo.by","2"
"vpkmarketing@inbox.ru","2"
"vpoddubsky@eurotaler.by, vpoddubsky@gmail.com","1"
"vpoddubsky@gmail.com","1"
"vred@tut.by","1"
"vrsht@mail.grodno.by ","1"
"vs75@tut.by","2"
"VSH.68@ mail.ru","1"
"vssminsk@yandex.ru","2"
"vstar07@rambler.ru","1"
"vs-tehnika@inbox.ru","1"
"vs-tehnika@inbox.ru, vs-tehnika@mail.ru, vst-snab@inbox.ru","2"
" vs-tehnika@mail.ru","2"
"v.tsvetkova@sivetra-agro.ru","2"
"vtzch2009@yandex.ru","1"
"vtzch@yandex.ru","2"
"vv.oemgroup@gmail.com","2"
"vysotskaja@leor.by","5"
"vzep_kc@vitebsk.by","1"
"vzep.konkova@mail.ru","1"
"vztzch2009@yandex.ru","1"
"vzvp@mail.ru","1"
"waldek.pil@op.pl","1"
"walentin_s@tut.by","1"
"wed@vmk.by","2"
"weseya@yandex.by","4"
"westltd@list.ru","2"
"wh-1981@rambler.ru","3"
"wilka@tut.by","1"
"with2@mail.ru","1"
"wladimir-67@tut.by","4"
"wmp_lplmkk@mail.ru","1"
"wwwlitviany-agro@tut.by","2"
"ximiya@tut.by","1"
"xleb1m@mail.ru","1"
"xoma_76@mail.ru","2"
"xoma-76@mail.ru","1"
"xytor@tut.by","2"
"yarashevich@elstar.com.pl","1"
"yarmar@telecom.by","3"
"yarosh@nikisbel.by   info@nikisbel.by","1"
"yarosh@nikisbel.by,    info@nikisbel.by","1"
"yava.71@yandex.by","1"
"y.hlinski@convexintl.de","1"
"ykrg@inbox.ru","3"
"ylianamex@rambler.ru","5"
"yliananex@rambler.ru","1"
"y_novoe@mail.ru","1"
"ysenko60@mail.ru, mashprom_@mail.ru","1"
"ytro2009@mail.ru","1"
"yulia.arykova@emvcongress.eu","1"
"yuliafedotova1989@gmail.com","1"
"Yuliya.Zimnokho@golfstream.ru","2"
"yurcha08@mail.ru","1"
"yurii.skorohod@mail.ru","1"
"yurii.skorohod@mail.ru, obllen@mail.ru","2"
"yurkevich-85@mail.ru","2"
"yuyakubets@gmail.com","1"
"zadneprovsky@mail.ru","1"
"zakaz@arenga.by","1"
"zakaz@varim.by","2"
"zakaz@vodopady.by","1"
"zakharchuk@gammavkusa.by","1"
"zakup@kdom.by","1"
"zakupki-sozh@yandex.by","1"
"zakup@krdom.by","1"
"zakurki-sozh@yandex.by","1"
"zamcom@mozyr-svz.by","1"
"zamdir@vara.by","1"
"zanita@zanita.by, prodaza@zanita.by","1"
"z_anna19@bk.ru","3"
"zapdvin@vitebsk.by","1"
"zarechenski-svorotva@mail.ru","1"
"zavod@h-b.by","5"
"zavod-kam@yandex.ru","1"
"zavodmilam@gmail.com","1"
"zavod_promburvod@mail.ru","1"
"zebra_photo@mail.ru","2"
"zelbor@tut.by","1"
"zhakom@tut.by","1"
"zham@sohim.by","2"
"zhavrid_anton@maz-man.com.by","4"
"zheleznova@travira.by","4"
"zhlobin_pticefabrika@mail.ru","1"
"zhukov@bth.by","1"
"zhur@feedimport.ru","3"
"ziv1001@yandex.ru, stomilbel@adsl.by","3"
"zlaki@mail.ru","5"
"zme.kot@mail.ru","1"
"z_misuno@tut.by","1"
"zsk10@list.ru","1"
"zsyr@tut.by","4"
"zvereva-sv@mail.ru","1"
"не верный номер","1"
"уволилась","1"
"уже не работает","1"
